<?xml version="1.0" encoding="UTF-8" standalone="no"?>
<!-- Created with Inkscape (http://www.inkscape.org/) -->

<svg
   xmlns:dc="http://purl.org/dc/elements/1.1/"
   xmlns:cc="http://creativecommons.org/ns#"
   xmlns:rdf="http://www.w3.org/1999/02/22-rdf-syntax-ns#"
   xmlns:svg="http://www.w3.org/2000/svg"
   xmlns="http://www.w3.org/2000/svg"
   xmlns:xlink="http://www.w3.org/1999/xlink"
   xmlns:sodipodi="http://sodipodi.sourceforge.net/DTD/sodipodi-0.dtd"
   xmlns:inkscape="http://www.inkscape.org/namespaces/inkscape"
   id="svg2"
   version="1.1"
   inkscape:version="0.92.3 (2405546, 2018-03-11)"
   width="2481"
   height="3503"
   sodipodi:docname="E24P01.svg">
  <metadata
     id="metadata8">
    <rdf:RDF>
      <cc:Work
         rdf:about="">
        <dc:format>image/svg+xml</dc:format>
        <dc:type
           rdf:resource="http://purl.org/dc/dcmitype/StillImage" />
        <dc:title />
      </cc:Work>
    </rdf:RDF>
  </metadata>
  <defs
     id="defs6">
    <filter
       style="color-interpolation-filters:sRGB"
       id="filter4375-4-1-1-1-9"
       inkscape:label="deevad outline effect">
      <feFlood
         id="feFlood4377-7-9-0-8-1"
         flood-opacity="1"
         flood-color="rgb(0,0,0)"
         result="flood" />
      <feComposite
         id="feComposite4379-3-8-8-2-77"
         in2="SourceGraphic"
         in="flood"
         operator="in"
         result="composite1" />
      <feMorphology
         id="feMorphology4393-1-0-49-8-9"
         operator="dilate"
         radius="4"
         result="result3" />
      <feComposite
         id="feComposite4385-9-5-7-0-8"
         in2="result3"
         in="SourceGraphic"
         operator="over"
         result="composite2" />
    </filter>
  </defs>
  <sodipodi:namedview
     pagecolor="#ffffff"
     bordercolor="#666666"
     borderopacity="1"
     objecttolerance="10"
     gridtolerance="10"
     guidetolerance="10"
     inkscape:pageopacity="0"
     inkscape:pageshadow="2"
     inkscape:window-width="1920"
     inkscape:window-height="1022"
     id="namedview4"
     showgrid="false"
     inkscape:zoom="0.34782609"
     inkscape:cx="1375.5819"
     inkscape:cy="1067.8575"
     inkscape:window-x="0"
     inkscape:window-y="0"
     inkscape:window-maximized="1"
     inkscape:current-layer="layer1"
     inkscape:snap-global="false" />
  <g
     inkscape:groupmode="layer"
     id="layer2"
     inkscape:label="artwork"
     sodipodi:insensitive="true">
    <image
       xlink:href="../gfx_Pepper-and-Carrot_by-David-Revoy_E24P01.png"
       width="2481"
       height="3503"
       id="image10"
       x="0"
       y="0" />
  </g>
  <g
     inkscape:groupmode="layer"
     id="layer3"
     inkscape:label="speechbubbles">
    <path
       style="fill:#ffffff;fill-rule:evenodd;stroke:none;stroke-width:1.2761097px;stroke-linecap:butt;stroke-linejoin:miter;stroke-opacity:1"
       d="m 440.62268,435.6798 c 50.22446,10.3778 90.54153,25.97813 75.10665,-17.06546 88.90053,58.4381 76.14778,18.41593 90.21259,4.3689 52.85462,41.28048 98.33173,35.39772 137.8248,-8.73782 22.32602,63.66343 69.04538,32.81806 110.25977,23.30101 -0.10161,17.90316 -26.60066,31.31704 95.01292,20.55476 -34.7725,16.16964 -32.49578,37.96384 45.31786,46.43583 -54.05288,13.00092 -83.73778,26.83488 -25.05914,43.68959 -31.17256,24.55329 -10.32313,39.14523 32.57687,49.51474 -100.4467,1.43599 -113.49075,3.82078 -97.37586,16.5467 -85.51955,-26.16442 -60.25067,-4.56586 -52.97849,15.49224 -39.80439,-11.5063 -69.22502,-38.70257 -140.33061,-2.91255 -21.14765,-11.87815 -40.64115,-26.88035 -87.70675,10.19418 -3.32015,-32.33917 -37.73094,-31.12261 -87.70674,-13.10682 -13.18139,-30.32815 -45.398,-23.06128 -97.99174,-3.76273 42.92849,-29.60091 46.03928,-44.16543 -37.58857,-58.2823 81.0424,-16.93386 49.00536,-32.62578 17.80275,-45.72242 30.82719,-12.31548 66.17384,-25.73102 -14.82386,-49.51483 47.35737,3.69751 87.61727,-0.68361 37.44755,-30.99302 z"
       id="path4582"
       inkscape:connector-curvature="0"
       sodipodi:nodetypes="ccccccccccccccccccc" />
    <path
       style="color:#000000;display:inline;overflow:visible;visibility:visible;fill:#ffffff;fill-opacity:1;fill-rule:nonzero;stroke:none;stroke-width:0.99999994px;marker:none;enable-background:accumulate"
       d="m 1120.4405,700.1743 c -32.2265,-17.97546 -75.6905,-29.21797 -94.8601,-55.01638 l -18.7309,38.20697 c -21.19647,-1.31166 -26.2338,-14.07539 -36.75813,-22.95055 l -18.52445,25.72405 C 902.21848,682.47077 878.08971,666.613 844.32571,653.77368 l -19.93547,22.60875 c 41.44339,8.00317 86.22663,23.6167 121.36515,31.70826 l 22.07602,-17.34663 c 14.0695,3.48337 27.30829,7.5971 36.83679,14.52656 l 23.5694,-31.97386 z"
       id="path4032"
       inkscape:connector-curvature="0"
       sodipodi:nodetypes="cccccccccccc" />
    <path
       style="color:#000000;display:inline;overflow:visible;visibility:visible;fill:#ffffff;fill-opacity:1;fill-rule:nonzero;stroke:none;stroke-width:1.57613468px;marker:none;enable-background:accumulate"
       d="m 1348.2212,1896.7047 c 11.0602,-14.42 58.8589,-56.6937 51.8283,-4.2944 76.7952,-60.4616 130.3624,-29.3193 185.2495,-3.3837 19.0217,-18.7288 26.5245,-50.0044 74.7737,-36.8974 -3.288,-21.1212 15.9306,-33.1556 55.2312,-37.0829 -48.0235,-18.0765 -54.9591,-31.8011 40.7766,-34.6505 -70.7422,-9.5165 -136.4888,-19.8738 -44.8357,-56.7174 -25.923,-4.142 -94.8977,27.4699 -45.5379,-82.6512 -51.4743,31.1332 -103.0023,45.6424 -149.391,-37.3865 -23.8918,27.9085 -55.1621,45.0041 -100.9128,-2.1241 -16.7431,28.5067 -81.3135,23.5672 -103.8198,14.7799 41.5549,38.8533 36.1842,59.3856 -28.9834,55.1435 97.4728,72.6319 10.5942,53.3439 -9.6132,66.5723 81.3099,30.5421 38.6145,51.8967 18.8447,75.8164 97.5933,12.1728 58.1792,49.6297 56.3898,82.876 z"
       id="path3549-3"
       inkscape:connector-curvature="0"
       sodipodi:nodetypes="ccccccccccccccc" />
    <path
       style="color:#000000;display:inline;overflow:visible;visibility:visible;fill:#ffffff;fill-opacity:1;fill-rule:nonzero;stroke:none;stroke-width:1.22637057px;marker:none;enable-background:accumulate"
       d="m 1279.7852,1949.3016 c 6.1474,-94.9205 102.1627,-170.3584 316.9733,-149.4179 115.0644,11.2168 260.5139,14.4693 252.8426,153.5406 -7.6711,139.0708 -210.2151,137.7053 -248.9444,140.4068 -38.7296,2.7023 -249.8995,-2.942 -285.4813,-50.7942 -22.2742,-29.9545 -35.8439,-64.3171 -35.3902,-93.7353 z"
       id="path4546-6"
       inkscape:connector-curvature="0"
       sodipodi:nodetypes="cssssc" />
    <path
       style="color:#000000;display:inline;overflow:visible;visibility:visible;fill:#ffffff;fill-opacity:1;fill-rule:nonzero;stroke:none;stroke-width:1px;marker:none;enable-background:accumulate"
       d="m 1725.1844,1861.3342 c 6.612,11.2759 86.9477,-29.2003 85.8796,-32.4046 0,0 27.5174,7.7754 31.5141,6.9248 1.9994,-6.4636 4.2729,-17.2204 4.2729,-17.2204 l 43.1705,1.271 -34.6999,8.0734 0.1804,21.2585 -36.6531,-7.0896 c -19.044,13.242 -51.208,25.1719 -50.7716,40.3619 z"
       id="path4448"
       inkscape:connector-curvature="0"
       sodipodi:nodetypes="cccccccccc" />
    <path
       style="color:#000000;display:inline;overflow:visible;visibility:visible;fill:#ffffff;fill-opacity:1;fill-rule:nonzero;stroke:none;stroke-width:0.99999994px;marker:none;enable-background:accumulate"
       d="m 27.722148,3129.3252 c 52.384913,9.5518 47.973777,44.4522 33.713736,56.5004 58.617166,-43.0392 95.886066,-29.5332 66.043356,13.7398 101.94047,-59.3986 84.29295,-9.6025 76.81515,17.058 48.55606,-56.6224 81.74616,-36.2518 101.62566,-1.3511 0.48689,-36.2154 62.22952,-38.2335 81.94425,-13.0714 25.57884,-62.4997 52.13877,-43.2211 101.01126,-27.7551 -37.11865,-23.4952 -65.19483,-44.112 34.51549,-74.1768 -53.44149,8.7063 -75.06607,-13.2354 16.80638,-37.5362 -91.08906,-1.1681 -97.49384,-35.1465 -0.76696,-51.053 -93.95011,0.1161 -91.73798,-22.7804 -48.86151,-52.0878 -65.94726,8.1812 -82.37224,-18.7952 -20.79269,-61.9865 -103.20171,38.8577 -108.30047,14.8638 -101.41122,-35.1869 -58.22536,54.8036 -53.42082,29.2696 -65.07513,-22.6566 -12.28009,38.1747 -43.87005,66.7007 -109.11159,22.1355 10.05196,24.8099 10.56966,51.9294 -78.55198,23.6201 47.69221,29.8318 16.58788,69.0032 -122.357939,68.3374 64.829499,19.7124 142.306329,61.445 53.383347,67.5984 35.558225,6.4836 44.875886,24.6287 42.76073,39.3984 -16.015675,4.7498 -37.290447,9.3478 -64.761199,13.8126 51.797329,13.4153 84.665751,30.6605 3.070859,54.6608 z"
       id="path3549-3-7"
       inkscape:connector-curvature="0"
       sodipodi:nodetypes="ccccccccccccccccccccc" />
    <path
       style="fill:#ffffff;stroke:none;stroke-width:1"
       d="m 1312.0471,2636.6402 c 24.8572,-23.3618 23.0898,-34.098 20.1693,-46.0928 -2.9204,-11.9949 -6.7783,-22.4564 -2.996,-29.6912 3.7822,-7.2345 11.9314,-13.7504 18.5182,-17.7105 6.5867,-3.9602 0.6895,-11.8462 0.1992,-20.4782 -0.4905,-8.632 11.6694,-54.4912 11.6694,-54.4912 0,0 15.4128,29.8223 17.3984,40.7257 1.9857,10.9032 2.7616,14.8752 2.4762,19.5352 -0.2855,4.6599 -2.4809,16.1126 -8.3834,22.0982 -5.9026,5.9855 -13.8607,8.5198 -19.1677,11.9592 -5.307,3.4394 -4.2207,13.2301 -3.7625,22.963 0.4583,9.7331 -0.6146,16.9839 -10.2491,30.0137 -8.2583,11.169 -25.872,21.1689 -25.872,21.1689 z"
       id="path3023-2"
       inkscape:connector-curvature="0"
       sodipodi:nodetypes="csssscssssssc" />
    <path
       style="color:#000000;display:inline;overflow:visible;visibility:visible;fill:#ffffff;fill-opacity:1;fill-rule:nonzero;stroke:none;stroke-width:0.99999994px;marker:none;enable-background:accumulate"
       d="m 1316.0029,3034.7179 c 5.2109,-36.069 14.5234,-83.1655 -40.179,-91.5576 2.7742,1.4246 74.681,-16.1526 71.113,92.3401 -3.568,108.4926 -13.868,120.9339 -13.868,120.9339 z"
       id="path4064"
       inkscape:connector-curvature="0"
       sodipodi:nodetypes="ccscc" />
    <path
       style="color:#000000;display:inline;overflow:visible;visibility:visible;fill:#ffffff;fill-opacity:1;fill-rule:nonzero;stroke:none;stroke-width:1.15832961px;marker:none;enable-background:accumulate"
       d="m 1044.2178,3278.0405 c -1.3242,-74.4558 42.0063,-119.5552 50.3143,-125.7478 74.9839,-55.8892 308.5567,-35.2336 349.5539,3.3091 34.4256,31.4371 42.3702,52.9465 38.3979,81.0744 -3.9723,28.1277 -25.1574,102.5836 -74.1478,124.0932 -48.9903,21.5094 -162.8601,31.437 -222.4434,14.8911 -59.5829,-16.5458 -146.9714,-33.0914 -141.6749,-97.62 z"
       id="path3517"
       inkscape:connector-curvature="0"
       sodipodi:nodetypes="cscsccc" />
    <path
       style="color:#000000;display:inline;overflow:visible;visibility:visible;fill:#ffffff;fill-opacity:1;fill-rule:nonzero;stroke:none;stroke-width:0.861063px;marker:none;enable-background:accumulate"
       d="m 1146.2027,3091.2379 c -1.1746,-23.444 21.3289,-47.8642 33.0747,-55.3662 11.7461,-7.5021 83.0232,-14.8437 110.0387,-14.8437 27.0155,0 141.3233,4.1622 161.2914,21.0419 19.9679,16.8797 43.087,29.5971 30.1666,57.7299 -12.9206,28.1328 -93.9671,42.1992 -111.586,45.0124 -17.6188,2.8133 -68.1262,4.6888 -84.5704,3.7512 -16.4443,-0.9379 -141.9387,-18.8773 -138.415,-57.3255 z"
       id="path3357"
       inkscape:connector-curvature="0"
       inkscape:transform-center-x="-251.35553"
       inkscape:transform-center-y="-109.19728"
       sodipodi:nodetypes="ccsscccc" />
    <path
       style="fill:#ffffff;fill-rule:evenodd;stroke:none;stroke-width:1.13513815px;stroke-linecap:butt;stroke-linejoin:miter;stroke-opacity:1"
       d="m 1101.7023,2472.1606 c 10.4324,-26.2687 38.5257,-46.1996 69.1012,-59.5047 14.5505,-6.4236 31.1822,-11.1309 48.2012,-9.8927 16.9075,0.7398 33.4219,5.157 50.5164,3.6227 20.7865,-0.5067 41.9378,-2.7176 62.4857,0.4416 18.2661,3.4471 37.0855,5.2324 55.935,5.3359 13.2978,-2.188 25.466,3.6437 37.3418,7.1317 10.6612,3.7677 21.5508,7.7207 30.5056,13.5487 8.2502,8.1814 18.1286,15.299 26.4751,23.4074 5.4613,4.4328 4.9367,10.5558 4.6851,16.2226 -0.7093,11.6041 -1.9104,23.3913 -6.3689,34.571 -2.6678,7.0975 -12.5291,9.4465 -20.1062,12.7079 -17.9287,6.885 -36.9667,12.1059 -54.0775,20.2081 -16.9519,4.1486 -34.9669,2.2082 -52.3519,1.5812 -14.5674,-1.2349 -29.2214,-2.957 -43.9139,-1.5209 -18.7001,1.0508 -37.3434,3.7721 -56.1106,3.4236 -23.5099,-2.3918 -46.026,-8.281 -68.8092,-13.0052 -20.4405,-4.164 -39.0706,-11.9938 -56.9464,-20.3697 -9.5486,-4.7564 -19.6569,-10.285 -23.0269,-19.0505 -2.7624,-6.0357 -3.4134,-12.4986 -3.5356,-18.8587 z"
       id="path4365"
       inkscape:connector-curvature="0" />
    <path
       style="color:#000000;display:inline;overflow:visible;visibility:visible;fill:#ffffff;fill-opacity:1;fill-rule:nonzero;stroke:none;stroke-width:1.12032115px;marker:none;enable-background:accumulate"
       d="m 2429.6882,2354.135 c -276.296,5.664 -518.6157,-1.8619 -676.8536,-3.1385 1.2792,29.3316 -32.7345,22.3328 -64.9356,7.7184 25.6363,58.3937 4.4681,67.0151 -59.9331,39.2111 65.0019,58.2469 24.186,71.1828 -55.8006,34.0078 77.1276,58.0333 123.9126,91.9087 -27.4275,56.7378 89.6776,38.4263 97.2078,51.8356 15.0603,71.2519 79.9378,22.4893 74.2516,45.4361 -5.5738,49.4428 112.6925,27.7178 58.454,43.2043 -0.012,54.7152 103.5917,19.0258 94.5752,24.6489 7.0838,71.8295 62.5627,-11.4491 175.725,-16.0296 73.2307,46.588 126.676,-20.2254 141.9213,-6.9285 40.2769,53.6563 58.0506,-18.2784 154.3112,-31.337 109.543,16.4775 74.0968,-30.2272 43.268,10.9886 37.784,35.204 9.7004,-7.9446 41.4267,-55.4847 51.7961,-23.2885 18.9028,-23.2376 34.8496,-18.7159 32.8335,14.1633 16.3038,-19.1042 54.716,-39.4281 40.8418,0.758 24.1515,-40.21 30.0802,-7.3497 18.5204,24.8185 60.3801,-62.5107 69.1077,-65.5945 74.6327,4.2952 25.2019,-39.3517 55.3885,-79.5171 104.6494,-12.348 0.064,-22.3292 8.6477,-60.1712 89.1259,8.4578 -32.4025,-70.6232 46.9777,-56.912 80.594,10.957 -41.0262,-86.5033 11.9146,-126.4741 78.5561,-36.0341 6.5524,-118.7449 37.7801,-426.102 36.0071,-525.481 z"
       id="path4024"
       inkscape:connector-curvature="0"
       sodipodi:nodetypes="ccccccccccccccccccccccccc" />
    <path
       style="fill:#ffffff;fill-rule:evenodd;stroke:none;stroke-width:0.99999994px;stroke-linecap:butt;stroke-linejoin:miter;stroke-opacity:1"
       d="m 2320.0189,2966.9466 -102.8737,31.1414 30.781,-65.8394 -54.3109,13.511 73.467,-174.0894 -83.4186,10.4305 -22.2012,199.1888 46.5569,-15.7553 -28.3923,68.2411 z"
       id="path5002"
       inkscape:connector-curvature="0"
       sodipodi:nodetypes="cccccccccc" />
    <text
       xml:space="preserve"
       style="font-style:normal;font-variant:normal;font-weight:normal;font-stretch:normal;line-height:0%;font-family:Lavi;-inkscape-font-specification:Lavi;letter-spacing:0px;word-spacing:0px;fill:#ffffff;fill-opacity:1;stroke:#000000;stroke-width:0.57625628;stroke-miterlimit:4;stroke-dasharray:none;stroke-opacity:1;filter:url(#filter4375-4-1-1-1-9)"
       x="787.65729"
       y="1584.5073"
       id="text4580"
       transform="matrix(0.47590856,-0.23101257,-0.08785973,0.61214035,2031.0903,1288.3406)"><tspan
         sodipodi:role="line"
         id="tspan4582"
         x="787.65729"
         y="1584.5073"
         style="font-size:70px;line-height:1.25;letter-spacing:5.62810278px;fill:#ffffff;stroke-width:0.57625628;stroke-miterlimit:4;stroke-dasharray:none"><tspan
           style="font-size:61.46733856px"
           id="tspan896">DÒRN</tspan><tspan
           style="font-size:80.40014648px;letter-spacing:5.62810278px;fill:#ffffff;stroke-width:0.57625628;stroke-miterlimit:4;stroke-dasharray:none"
           id="tspan4617">!</tspan></tspan></text>
    <path
       style="fill:#ffffff;fill-rule:evenodd;stroke:none;stroke-width:1.27610993px;stroke-linecap:butt;stroke-linejoin:miter;stroke-opacity:1"
       d="m 492.33606,688.13568 c 87.57733,-14.71022 75.42942,20.21656 67.29823,53.14407 61.56371,-43.59903 90.00017,-29.85149 100.94737,14.17175 54.75727,-62.22579 96.49735,-30.90893 139.7733,-10.62881 1.66651,-30.58118 -1.16413,-56.41735 98.37025,-26.10788 -31.07626,-28.95855 -8.04615,-60.58111 63.69338,-72.13668 -100.73654,-15.97494 -69.9184,-28.89737 -6.76001,-61.18765 -73.88884,26.89223 -121.40652,30.92349 -106.12415,-19.48617 -74.26663,49.76939 -84.98784,18.77197 -98.35898,-8.85734 -30.87941,57.85359 -73.38144,40.93556 -119.06612,3.54293 1.23115,36.0549 -16.61385,57.18925 -98.35897,28.34351 13.99953,26.18958 54.95429,62.31265 -41.4143,47.82967 51.63022,15.40054 70.11821,31.90752 0,51.3726 z"
       id="path907"
       inkscape:connector-curvature="0"
       sodipodi:nodetypes="ccccccccccccc" />
  </g>
  <g
     inkscape:groupmode="layer"
     id="layer1"
     inkscape:label="txt"
     style="display:inline">
    <path
       style="color:#000000;display:inline;overflow:visible;visibility:visible;fill:#ffffff;fill-opacity:1;fill-rule:nonzero;stroke:none;stroke-width:1px;marker:none;enable-background:accumulate"
       d="m 643.30092,3062.9957 c -16.45129,42.7371 -57.34368,52.6864 -79.08413,59.0603 -3.49561,-4.6209 -10.29733,-21.207 -10.29733,-21.207 0,0 -73.99284,20.9972 -91.7304,22.9324 -17.73755,1.9353 -27.60488,-25.996 -27.60488,-25.996 -1.49889,4.9963 104.15858,-3.83 127.4154,-18.4787 8.90084,13.0355 10.12822,16.304 14.99068,21.2359 13.47897,-4.7946 53.36319,-19.1261 66.31066,-37.5469 z"
       id="path4456"
       inkscape:connector-curvature="0"
       sodipodi:nodetypes="cccscccc" />
    <text
       xml:space="preserve"
       style="font-style:normal;font-variant:normal;font-weight:normal;font-stretch:normal;line-height:0%;font-family:Lavi;-inkscape-font-specification:Lavi;text-align:center;letter-spacing:0px;word-spacing:0px;text-anchor:middle;fill:#000000;fill-opacity:1;stroke:none"
       x="687.88342"
       y="526.70581"
       id="text4246"><tspan
         sodipodi:role="line"
         style="font-size:45px;line-height:1.25"
         x="694.91467"
         y="526.70581"
         id="tspan76">... ’s tusa ag iarraidh </tspan><tspan
         sodipodi:role="line"
         style="font-size:45px;line-height:1.25"
         x="687.88342"
         y="582.95581"
         id="tspan74">Craobh Aonaidh!</tspan></text>
    <text
       xml:space="preserve"
       style="font-style:normal;font-variant:normal;font-weight:normal;font-stretch:normal;line-height:0%;font-family:Lavi;-inkscape-font-specification:Lavi;text-align:center;letter-spacing:0px;word-spacing:0px;text-anchor:middle;fill:#000000;fill-opacity:1;stroke:none"
       x="1575.9264"
       y="1893.9833"
       id="text4246-7"><tspan
         sodipodi:role="line"
         style="font-size:45px;line-height:1.25"
         x="1582.9576"
         y="1893.9833"
         id="tspan934">’S e bana-bhuidsichean </tspan><tspan
         sodipodi:role="line"
         style="font-size:45px;line-height:1.25"
         x="1582.9576"
         y="1950.2333"
         id="tspan85">an dubh-choimeisg a th’ </tspan><tspan
         sodipodi:role="line"
         style="font-size:45px;line-height:1.25"
         x="1582.9576"
         y="2006.4833"
         id="tspan87">annainn ’s CHA DÈAN </tspan><tspan
         sodipodi:role="line"
         style="font-size:45px;line-height:1.25"
         x="1575.9264"
         y="2062.7334"
         id="tspan89">sinn a leithid rud.</tspan></text>
    <text
       xml:space="preserve"
       style="font-style:normal;font-variant:normal;font-weight:normal;font-stretch:normal;line-height:0%;font-family:Lavi;-inkscape-font-specification:Lavi;text-align:center;letter-spacing:0px;word-spacing:0px;text-anchor:middle;fill:#000000;fill-opacity:1;stroke:none"
       x="283.52304"
       y="2997"
       id="text4246-7-6"><tspan
         sodipodi:role="line"
         style="font-size:45px;line-height:1.25"
         x="290.55429"
         y="2997"
         id="tspan1069">B’ fheàirrde thu </tspan><tspan
         sodipodi:role="line"
         style="font-size:45px;line-height:1.25"
         x="290.55429"
         y="3053.25"
         id="tspan102">d’ aire a chur air </tspan><tspan
         sodipodi:role="line"
         style="font-size:45px;line-height:1.25"
         x="283.52304"
         y="3109.5"
         id="tspan104">“Geasan millidh”!</tspan></text>
    <text
       xml:space="preserve"
       style="font-style:normal;font-variant:normal;font-weight:normal;font-stretch:normal;line-height:0%;font-family:Lavi;-inkscape-font-specification:Lavi;text-align:center;letter-spacing:0px;word-spacing:0px;text-anchor:middle;fill:#000000;fill-opacity:1;stroke:none"
       x="1299.3973"
       y="2465.7979"
       id="text4246-7-6-2"><tspan
         sodipodi:role="line"
         style="font-size:45px;line-height:1.25"
         x="1306.4286"
         y="2465.7979"
         id="tspan1069-6">Milleadh ann an </tspan><tspan
         sodipodi:role="line"
         style="font-size:45px;line-height:1.25"
         x="1299.3973"
         y="2522.0479"
         id="tspan106">da-rìbibh?</tspan></text>
    <text
       xml:space="preserve"
       style="font-style:normal;font-variant:normal;font-weight:normal;font-stretch:normal;line-height:0%;font-family:Lavi;-inkscape-font-specification:Lavi;text-align:center;letter-spacing:0px;word-spacing:0px;text-anchor:middle;fill:#000000;fill-opacity:1;stroke:none"
       x="1313.0408"
       y="3098.3787"
       id="text4246-7-6-2-0"><tspan
         sodipodi:role="line"
         style="font-size:45px;line-height:1.25"
         x="1313.0408"
         y="3098.3787"
         id="tspan4434">An ràith seo?</tspan></text>
    <text
       xml:space="preserve"
       style="font-style:normal;font-variant:normal;font-weight:normal;font-stretch:normal;line-height:0%;font-family:Lavi;-inkscape-font-specification:Lavi;text-align:center;letter-spacing:0px;word-spacing:0px;text-anchor:middle;fill:#000000;fill-opacity:1;stroke:none"
       x="1268.27"
       y="3187.5964"
       id="text4246-7-6-2-0-5"><tspan
         sodipodi:role="line"
         style="font-size:45px;line-height:1.25"
         x="1275.3013"
         y="3187.5964"
         id="tspan4447">Carson nach </tspan><tspan
         sodipodi:role="line"
         style="font-size:45px;line-height:1.25"
         x="1275.3013"
         y="3243.8464"
         id="tspan115">ionnsaichinn geasan </tspan><tspan
         sodipodi:role="line"
         style="font-size:45px;line-height:1.25"
         x="1275.3013"
         y="3300.0964"
         id="tspan119">cruthachaidh ’nan </tspan><tspan
         sodipodi:role="line"
         style="font-size:45px;line-height:1.25"
         x="1268.27"
         y="3356.3464"
         id="tspan781">àite?</tspan></text>
    <text
       xml:space="preserve"
       style="font-style:normal;font-variant:normal;font-weight:normal;font-stretch:normal;line-height:0%;font-family:Lavi;-inkscape-font-specification:Lavi;text-align:center;letter-spacing:0px;word-spacing:0px;text-anchor:middle;fill:#000000;fill-opacity:1;stroke:none;stroke-width:1.60000002;stroke-miterlimit:4;stroke-dasharray:none"
       x="2001.9304"
       y="2459.3547"
       id="text4246-7-6-2-04"><tspan
         sodipodi:role="line"
         style="font-size:45px;line-height:1.25;stroke:none;stroke-width:1.60000002;stroke-miterlimit:4;stroke-dasharray:none"
         x="2008.9617"
         y="2459.3547"
         id="tspan167">Tha ath Chomhairle nan Trì </tspan><tspan
         sodipodi:role="line"
         style="font-size:45px;line-height:1.25;stroke:none;stroke-width:1.60000002;stroke-miterlimit:4;stroke-dasharray:none"
         x="2008.9617"
         y="2515.6047"
         id="tspan165">Gealaichean gu bhith tighinn oirnn </tspan><tspan
         sodipodi:role="line"
         style="font-size:45px;line-height:1.25;stroke:none;stroke-width:1.60000002;stroke-miterlimit:4;stroke-dasharray:none"
         x="2008.9617"
         y="2571.8547"
         id="tspan177">mar a tha na deuchainnean agad. </tspan><tspan
         sodipodi:role="line"
         style="font-size:45px;line-height:1.25;stroke:#000000;stroke-width:1.60000002;stroke-miterlimit:4;stroke-dasharray:none;stroke-opacity:1"
         x="2001.9304"
         y="2628.1047"
         id="tspan4456"><tspan
   id="tspan179"
   style="font-size:45px;line-height:1.25;stroke:none;stroke-width:1.60000002;stroke-miterlimit:4;stroke-dasharray:none">Ionnsaich! </tspan>Ionnsaich! IONNSAICH!!!</tspan><tspan
         sodipodi:role="line"
         style="font-size:45px;line-height:1.25;stroke:#000000;stroke-width:1.60000002;stroke-miterlimit:4;stroke-dasharray:none;stroke-opacity:1"
         x="2008.9617"
         y="2684.3547"
         id="tspan195">AGUS SEACHAIN AM BUAIREADH </tspan><tspan
         sodipodi:role="line"
         style="font-size:45px;line-height:1.25;stroke:#000000;stroke-width:1.60000002;stroke-miterlimit:4;stroke-dasharray:none;stroke-opacity:1"
         x="2008.9617"
         y="2740.6047"
         id="tspan201">A CHUIREAS DO BHEACHDAN </tspan><tspan
         sodipodi:role="line"
         style="font-size:45px;line-height:1.25;stroke:#000000;stroke-width:1.60000002;stroke-miterlimit:4;stroke-dasharray:none;stroke-opacity:1"
         x="2001.9304"
         y="2796.8547"
         id="tspan209">AMAIDEACH ORT!!!</tspan></text>
    <flowRoot
       xml:space="preserve"
       id="flowRoot862"
       style="font-style:normal;font-variant:normal;font-weight:normal;font-stretch:normal;font-size:0.66666669px;line-height:318.00000668%;font-family:Neuropolitical;-inkscape-font-specification:Neuropolitical;text-align:center;letter-spacing:0px;word-spacing:0px;writing-mode:lr-tb;text-anchor:middle;fill:#000000;fill-opacity:1;stroke:none;stroke-width:1px;stroke-linecap:butt;stroke-linejoin:miter;stroke-opacity:1"><flowRegion
         id="flowRegion864"><rect
           id="rect866"
           width="103.5"
           height="5.75"
           x="1181.625"
           y="3275.875" /></flowRegion><flowPara
         id="flowPara868" /></flowRoot>    <text
       xml:space="preserve"
       style="font-style:normal;font-variant:normal;font-weight:normal;font-stretch:normal;font-size:14.71681118px;line-height:0%;font-family:Lavi;-inkscape-font-specification:Lavi;text-align:center;letter-spacing:0px;word-spacing:0px;text-anchor:middle;fill:#000000;fill-opacity:1;stroke:none;stroke-width:1"
       x="841.80847"
       y="682.29504"
       id="text4246-36"
       transform="skewX(-9.9961078)"><tspan
         sodipodi:role="line"
         style="font-size:55.18804169px;line-height:1.25;stroke-width:1"
         x="841.80847"
         y="682.29504"
         id="tspan837-3">Ann a sheo!!!</tspan></text>
    <text
       xml:space="preserve"
       style="font-style:normal;font-variant:normal;font-weight:normal;font-stretch:normal;font-size:19.04891968px;line-height:0%;font-family:Lavi;-inkscape-font-specification:Lavi;text-align:center;letter-spacing:0px;word-spacing:0px;text-anchor:middle;fill:#000000;fill-opacity:1;stroke:none;stroke-width:1.99999988;stroke-miterlimit:4;stroke-dasharray:none"
       x="1738.9905"
       y="1750.2946"
       id="text4246-3"
       transform="matrix(1.0148714,0,-0.1559129,0.98534652,0,0)"><tspan
         sodipodi:role="line"
         style="font-size:63.99999993px;line-height:1.25;stroke:#000000;stroke-width:1.99999988;stroke-miterlimit:4;stroke-dasharray:none;stroke-opacity:1"
         x="1750.152"
         y="1750.2946"
         id="tspan4252-6">CHAN </tspan><tspan
         sodipodi:role="line"
         style="font-size:63.99999993px;line-height:1.25;stroke:#000000;stroke-width:1.99999988;stroke-miterlimit:4;stroke-dasharray:none;stroke-opacity:1"
         x="1738.9905"
         y="1839.5864"
         id="tspan91">FHAIGH!</tspan></text>
  </g>
</svg>
