<?xml version="1.0" encoding="UTF-8" standalone="no"?>
<svg
   xmlns:dc="http://purl.org/dc/elements/1.1/"
   xmlns:cc="http://creativecommons.org/ns#"
   xmlns:rdf="http://www.w3.org/1999/02/22-rdf-syntax-ns#"
   xmlns:svg="http://www.w3.org/2000/svg"
   xmlns="http://www.w3.org/2000/svg"
   xmlns:xlink="http://www.w3.org/1999/xlink"
   xmlns:sodipodi="http://sodipodi.sourceforge.net/DTD/sodipodi-0.dtd"
   xmlns:inkscape="http://www.inkscape.org/namespaces/inkscape"
   id="svg2"
   version="1.1"
   inkscape:version="0.92.4 (5da689c313, 2019-01-14)"
   width="2481"
   height="3503"
   sodipodi:docname="E33P02.svg">
  <metadata
     id="metadata8">
    <rdf:RDF>
      <cc:Work
         rdf:about="">
        <dc:format>image/svg+xml</dc:format>
        <dc:type
           rdf:resource="http://purl.org/dc/dcmitype/StillImage" />
        <dc:title />
      </cc:Work>
    </rdf:RDF>
  </metadata>
  <defs
     id="defs6">
    <filter
       x="-0.15000001"
       width="1.3"
       y="-0.15000001"
       height="1.3"
       inkscape:menu-tooltip="Something like a water noise"
       inkscape:menu="Distort"
       inkscape:label="dark-magic-speech"
       id="filter3018-9-9"
       style="color-interpolation-filters:sRGB">
      <feTurbulence
         result="result1"
         baseFrequency="0.045999999999999999"
         type="fractalNoise"
         seed="0"
         numOctaves="5"
         id="feTurbulence3020-3-0" />
      <feGaussianBlur
         result="result2"
         stdDeviation="2"
         id="feGaussianBlur3022-77-9" />
      <feDisplacementMap
         in="SourceGraphic"
         xChannelSelector="R"
         yChannelSelector="B"
         scale="50"
         in2="result2"
         id="feDisplacementMap3024-6-9" />
    </filter>
    <filter
       inkscape:label="soundFX"
       id="filter4375-4-1-1-1-9-5-8-6"
       style="color-interpolation-filters:sRGB"
       width="1.1900001">
      <feFlood
         result="flood"
         flood-color="rgb(92,53,102)"
         flood-opacity="1"
         id="feFlood4377-7-9-0-8-1-7-3-7" />
      <feComposite
         result="composite1"
         operator="in"
         in="flood"
         in2="SourceGraphic"
         id="feComposite4379-3-8-8-2-77-4-1-5" />
      <feMorphology
         result="result3"
         radius="6.2000000000000002"
         operator="dilate"
         id="feMorphology4393-1-0-49-8-9-3-0-3" />
      <feComposite
         result="fbSourceGraphic"
         operator="over"
         in="SourceGraphic"
         in2="result3"
         id="feComposite4385-9-5-7-0-8-8-7-56" />
      <feColorMatrix
         id="feColorMatrix4544-2"
         values="0 0 0 -1 0 0 0 0 -1 0 0 0 0 -1 0 0 0 0 1 0"
         in="fbSourceGraphic"
         result="fbSourceGraphicAlpha" />
      <feTurbulence
         result="turbulence"
         baseFrequency="0.129 0.0050000000000000001"
         seed="37"
         numOctaves="3"
         type="fractalNoise"
         id="feTurbulence4546-9" />
      <feDisplacementMap
         result="fbSourceGraphic"
         xChannelSelector="B"
         yChannelSelector="A"
         scale="10"
         in="fbSourceGraphic"
         in2="turbulence"
         id="feDisplacementMap4548-1" />
      <feColorMatrix
         id="feColorMatrix4670-2"
         values="0 0 0 -1 0 0 0 0 -1 0 0 0 0 -1 0 0 0 0 1 0"
         in="fbSourceGraphic"
         result="fbSourceGraphicAlpha" />
      <feComposite
         result="composite1"
         operator="in"
         in="flood"
         in2="fbSourceGraphic"
         id="feComposite4674-0" />
      <feComposite
         result="composite2"
         operator="over"
         in="fbSourceGraphic"
         in2="composite1"
         id="feComposite4680-6" />
    </filter>
  </defs>
  <sodipodi:namedview
     pagecolor="#ffffff"
     bordercolor="#666666"
     borderopacity="1"
     objecttolerance="10"
     gridtolerance="10"
     guidetolerance="10"
     inkscape:pageopacity="0"
     inkscape:pageshadow="2"
     inkscape:window-width="1858"
     inkscape:window-height="1057"
     id="namedview4"
     showgrid="false"
     inkscape:zoom="0.31901186"
     inkscape:cx="301.99709"
     inkscape:cy="1673.9908"
     inkscape:window-x="54"
     inkscape:window-y="-8"
     inkscape:window-maximized="1"
     inkscape:current-layer="layer3"
     inkscape:document-rotation="0"
     inkscape:snap-global="false" />
  <g
     inkscape:groupmode="layer"
     id="layer2"
     inkscape:label="artwork"
     sodipodi:insensitive="true">
    <image
       sodipodi:absref="D:\Documents\code\webcomics\ep33_Spell-of-War\lang\id\../gfx_Pepper-and-Carrot_by-David-Revoy_E33P02.png"
       xlink:href="../gfx_Pepper-and-Carrot_by-David-Revoy_E33P02.png"
       width="2481"
       height="3503"
       id="image10"
       x="0"
       y="0" />
  </g>
  <g
     inkscape:groupmode="layer"
     id="layer3"
     inkscape:label="speechbubbles"
     style="display:inline">
    <path
       sodipodi:nodetypes="ccccsccccsccccc"
       inkscape:connector-curvature="0"
       id="path1295-3"
       d="m 1603.617,2900.7968 c 0,0 -27.3248,-23.7569 -41.3688,-35.7472 -14.043,-11.9899 -28.5234,-25.421 -51.5926,-37.4265 30.8469,13.6257 44.5534,17.6378 44.5534,17.6378 0,0 -30.7119,-30.2731 -78.5901,-47.7633 -24.6028,-8.9877 -65.2442,-10.0982 -90.2001,-8.8673 26.2546,-6.1035 46.8033,-9.281 46.8033,-9.281 0,0 -69.5507,-19.6686 -108.0388,-13.863 -38.4889,5.8053 -80.704,1.2939 -115.0144,43.7789 42.5625,-51.8884 78.9921,-52.8998 114.7823,-56.3237 50.6472,-4.8449 140.4415,8.5514 168.78,16.1899 -33.3821,2.0473 -42.6052,4.1201 -42.6052,4.1201 0,0 25.4783,0.4116 69.4951,23.1451 44.0157,22.7334 95.6203,69.3559 101.4489,78.2848 5.8296,8.9291 -18.453,26.1154 -18.453,26.1154 z"
       style="fill:#0f0f0f;fill-opacity:1;fill-rule:evenodd;stroke:none;stroke-width:0.999996px;stroke-linecap:butt;stroke-linejoin:miter;stroke-opacity:1" />
    <path
       transform="matrix(0.93497009,0,0,0.90016842,1250.2766,2805.4742)"
       sodipodi:nodetypes="csssssc"
       inkscape:connector-curvature="0"
       id="path3986-45"
       d="m 428.67969,53.949219 c -42.9455,2.206213 -86.51838,3.637631 -128.08166,15.746955 -23.49333,7.328264 -39.45999,31.049046 -40.665,55.167646 -0.4046,7.7912 0.90221,15.53043 1.45739,23.28513 2.55016,24.46915 7.18432,49.1848 3.46855,73.79367 -2.90562,24.54702 -11.54303,48.37071 -11.16067,73.28696 1.42366,17.0493 13.4606,32.79899 29.80529,38.13413 16.48909,6.33013 34.43531,3.7008 51.61308,5.68997 37.57918,3.49927 74.04102,14.07558 111.45088,18.68977 29.17951,2.20449 57.43742,-6.92586 85.37626,-13.91984 18.95134,-4.82587 38.90136,-9.2127 54.64389,-21.52563 18.9388,-14.5978 29.08533,-38.76161 28.68769,-62.41517 -0.72272,-19.63423 -1.43002,-39.28001 -3.13477,-58.86133 -1.92634,-22.38361 -4.38235,-44.73495 -7.55434,-66.973 C 601.27593,116.90057 594.74506,99.315489 581.24955,87.563759 568.03119,76.555412 550.63768,72.710668 533.96349,70.713705 498.93504,64.873836 464.49354,53.733654 428.67969,53.949219 Z"
       style="color:#000000;display:inline;overflow:visible;visibility:visible;fill:#0f0f0f;fill-opacity:1;fill-rule:nonzero;stroke:none;stroke-width:1px;marker:none;filter:url(#filter3018-9-9);enable-background:accumulate" />
    <path
       sodipodi:nodetypes="ccccccccccccccccccccccccccc"
       inkscape:connector-curvature="0"
       id="path4508-2"
       d="m 1856.8835,1280.1298 c 22.544,18.4361 1.968,35.4714 -26.4082,21.1251 29.5395,27.5168 13.1784,44.4292 -9.1017,43.4685 12.5104,19.1732 24.7374,37.549 -7.588,71.1536 20.1136,-2.9887 21.4395,-9.592 34.7535,-1.3166 6.6612,5.7695 6.7009,19.5545 1.4946,28.0112 -0.7824,2.9465 26.9928,18.0449 21.0305,15.9902 9.1348,-15.4524 18.6473,-16.5627 29.2866,-9.6223 3.2461,4.3374 -2.5287,22.0449 -7.5333,39.7852 11.2214,-17.0933 23.7573,-45.1105 40.3516,-33.567 5.1961,1.8574 11.2382,11.3305 11.539,19.923 3.2833,-28.3283 59.7736,-42.7134 41.2835,-4.2265 30.0459,-26.3313 43.8984,-29.5985 68.3006,16.87 -1.3325,-19.0952 2.6242,-31.2264 13.293,-33.0484 11.2752,-1.1155 26.1158,5.7952 39.6103,22.6849 -6.1903,-30.9755 6.6276,-46.4482 37.0007,-7.0416 -18.7361,-43.9688 20.4385,-24.6897 30.328,-13.6179 l 6.6949,5.2123 c -9.8864,-13.3869 -33.5947,-37.7508 -0.088,-47.5971 -23.0593,-23.8557 1.5297,-25.3357 12.3072,-24.3845 -14.1764,-9.3773 -30.7872,-33.923 -5.8446,-47.7401 5.9548,-3.3442 12.2296,-4.9783 18.1255,-8.6193 -13.7586,-2.2315 -27.6733,-2.5869 -41.2608,-7.0701 -3.2874,-5.2618 0.8028,-12.8733 12.371,-23.6261 -13.4821,3.1717 -19.0129,3.6339 -22.212,-0.5993 -1.7758,-8.1731 1.3483,-16.7809 5.3135,-21.6863 29.1968,-32.4945 -346.1196,-66.6191 -303.0473,-0.4609 z"
       style="display:inline;fill:#ffffff;fill-rule:evenodd;stroke:none;stroke-width:0.90686554px;stroke-linecap:butt;stroke-linejoin:miter;stroke-opacity:1" />
    <path
       sodipodi:nodetypes="zssssz"
       inkscape:connector-curvature="0"
       id="path4040-3"
       d="m 278.0836,1984.1357 c -43.69836,0.8751 -87.81507,3.8549 -129.83812,13.9661 -13.47746,4.8257 -20.80467,15.7654 -27.38012,25.6926 -7.66578,11.6702 -10.90048,26.354 -3.2049,38.5529 8.5435,13.9222 26.36688,22.4207 44.31037,26.9986 28.26718,7.5171 58.14647,10.0101 87.72816,11.654 42.03985,2.014 84.19097,1.6647 126.27909,1.0824 43.25075,-0.7804 86.53126,-2.1517 129.59068,-5.5951 18.69076,-1.6972 37.53964,-3.6747 55.47854,-8.3209 17.02392,-5.951 30.06658,-20.2147 28.58086,-35.3865 -0.79976,-17.2083 -14.88347,-32.4726 -32.68666,-41.4589 -22.98822,-12.3073 -50.85069,-16.2864 -77.69897,-19.6553 -66.5098,-8.2025 -134.06113,-7.5645 -201.15893,-7.5299 z"
       style="color:#000000;display:inline;overflow:visible;visibility:visible;opacity:1;fill:#ffffff;fill-opacity:1;fill-rule:nonzero;stroke:none;stroke-width:0.63527489px;marker:none;enable-background:accumulate" />
    <path
       sodipodi:nodetypes="zssssz"
       inkscape:connector-curvature="0"
       id="path4040-5"
       d="m 387.09686,2081.4239 c -66.75266,1.908 -131.28862,13.3811 -194.53599,26.2753 -30.11166,8.5011 -51.2447,28.5558 -61.40576,50.8333 -13.64524,29.2136 -12.83552,62.8059 3.08252,92.918 14.06367,23.8029 42.79152,42.7024 75.51049,51.3517 37.75219,11.2239 77.93039,14.864 117.42765,17.4538 64.47611,3.4667 128.67086,1.5879 192.94824,1.7903 36.92601,-0.293 74.09612,0.2007 110.51343,-3.2662 36.9648,-4.5809 72.86358,-14.049 102.94621,-29.8791 31.01068,-17.6847 48.54604,-46.7939 47.89493,-76.6449 0.28256,-27.9147 -11.20519,-57.0725 -35.69903,-79.8615 -22.7842,-20.2047 -55.74549,-32.3481 -88.77988,-39.3196 -44.17974,-9.4464 -89.65354,-8.4911 -134.42452,-9.731 -45.1858,-1.1095 -90.37985,-2.106 -135.47829,-1.9201 z"
       style="color:#000000;display:inline;overflow:visible;visibility:visible;opacity:1;fill:#ffffff;fill-opacity:1;fill-rule:nonzero;stroke:none;stroke-width:1.10949254px;marker:none;enable-background:accumulate" />
    <path
       inkscape:connector-curvature="0"
       id="path3072-6"
       d="m 649.21025,1998.686 c 7.88518,11.9538 14.91587,25.5164 14.63617,40.2108 -0.36106,15.5888 -8.81149,29.7901 -19.45505,40.6931 -12.17127,12.9287 -28.69751,21.4925 -38.60365,36.5715 -3.38773,4.3818 -5.55844,10.7494 -2.64656,15.9242 1.47567,3.2044 5.39218,4.0443 8.53129,3.0926 10.38429,-3.2204 21.30385,-4.4672 31.54171,-8.2051 15.31225,-16.9807 28.78775,-36.6953 33.7222,-59.3564 5.03094,-21.6253 -1.14003,-45.8981 -17.1672,-61.5342 -3.89901,-3.9477 -8.24271,-7.4293 -12.75617,-10.6465 0.73242,1.0834 1.46484,2.1667 2.19726,3.25 z"
       style="color:#000000;display:inline;overflow:visible;visibility:visible;fill:#ffffff;fill-opacity:1;fill-rule:nonzero;stroke:none;stroke-width:1px;marker:none;enable-background:accumulate"
       sodipodi:nodetypes="csccc" />
    <path
       inkscape:connector-curvature="0"
       id="path3278-12"
       d="m 940.24414,1303.5059 c -19.86263,1.4393 -40.26293,3.8207 -58.26172,12.9511 -18.57924,13.9082 -29.22506,36.7235 -30.64563,59.6256 -1.80835,18.2999 8.04058,37.574 24.7551,45.706 12.51375,6.3622 26.69495,7.7145 40.22969,10.6572 25.67643,4.9661 52.04925,6.5487 78.09921,3.999 20.77721,-1.6311 41.55681,-3.5807 62.15371,-6.7892 8.974,-1.8503 18.1794,-6.2514 22.7771,-14.5755 6.1196,-10.2692 8.068,-22.292 9.952,-33.9133 2.8463,-23.0435 -6.563,-47.4709 -24.7431,-62.0613 -4.1429,-3.3932 -8.9501,-5.9221 -14.1621,-7.2012 -10.1322,-2.6647 -20.6837,-2.7533 -31.0241,-4.094 -26.29164,-2.6216 -52.6926,-4.5223 -79.13016,-4.3044 z"
       style="display:inline;fill:#ffffff;stroke:none;stroke-width:0.999998" />
    <path
       sodipodi:nodetypes="zssssz"
       inkscape:connector-curvature="0"
       id="path4040-4-9"
       d="m 996.18049,1415.0048 c -24.40643,0.547 -49.04818,3.9862 -71.93564,13.6083 -22.49498,8.1379 -44.93401,19.1667 -61.75343,37.8514 -14.04218,16.5762 -26.27764,36.0547 -30.70004,58.4079 -4.55625,27.914 -5.88092,57.2741 1.90725,84.6718 7.31306,24.8681 24.88379,45.1894 45.97298,57.1256 23.38009,13.5478 49.91424,18.5148 75.96634,21.6369 26.24105,2.9713 52.58455,4.9487 78.95455,5.8567 30.0959,0.8431 60.4343,-0.1627 90.0571,-6.4319 19.0902,-4.4276 37.9364,-13.1184 51.844,-28.4084 20.2671,-21.3216 33.1782,-49.9966 39.0663,-79.7844 4.514,-24.4375 3.4468,-50.8816 -6.8364,-73.5038 -10.1936,-21.7038 -27.3657,-38.136 -44.6991,-52.9915 -16.7673,-14.2503 -35.9084,-26.2477 -57.1506,-30.08 -36.4139,-7.7396 -73.7237,-8.2237 -110.69331,-7.9586 z"
       style="color:#000000;display:inline;overflow:visible;visibility:visible;fill:#ffffff;fill-opacity:1;fill-rule:nonzero;stroke:none;stroke-width:1.33223975px;marker:none;enable-background:accumulate" />
    <path
       inkscape:connector-curvature="0"
       id="path1082"
       d="m 1005.5092,1622.4275 c -1.5474,-0.2856 -2.0526,1.3831 -1.0981,2.3984 6.9022,10.2571 11.3295,22.9594 9.2914,35.4258 -3.1852,16.1922 -9.8046,32.0595 -8.6545,48.8368 1.1191,13.9602 9.6025,26.2073 19.7796,35.3316 12.7705,11.6847 29.4582,19.7033 46.9627,19.9417 8.0219,-0.01 15.9545,-1.4957 23.8661,-2.677 2.0122,-0.3242 4.0201,-0.6741 6.0305,-1.0093 -21.3519,-1.0383 -42.6896,-10.0313 -57.063,-26.075 -7.9751,-11.2144 -9.1501,-25.6661 -7.8037,-38.9741 1.2287,-16.4415 5.3972,-33.1322 1.5972,-49.5368 -2.2772,-8.038 -5.4772,-16.8645 -13.1016,-21.291 -6.1562,-2.9998 -13.1892,-2.2768 -19.8066,-2.3711 z"
       style="display:inline;fill:#ffffff;fill-rule:evenodd;stroke:none;stroke-width:1px;stroke-linecap:butt;stroke-linejoin:miter;stroke-opacity:1" />
    <path
       sodipodi:nodetypes="ccsccccsccccc"
       inkscape:connector-curvature="0"
       id="path1295"
       d="m 1933.254,1410.8683 c -17.4616,22.7763 -39.3723,39.5766 -57.282,62.0022 0,0 -28.8441,38.6564 -40.2395,96.5112 -5.8554,29.7294 -3.0199,76.4916 0.4632,104.8789 -8.0432,-29.0428 -12.8817,-52.0472 -12.8817,-52.0472 0,0 -11.3274,83.0625 -2.3977,126.1749 8.9296,43.1135 8.8172,92.2603 50.7527,124.3161 -51.2796,-39.9049 -61.596,-93.6872 -67.0642,-134.2683 -13.5488,-100.5489 -5.0623,-156.4951 -0.7888,-190.2746 5.0241,37.9036 7.7845,48.1184 7.7845,48.1184 0,0 -2.0367,-29.2668 14.4986,-83.5927 16.5353,-54.3249 54.1065,-121.429 61.6856,-129.6345 7.5793,-8.2066 45.4693,27.8156 45.4693,27.8156 z"
       style="fill:#ffffff;fill-rule:evenodd;stroke:none;stroke-width:1px;stroke-linecap:butt;stroke-linejoin:miter;stroke-opacity:1" />
  </g>
  <g
     inkscape:groupmode="layer"
     id="layer1"
     inkscape:label="txt">
    <text
       id="text4246-5-6"
       y="2054.1208"
       x="350.19086"
       style="font-style:normal;font-variant:normal;font-weight:normal;font-stretch:normal;font-size:45px;line-height:0%;font-family:Lavi;-inkscape-font-specification:Lavi;text-align:center;letter-spacing:0px;word-spacing:0px;text-anchor:middle;fill:#000000;fill-opacity:1;stroke:none;stroke-width:0.88255"
       xml:space="preserve"
       inkscape:label="king"><tspan
         id="tspan439-5"
         y="2054.1208"
         x="350.19086"
         style="font-size:45px;line-height:1.25;stroke-width:0.88255"
         sodipodi:role="line">OK, penyihir muda.</tspan></text>
    <text
       id="text4246-5-8"
       y="2173.322"
       x="451.73721"
       style="font-style:normal;font-variant:normal;font-weight:normal;font-stretch:normal;font-size:45px;line-height:0%;font-family:Lavi;-inkscape-font-specification:Lavi;text-align:center;letter-spacing:0px;word-spacing:0px;text-anchor:middle;fill:#000000;fill-opacity:1;stroke:none;stroke-width:0.88255"
       xml:space="preserve"
       inkscape:label="kingB"><tspan
         y="2173.322"
         x="451.73721"
         style="font-size:45px;line-height:1.25;stroke-width:0.88255"
         sodipodi:role="line"
         id="tspan75">Kalau kamu punya mantra</tspan><tspan
         y="2229.572"
         x="451.73721"
         style="font-size:45px;line-height:1.25;stroke-width:0.88255"
         sodipodi:role="line"
         id="tspan77">yang bisa membantu kita,</tspan><tspan
         y="2285.822"
         x="451.73721"
         style="font-size:45px;line-height:1.25;stroke-width:0.88255"
         sodipodi:role="line"
         id="tspan85">sekaranglah saatnya!</tspan></text>
    <text
       id="text4246-4-81"
       y="1385.1536"
       x="965.95917"
       style="font-style:normal;font-variant:normal;font-weight:normal;font-stretch:normal;line-height:0%;font-family:Lavi;-inkscape-font-specification:Lavi;text-align:center;letter-spacing:0px;word-spacing:0px;text-anchor:middle;fill:#000000;fill-opacity:1;stroke:none"
       xml:space="preserve"
       inkscape:label="pepper"><tspan
         id="tspan4466-1"
         y="1385.1536"
         x="965.95917"
         style="font-size:45px;line-height:1.25"
         sodipodi:role="line">Baiklah!</tspan></text>
    <text
       id="text4246-4-2"
       y="1505.2511"
       x="1014.7274"
       style="font-style:normal;font-variant:normal;font-weight:normal;font-stretch:normal;line-height:0%;font-family:Lavi;-inkscape-font-specification:Lavi;text-align:center;letter-spacing:0px;word-spacing:0px;text-anchor:middle;fill:#000000;fill-opacity:1;stroke:none"
       xml:space="preserve"
       inkscape:label="pepperB"><tspan
         y="1505.2511"
         x="1014.7274"
         style="font-size:45px;line-height:1.25"
         sodipodi:role="line"
         id="tspan907">Bersiaplah</tspan><tspan
         y="1561.5011"
         x="1014.7274"
         style="font-size:45px;line-height:1.25"
         sodipodi:role="line"
         id="tspan89">untuk</tspan><tspan
         y="1617.7511"
         x="1014.7274"
         style="font-size:45px;line-height:1.25"
         sodipodi:role="line"
         id="tspan91">menyaksikan...</tspan></text>
    <text
       inkscape:label="soundfxA"
       xml:space="preserve"
       style="font-style:normal;font-variant:normal;font-weight:normal;font-stretch:normal;line-height:0%;font-family:Lavi;-inkscape-font-specification:Lavi;letter-spacing:0px;word-spacing:0px;fill:#ffffff;fill-opacity:1;stroke:#98b9ca;stroke-width:0.714935;stroke-miterlimit:4;stroke-dasharray:none;stroke-opacity:1;filter:url(#filter4375-4-1-1-1-9-5-8-6)"
       x="787.65729"
       y="1584.5073"
       id="text4580-6-0-06-7"
       transform="matrix(1.0019251,-0.40193321,-0.06372629,1.3310734,596.66821,487.07533)"><tspan
         sodipodi:role="line"
         id="tspan4582-1-1-2-0"
         x="787.65729"
         y="1584.5073"
         style="font-size:70px;line-height:1.25;fill:#ffffff;fill-opacity:1;stroke:#98b9ca;stroke-width:0.714935;stroke-opacity:1"><tspan
           style="font-size:93.1495px;fill:#ffffff;fill-opacity:1;stroke:#98b9ca;stroke-width:0.714935;stroke-opacity:1"
           id="tspan4315-8-6-9">Dzziii !</tspan><tspan
           style="font-size:114.732px;fill:#ffffff;fill-opacity:1;stroke:#98b9ca;stroke-width:0.714935;stroke-opacity:1"
           id="tspan4313-2-1-3">!</tspan></tspan></text>
    <text
       transform="matrix(0.95264897,0,-0.256133,1.0497046,0,0)"
       id="text4246-6-9-8-8"
       y="1282.7524"
       x="2463.5571"
       style="font-style:normal;font-variant:normal;font-weight:normal;font-stretch:normal;font-size:12.78079987px;line-height:0%;font-family:Lavi;-inkscape-font-specification:Lavi;text-align:center;letter-spacing:0px;word-spacing:0px;text-anchor:middle;fill:#000000;fill-opacity:1;stroke:none;stroke-width:2.4000001;stroke-miterlimit:4;stroke-dasharray:none;stroke-opacity:1"
       xml:space="preserve"
       inkscape:label="pepperC"><tspan
         id="tspan4395-0"
         y="1282.7524"
         x="2471.5085"
         style="font-style:normal;font-variant:normal;font-weight:bold;font-stretch:normal;font-size:45.74250031px;line-height:1.25;font-family:Lavi;-inkscape-font-specification:'Lavi Bold';stroke:none;stroke-width:2.4000001;stroke-miterlimit:4;stroke-dasharray:none;stroke-opacity:1"
         sodipodi:role="line">...KARYA </tspan><tspan
         y="1339.9305"
         x="2463.5571"
         style="font-style:normal;font-variant:normal;font-weight:bold;font-stretch:normal;font-size:45.74250031px;line-height:1.25;font-family:Lavi;-inkscape-font-specification:'Lavi Bold';stroke:none;stroke-width:2.4000001;stroke-miterlimit:4;stroke-dasharray:none;stroke-opacity:1"
         sodipodi:role="line"
         id="tspan945">BESARKU!</tspan></text>
    <text
       transform="matrix(1.2585454,-0.51781675,-0.08004832,1.7148423,946.02626,2.1829806)"
       id="text4580-6-0-06-7-2"
       y="1584.5073"
       x="787.65729"
       style="font-style:normal;font-variant:normal;font-weight:normal;font-stretch:normal;line-height:0%;font-family:Lavi;-inkscape-font-specification:Lavi;letter-spacing:0px;word-spacing:0px;fill:#ffffff;fill-opacity:1;stroke:#98b9ca;stroke-width:0.562003;stroke-miterlimit:4;stroke-dasharray:none;stroke-opacity:1;filter:url(#filter4375-4-1-1-1-9-5-8-6)"
       xml:space="preserve"
       inkscape:label="soundfxB"><tspan
         style="font-size:70px;line-height:1.25;fill:#ffffff;fill-opacity:1;stroke:#98b9ca;stroke-width:0.562003;stroke-opacity:1"
         y="1584.5073"
         x="787.65729"
         id="tspan4582-1-1-2-0-3"
         sodipodi:role="line"><tspan
           id="tspan4315-8-6-9-7"
           style="font-size:93.1495px;fill:#ffffff;fill-opacity:1;stroke:#98b9ca;stroke-width:0.562003;stroke-opacity:1">Dzziiii !</tspan><tspan
           id="tspan4313-2-1-3-5"
           style="font-size:114.732px;fill:#ffffff;fill-opacity:1;stroke:#98b9ca;stroke-width:0.562003;stroke-opacity:1">!</tspan></tspan></text>
    <text
       transform="scale(0.99830099,1.0017019)"
       id="text4180"
       y="2934.5144"
       x="1656.5211"
       style="font-style:normal;font-variant:normal;font-weight:normal;font-stretch:normal;line-height:0%;font-family:Lavi;-inkscape-font-specification:Lavi;text-align:center;letter-spacing:0px;word-spacing:0px;text-anchor:middle;opacity:1;fill:#ffffff;fill-opacity:1;stroke:none"
       xml:space="preserve"
       inkscape:label="magic"><tspan
         style="font-style:normal;font-variant:normal;font-weight:normal;font-stretch:normal;font-size:50.4467px;line-height:1.25;font-family:'Drukaatie burti';-inkscape-font-specification:'Drukaatie burti'"
         y="2934.5144"
         x="1656.5211"
         id="tspan4182"
         sodipodi:role="line">Realitas</tspan><tspan
         style="font-style:normal;font-variant:normal;font-weight:normal;font-stretch:normal;font-size:50.4467px;line-height:1.25;font-family:'Drukaatie burti';-inkscape-font-specification:'Drukaatie burti'"
         y="2997.5728"
         x="1656.5211"
         sodipodi:role="line"
         id="tspan965"> Hackeris</tspan><tspan
         style="font-style:normal;font-variant:normal;font-weight:normal;font-stretch:normal;font-size:50.4467px;line-height:1.25;font-family:'Drukaatie burti';-inkscape-font-specification:'Drukaatie burti'"
         y="3060.6311"
         x="1656.5211"
         sodipodi:role="line"
         id="tspan967"> Pepperus!</tspan></text>
    <text
       transform="matrix(1.4073064,-0.76647412,-0.0895101,2.5383155,748.27548,-72.167442)"
       id="text4580-6-0-06"
       y="1584.5073"
       x="787.65729"
       style="font-style:normal;font-variant:normal;font-weight:normal;font-stretch:normal;line-height:0%;font-family:Lavi;-inkscape-font-specification:Lavi;letter-spacing:0px;word-spacing:0px;fill:#ffffff;fill-opacity:1;stroke:#98b9ca;stroke-width:0.436835;stroke-miterlimit:4;stroke-dasharray:none;stroke-opacity:1;filter:url(#filter4375-4-1-1-1-9-5-8-6)"
       xml:space="preserve"
       inkscape:label="soundfxC"><tspan
         style="font-size:70px;line-height:1.25;fill:#ffffff;fill-opacity:1;stroke:#98b9ca;stroke-width:0.436835;stroke-opacity:1"
         y="1584.5073"
         x="787.65729"
         id="tspan4582-1-1-2"
         sodipodi:role="line"><tspan
           id="tspan4315-8-6"
           style="font-size:93.1495px;fill:#ffffff;fill-opacity:1;stroke:#98b9ca;stroke-width:0.436835;stroke-opacity:1">Dzziooo !</tspan><tspan
           id="tspan4313-2-1"
           style="font-size:114.732px;fill:#ffffff;fill-opacity:1;stroke:#98b9ca;stroke-width:0.436835;stroke-opacity:1">!</tspan></tspan></text>
  </g>
</svg>
