<?xml version="1.0" encoding="UTF-8" standalone="no"?>
<svg
   xmlns:dc="http://purl.org/dc/elements/1.1/"
   xmlns:cc="http://creativecommons.org/ns#"
   xmlns:rdf="http://www.w3.org/1999/02/22-rdf-syntax-ns#"
   xmlns:svg="http://www.w3.org/2000/svg"
   xmlns="http://www.w3.org/2000/svg"
   xmlns:xlink="http://www.w3.org/1999/xlink"
   xmlns:sodipodi="http://sodipodi.sourceforge.net/DTD/sodipodi-0.dtd"
   xmlns:inkscape="http://www.inkscape.org/namespaces/inkscape"
   id="svg2"
   version="1.1"
   inkscape:version="1.0.2-2 (e86c870879, 2021-01-15)"
   width="2481"
   height="3503"
   sodipodi:docname="E35P10.svg">
  <metadata
     id="metadata8">
    <rdf:RDF>
      <cc:Work
         rdf:about="">
        <dc:format>image/svg+xml</dc:format>
        <dc:type
           rdf:resource="http://purl.org/dc/dcmitype/StillImage" />
        <dc:title />
      </cc:Work>
    </rdf:RDF>
  </metadata>
  <defs
     id="defs6" />
  <sodipodi:namedview
     pagecolor="#ffffff"
     bordercolor="#666666"
     borderopacity="1"
     objecttolerance="10"
     gridtolerance="10"
     guidetolerance="10"
     inkscape:pageopacity="0"
     inkscape:pageshadow="2"
     inkscape:window-width="1366"
     inkscape:window-height="745"
     id="namedview4"
     showgrid="false"
     inkscape:zoom="0.37618364"
     inkscape:cx="1239.7716"
     inkscape:cy="1713.1527"
     inkscape:window-x="-8"
     inkscape:window-y="-8"
     inkscape:window-maximized="1"
     inkscape:current-layer="layer1"
     inkscape:document-rotation="0"
     inkscape:snap-global="false"
     inkscape:pagecheckerboard="0" />
  <g
     inkscape:groupmode="layer"
     id="layer2"
     inkscape:label="artwork"
     sodipodi:insensitive="true">
    <image
       sodipodi:absref="C:\Users\quentinlipeck\gfx_Pepper-and-Carrot_by-David-Revoy_E35P10.png"
       xlink:href="../gfx_Pepper-and-Carrot_by-David-Revoy_E35P10.png"
       width="2481"
       height="3503"
       id="image10"
       x="0"
       y="0" />
  </g>
  <g
     inkscape:groupmode="layer"
     id="layer3"
     inkscape:label="speechbubbles">
    <path
       style="fill:#ffffff;stroke:none;stroke-width:1.0037"
       d="m 1219.4053,157.25391 c -59.3414,0.29098 -119.3324,-0.47467 -177.6713,10.8164 -24.257,4.56706 -48.94547,9.98485 -70.25226,21.85547 -25.23546,14.22857 -46.18036,35.8119 -55.07965,61.71319 -7.27008,22.55228 -2.70296,47.05188 8.28248,67.98492 12.95868,25.96015 36.521,47.72975 65.67215,58.89989 29.90218,12.67802 61.68038,21.30987 93.65788,28.54857 46.4478,9.60291 94.2939,11.19293 141.7564,11.97595 57.3416,1.49972 114.9898,4.40377 172.1219,-1.8898 35.3168,-3.71944 70.5064,-8.70206 105.2087,-15.73301 34.7283,-7.2385 69.3379,-17.86124 98.5351,-36.77391 13.3983,-8.36057 23.4606,-20.45188 30.3285,-33.6715 4.7358,-9.09672 8.1443,-18.69761 11.466,-28.27201 6.0798,-18.74127 7.8892,-39.07366 1.7555,-58.00714 -7.7768,-25.23075 -28.5945,-46.72418 -55.0152,-57.45367 -26.8106,-11.90018 -56.4751,-16.87592 -85.6647,-21.5171 -42.4747,-6.08342 -85.5715,-6.88313 -128.4775,-7.90491 -51.6359,-0.70896 -103.2802,-0.54456 -154.9201,-0.58217 -0.568,0.004 -1.136,0.007 -1.7039,0.0108 z"
       id="path3100-98"
       inkscape:connector-curvature="0"
       sodipodi:nodetypes="zsssssz" />
    <path
       style="color:#000000;display:inline;overflow:visible;visibility:visible;fill:#ffffff;fill-opacity:1;fill-rule:nonzero;stroke:none;stroke-width:0.83737px;marker:none;enable-background:accumulate"
       d="m 1448.7795,517.63055 c 2.403,-24.32977 -9.2766,-33.6163 -20.6628,-38.28253 -11.3869,-4.66626 -19.0826,-5.58729 -28.1978,-26.0826 -9.1142,-20.49521 -0.7357,-41.29642 -4.8853,-52.46499 -11.4569,-16.24953 -34.9307,-26.06627 -44.5289,-30.51513 -21.6856,-10.05119 11.3091,-23.29909 11.3091,-23.29909 8.77,-0.30545 47.7455,23.68713 57.7575,33.72157 14.4084,14.44054 -4.0636,48.20741 4.0399,65.52593 7.5675,16.17219 18.2749,17.40774 23.9472,28.63593 5.6729,11.22843 4.8219,31.66667 1.2211,42.76091 z"
       id="path4538-8"
       inkscape:connector-curvature="0"
       sodipodi:nodetypes="csscscsssc" />
    <path
       style="color:#000000;display:inline;overflow:visible;visibility:visible;fill:#ffffff;fill-opacity:1;fill-rule:nonzero;stroke:none;stroke-width:1.14637px;marker:none;enable-background:accumulate"
       d="m 107.34549,1498.8239 c 4.19372,-45.6157 4.79572,-89.6823 60.26619,-116.0227 55.47034,-26.3392 153.19421,-32.9572 275.94199,-25.2955 65.75026,4.1037 148.57859,9.5883 201.00928,28.5468 52.4307,18.9587 74.46386,51.3912 69.08346,118.2082 -5.3804,66.817 -34.41551,95.7906 -94.98212,112.4675 -60.56652,16.6781 -152.66477,21.0598 -174.84189,22.7863 -22.1771,1.7264 -90.96071,-0.4823 -159.20406,-8.763 -68.24323,-8.2807 -114.92136,-14.0631 -134.93737,-36.6287 -31.37837,-28.6263 -44.24367,-62.0884 -42.33548,-95.2989 z"
       id="path4546-6-2-0"
       inkscape:connector-curvature="0"
       sodipodi:nodetypes="cssssssscc" />
    <path
       style="fill:#ffffff;fill-rule:evenodd;stroke:none;stroke-width:1.12465px;stroke-linecap:butt;stroke-linejoin:miter;stroke-opacity:1"
       d="m 566.83527,1611.6586 c 4.43847,-15.3188 61.8645,41.4938 43.56991,104.2767 2.42387,27.4208 22.18027,42.2423 21.12076,57.0045 -1.05963,24.2524 -9.53608,35.8508 -36.02508,55.8848 33.90594,-15.8168 54.23301,-33.7608 55.29264,-58.0121 1.05951,-24.2524 -17.71625,-25.1329 -17.14842,-60.0829 1.05952,-10.5449 25.79381,-65.3353 -26.69151,-120.7385 19.07205,-20.0341 -40.1183,21.6675 -40.1183,21.6675 z"
       id="path1303"
       inkscape:connector-curvature="0"
       sodipodi:nodetypes="cccccccc" />
    <path
       style="color:#000000;display:inline;overflow:visible;visibility:visible;fill:#ffffff;fill-opacity:1;fill-rule:nonzero;stroke:none;stroke-width:0.79738px;marker:none;enable-background:accumulate"
       d="m 1281.8209,1541.7467 c 2.4753,-37.3903 2.8306,-73.5107 35.5721,-95.1015 32.7413,-21.5896 90.4228,-27.0143 162.8745,-20.7341 38.8092,3.3636 87.6985,7.8593 118.6458,23.3992 30.9472,15.54 43.9521,42.1243 40.7764,96.8929 -3.1756,54.7685 -20.3136,78.5176 -56.063,92.1873 -35.7495,13.6708 -90.1104,17.2623 -103.2004,18.6775 -13.09,1.4151 -53.6897,-0.3954 -93.9703,-7.1829 -40.2806,-6.7874 -67.8322,-11.5272 -79.6466,-30.0237 -18.521,-23.4644 -26.1149,-50.8927 -24.9885,-78.1147 z"
       id="path4546-6-2-0-3"
       inkscape:connector-curvature="0"
       sodipodi:nodetypes="cssssssscc" />
    <path
       style="color:#000000;display:inline;overflow:visible;visibility:visible;fill:#ffffff;fill-opacity:1;fill-rule:nonzero;stroke:none;stroke-width:0.808459px;marker:none;enable-background:accumulate"
       d="m 1351.2988,1759.375 c 2.312,-41.1512 2.6439,-80.9047 33.2255,-104.6672 30.5814,-23.7613 84.4578,-29.7316 152.1298,-22.8197 36.249,3.702 81.9131,8.6498 110.8189,25.7529 28.9057,17.1029 41.0528,46.3614 38.0866,106.6388 -2.9663,60.2772 -18.9738,86.415 -52.3648,101.4599 -33.3909,15.0458 -84.1659,18.9986 -96.3924,20.556 -12.2265,1.5576 -50.1478,-0.4349 -87.771,-7.9053 -37.6233,-7.4703 -63.3574,-12.6866 -74.3925,-33.0436 -17.2993,-25.8245 -24.392,-56.0116 -23.3401,-85.9718 z"
       id="path4546-6-2-0-3-6"
       inkscape:connector-curvature="0"
       sodipodi:nodetypes="cssssssscc" />
    <path
       style="color:#000000;display:inline;overflow:visible;visibility:visible;fill:#ffffff;fill-opacity:1;fill-rule:nonzero;stroke:none;stroke-width:1.47843px;marker:none;enable-background:accumulate"
       d="m 1474.8245,1844.8292 c 6.1533,73.3287 -47.1663,130.4434 -118.01,146.3855 114.7363,-9.2052 166.2605,-106.0374 160.9588,-137.1332 -5.191,-30.4467 -42.9488,-9.2523 -42.9488,-9.2523 z"
       id="path5010-4"
       inkscape:connector-curvature="0"
       sodipodi:nodetypes="ccsc" />
  </g>
  <g
     inkscape:groupmode="layer"
     id="layer1"
     inkscape:label="txt">
    <text
       xml:space="preserve"
       style="font-style:normal;font-variant:normal;font-weight:normal;font-stretch:normal;font-size:45px;line-height:1.25;font-family:Lavi;-inkscape-font-specification:Lavi;text-align:center;letter-spacing:0px;word-spacing:0px;text-anchor:middle;fill:#000000;fill-opacity:1;stroke:none"
       x="1287.0667"
       y="238.98175"
       id="text4246-3-2-2"><tspan
         style="font-size:45px"
         sodipodi:role="line"
         x="1287.0667"
         y="238.98175"
         id="tspan63">sina anpa tawa jan sewi </tspan><tspan
         style="font-size:45px"
         sodipodi:role="line"
         x="1287.0667"
         y="295.23175"
         id="tspan69">Wasapi la, ni li kama ike </tspan><tspan
         style="font-size:45px"
         sodipodi:role="line"
         x="1287.0667"
         y="351.48175"
         id="tspan65">tawa sina. sina sona ala sona?</tspan></text>
    <text
       xml:space="preserve"
       style="font-style:normal;font-variant:normal;font-weight:normal;font-stretch:normal;font-size:45px;line-height:1.25;font-family:Lavi;-inkscape-font-specification:Lavi;text-align:center;letter-spacing:0px;word-spacing:0px;text-anchor:middle;fill:#000000;fill-opacity:1;stroke:none"
       x="415.41315"
       y="1438.8612"
       id="text4246-3-2-2-3"><tspan
         style="font-size:45px"
         sodipodi:role="line"
         x="415.41315"
         y="1438.8612"
         id="tspan892">mi sona. taso mi pilin kin </tspan><tspan
         style="font-size:45px"
         sodipodi:role="line"
         x="415.41315"
         y="1495.1112"
         id="tspan68">e ni: mi ken toki tawa ona. </tspan><tspan
         style="font-size:45px"
         sodipodi:role="line"
         x="415.41315"
         y="1551.3612"
         id="tspan36">mi en ona li pana e pilin la, </tspan><tspan
         style="font-size:45px"
         sodipodi:role="line"
         x="415.41315"
         y="1607.6112"
         id="tspan40">ona li sona pona.</tspan></text>
    <text
       xml:space="preserve"
       style="font-style:normal;font-variant:normal;font-weight:normal;font-stretch:normal;font-size:45px;line-height:1.25;font-family:Lavi;-inkscape-font-specification:Lavi;text-align:center;letter-spacing:0px;word-spacing:0px;text-anchor:middle;fill:#000000;fill-opacity:1;stroke:none"
       x="1468.6498"
       y="1490.1573"
       id="text4246-3-2-2-3-3"><tspan
         style="font-size:45px"
         sodipodi:role="line"
         x="1468.6498"
         y="1490.1573"
         id="tspan967">suli la, </tspan><tspan
         style="font-size:45px"
         sodipodi:role="line"
         x="1468.6498"
         y="1546.4073"
         id="tspan81">jan li ken </tspan><tspan
         style="font-size:45px"
         sodipodi:role="line"
         x="1468.6498"
         y="1602.6573"
         id="tspan85">pona e ijo ale.</tspan></text>
    <text
       xml:space="preserve"
       style="font-style:normal;font-variant:normal;font-weight:normal;font-stretch:normal;font-size:45px;line-height:1.25;font-family:Lavi;-inkscape-font-specification:Lavi;text-align:center;letter-spacing:0px;word-spacing:0px;text-anchor:middle;fill:#000000;fill-opacity:1;stroke:none"
       x="1522.4325"
       y="1713.9688"
       id="text4246-3-2-2-3-3-1"><tspan
         style="font-size:45px"
         sodipodi:role="line"
         x="1522.4325"
         y="1713.9688"
         id="tspan96">mi kama </tspan><tspan
         style="font-size:45px"
         sodipodi:role="line"
         x="1522.4325"
         y="1770.2188"
         id="tspan100">sona e ni tan </tspan><tspan
         style="font-size:45px"
         sodipodi:role="line"
         x="1522.4325"
         y="1826.4688"
         id="tspan102">jan pona mi.</tspan></text>
  </g>
</svg>
