<?xml version="1.0" encoding="UTF-8" standalone="no"?>
<svg
   id="svg2"
   version="1.1"
   inkscape:version="1.1 (c68e22c387, 2021-05-23)"
   width="2481"
   height="3503"
   sodipodi:docname="E35P10.svg"
   xmlns:inkscape="http://www.inkscape.org/namespaces/inkscape"
   xmlns:sodipodi="http://sodipodi.sourceforge.net/DTD/sodipodi-0.dtd"
   xmlns:xlink="http://www.w3.org/1999/xlink"
   xmlns="http://www.w3.org/2000/svg"
   xmlns:svg="http://www.w3.org/2000/svg"
   xmlns:rdf="http://www.w3.org/1999/02/22-rdf-syntax-ns#"
   xmlns:cc="http://creativecommons.org/ns#"
   xmlns:dc="http://purl.org/dc/elements/1.1/">
  <metadata
     id="metadata8">
    <rdf:RDF>
      <cc:Work
         rdf:about="">
        <dc:format>image/svg+xml</dc:format>
        <dc:type
           rdf:resource="http://purl.org/dc/dcmitype/StillImage" />
        <dc:title />
      </cc:Work>
    </rdf:RDF>
  </metadata>
  <defs
     id="defs6" />
  <sodipodi:namedview
     pagecolor="#ffffff"
     bordercolor="#666666"
     borderopacity="1"
     objecttolerance="10"
     gridtolerance="10"
     guidetolerance="10"
     inkscape:pageopacity="0"
     inkscape:pageshadow="2"
     inkscape:window-width="1920"
     inkscape:window-height="1017"
     id="namedview4"
     showgrid="false"
     inkscape:zoom="0.37618364"
     inkscape:cx="1246.7315"
     inkscape:cy="875.902"
     inkscape:window-x="-8"
     inkscape:window-y="-8"
     inkscape:window-maximized="1"
     inkscape:current-layer="layer1"
     inkscape:document-rotation="0"
     inkscape:snap-global="false"
     inkscape:pagecheckerboard="0" />
  <g
     inkscape:groupmode="layer"
     id="layer2"
     inkscape:label="artwork"
     sodipodi:insensitive="true">
    <image
       xlink:href="../gfx_Pepper-and-Carrot_by-David-Revoy_E35P10.png"
       y="0"
       x="0"
       id="image10"
       height="3503"
       width="2481" />
  </g>
  <g
     inkscape:groupmode="layer"
     id="layer3"
     inkscape:label="speechbubbles">
    <path
       style="fill:#ffffff;stroke:none;stroke-width:0.953514"
       d="M 1261.291 157.25391 C 1207.7357 157.54489 1153.594 156.77924 1100.9434 168.07031 C 1079.0515 172.63737 1056.7703 178.05516 1037.541 189.92578 C 1014.7661 204.15435 995.86341 225.73768 987.83184 251.63897 C 981.27062 274.19125 985.39243 298.69085 995.30674 319.62389 C 1007.0019 345.58404 1028.2668 367.35364 1054.5756 378.52378 C 1081.5622 391.2018 1110.2419 399.83365 1139.1015 407.07235 C 1181.0204 416.67526 1224.2013 418.26528 1267.0361 419.0483 C 1318.7866 420.54802 1370.8139 423.45207 1422.3754 417.1585 C 1454.2487 413.43906 1486.0071 408.45644 1517.3258 401.42549 C 1548.668 394.18699 1579.903 383.56425 1606.2534 364.65158 C 1618.3453 356.29101 1627.4265 344.1997 1633.6247 330.98008 C 1637.8988 321.88336 1640.9749 312.28247 1643.9727 302.70807 C 1649.4597 283.9668 1651.0927 263.63441 1645.5571 244.70093 C 1638.5385 219.47018 1619.7506 197.97675 1595.9061 187.24726 C 1571.7096 175.34708 1544.9375 170.37134 1518.594 165.73016 C 1480.2608 159.64674 1441.3661 158.84703 1402.6436 157.82525 C 1356.0424 157.11629 1309.4336 157.28069 1262.8288 157.24308 C 1262.3162 157.24669 1261.8036 157.2503 1261.291 157.25391 z "
       id="path3100-98"
       inkscape:connector-curvature="0"
       sodipodi:nodetypes="zsssssz" />
    <path
       style="color:#000000;display:inline;overflow:visible;visibility:visible;fill:#ffffff;fill-opacity:1;fill-rule:nonzero;stroke:none;stroke-width:0.83737px;marker:none;enable-background:accumulate"
       d="m 1448.7795,517.63055 c 2.403,-24.32977 -9.2766,-33.6163 -20.6628,-38.28253 -11.3869,-4.66626 -19.0826,-5.58729 -28.1978,-26.0826 -9.1142,-20.49521 -0.7357,-41.29642 -4.8853,-52.46499 -11.4569,-16.24953 -34.9307,-26.06627 -44.5289,-30.51513 -21.6856,-10.05119 11.3091,-23.29909 11.3091,-23.29909 8.77,-0.30545 47.7455,23.68713 57.7575,33.72157 14.4084,14.44054 -4.0636,48.20741 4.0399,65.52593 7.5675,16.17219 18.2749,17.40774 23.9472,28.63593 5.6729,11.22843 4.8219,31.66667 1.2211,42.76091 z"
       id="path4538-8"
       inkscape:connector-curvature="0"
       sodipodi:nodetypes="csscscsssc" />
    <path
       style="color:#000000;display:inline;overflow:visible;visibility:visible;fill:#ffffff;fill-opacity:1;fill-rule:nonzero;stroke:none;stroke-width:1.21196px;marker:none;enable-background:accumulate"
       d="m 128.60526,1521.6618 c 4.04686,-52.835 4.62778,-103.8757 58.15572,-134.3848 53.52782,-30.5077 147.82948,-38.1731 266.27874,-29.2988 63.44774,4.7531 143.3755,11.1057 193.97011,33.0647 50.59462,21.9591 71.8562,59.5245 66.66422,136.9162 -5.19199,77.3916 -33.21031,110.9507 -91.65593,130.2669 -58.44553,19.3177 -147.31858,24.3928 -168.71908,26.3926 -21.40048,1.9996 -87.77534,-0.5587 -153.62887,-10.1499 -65.85341,-9.5912 -110.89691,-16.2888 -130.21198,-42.4256 -30.27953,-33.1568 -42.6943,-71.9148 -40.85293,-110.3813 z"
       id="path4546-6-2-0"
       inkscape:connector-curvature="0"
       sodipodi:nodetypes="cssssssscc" />
    <path
       style="fill:#ffffff;fill-rule:evenodd;stroke:none;stroke-width:1.12465px;stroke-linecap:butt;stroke-linejoin:miter;stroke-opacity:1"
       d="m 566.83527,1651.6586 c 4.43847,-15.3188 61.8645,41.4938 43.56991,104.2767 2.42387,27.4208 22.18027,42.2423 21.12076,57.0045 -1.05963,24.2524 -9.53608,35.8508 -36.02508,55.8848 33.90594,-15.8168 54.23301,-33.7608 55.29264,-58.0121 1.05951,-24.2524 -17.71625,-25.1329 -17.14842,-60.0829 1.05952,-10.5449 25.79381,-65.3353 -26.69151,-120.7385 19.07205,-20.0341 -40.1183,21.6675 -40.1183,21.6675 z"
       id="path1303"
       inkscape:connector-curvature="0"
       sodipodi:nodetypes="cccccccc" />
    <path
       style="color:#000000;display:inline;overflow:visible;visibility:visible;fill:#ffffff;fill-opacity:1;fill-rule:nonzero;stroke:none;stroke-width:0.731243px;marker:none;enable-background:accumulate"
       d="m 1281.8209,1568.1297 c 2.4753,-31.445 2.8306,-61.822 35.5721,-79.9797 32.7413,-18.1567 90.4228,-22.7189 162.8745,-17.4373 38.8092,2.8288 87.6985,6.6097 118.6458,19.6786 30.9472,13.069 43.9521,35.4263 40.7764,81.4863 -3.1756,46.06 -20.3136,66.0328 -56.063,77.5289 -35.7495,11.4971 -90.1104,14.5175 -103.2004,15.7077 -13.09,1.1901 -53.6897,-0.3325 -93.9703,-6.0408 -40.2806,-5.7081 -67.8322,-9.6943 -79.6466,-25.2497 -18.521,-19.7334 -26.1149,-42.8004 -24.9885,-65.694 z"
       id="path4546-6-2-0-3"
       inkscape:connector-curvature="0"
       sodipodi:nodetypes="cssssssscc" />
    <path
       style="color:#000000;display:inline;overflow:visible;visibility:visible;fill:#ffffff;fill-opacity:1;fill-rule:nonzero;stroke:none;stroke-width:0.808459px;marker:none;enable-background:accumulate"
       d="m 1341.9949,1759.375 c 2.312,-41.1512 2.6438,-80.9047 33.2254,-104.6672 30.5814,-23.7613 84.4579,-29.7316 152.1299,-22.8197 36.249,3.702 81.9131,8.6498 110.8188,25.7529 28.9057,17.1029 41.0528,46.3614 38.0866,106.6388 -2.9663,60.2772 -18.9738,86.415 -52.3647,101.4599 -33.391,15.0458 -84.166,18.9986 -96.3925,20.556 -12.2264,1.5576 -50.1478,-0.4349 -87.771,-7.9053 -37.6233,-7.4703 -63.3574,-12.6866 -74.3925,-33.0436 -17.2993,-25.8245 -24.392,-56.0116 -23.34,-85.9718 z"
       id="path4546-6-2-0-3-6"
       inkscape:connector-curvature="0"
       sodipodi:nodetypes="cssssssscc" />
    <path
       style="color:#000000;display:inline;overflow:visible;visibility:visible;fill:#ffffff;fill-opacity:1;fill-rule:nonzero;stroke:none;stroke-width:1.47843px;marker:none;enable-background:accumulate"
       d="m 1474.8245,1844.8292 c 6.1533,73.3287 -47.1663,130.4434 -118.01,146.3855 114.7363,-9.2052 166.2605,-106.0374 160.9588,-137.1332 -5.191,-30.4467 -42.9488,-9.2523 -42.9488,-9.2523 z"
       id="path5010-4"
       inkscape:connector-curvature="0"
       sodipodi:nodetypes="ccsc" />
  </g>
  <g
     inkscape:groupmode="layer"
     id="layer1"
     inkscape:label="txt">
    <text
       xml:space="preserve"
       style="font-style:normal;font-variant:normal;font-weight:normal;font-stretch:normal;font-size:45px;line-height:1.25;font-family:Lavi;-inkscape-font-specification:Lavi;text-align:center;letter-spacing:0px;word-spacing:0px;text-anchor:middle;fill:#000000;fill-opacity:1;stroke:none"
       x="1315.8291"
       y="248.12427"
       id="text4246-3-2-2"><tspan
         style="font-size:45px"
         sodipodi:role="line"
         x="1315.8291"
         y="248.12427"
         id="tspan45099">Você sabe que se render à</tspan><tspan
         style="font-size:45px"
         sodipodi:role="line"
         x="1315.8291"
         y="304.37427"
         id="tspan20039">Mestre Wasabi não vai acabar</tspan><tspan
         style="font-size:45px"
         sodipodi:role="line"
         x="1315.8291"
         y="360.62427"
         id="tspan45118">bem para você, não é?</tspan></text>
    <text
       xml:space="preserve"
       style="font-style:normal;font-variant:normal;font-weight:normal;font-stretch:normal;font-size:45px;line-height:1.25;font-family:Lavi;-inkscape-font-specification:Lavi;text-align:center;letter-spacing:0px;word-spacing:0px;text-anchor:middle;fill:#000000;fill-opacity:1;stroke:none"
       x="421.04721"
       y="1462.683"
       id="text4246-3-2-2-3"><tspan
         style="font-size:45px"
         sodipodi:role="line"
         x="421.04721"
         y="1462.683"
         id="tspan920">Eu sei, mas eu ainda sinto</tspan><tspan
         style="font-size:45px"
         sodipodi:role="line"
         x="421.04721"
         y="1518.933"
         id="tspan46556">que existe alguma forma</tspan><tspan
         style="font-size:45px"
         sodipodi:role="line"
         x="421.04721"
         y="1575.183"
         id="tspan48550">de falar com ela – de</tspan><tspan
         style="font-size:45px"
         sodipodi:role="line"
         x="421.04721"
         y="1631.433"
         id="tspan892">fazer ela entender.</tspan></text>
    <text
       xml:space="preserve"
       style="font-style:normal;font-variant:normal;font-weight:normal;font-stretch:normal;font-size:45px;line-height:1.25;font-family:Lavi;-inkscape-font-specification:Lavi;text-align:center;letter-spacing:0px;word-spacing:0px;text-anchor:middle;fill:#000000;fill-opacity:1;stroke:none"
       x="1464.109"
       y="1552.0615"
       id="text4246-3-2-2-3-3"><tspan
         style="font-size:45px"
         sodipodi:role="line"
         x="1464.109"
         y="1552.0615"
         id="tspan967">Afinal, nada</tspan><tspan
         style="font-size:45px"
         sodipodi:role="line"
         x="1464.109"
         y="1608.3115"
         id="tspan896">é irreparável.</tspan></text>
    <text
       xml:space="preserve"
       style="font-style:normal;font-variant:normal;font-weight:normal;font-stretch:normal;font-size:45px;line-height:1.25;font-family:Lavi;-inkscape-font-specification:Lavi;text-align:center;letter-spacing:0px;word-spacing:0px;text-anchor:middle;fill:#000000;fill-opacity:1;stroke:none"
       x="1507.4135"
       y="1714.8049"
       id="text4246-3-2-2-3-3-1"><tspan
         style="font-size:45px"
         sodipodi:role="line"
         x="1507.4135"
         y="1714.8049"
         id="tspan926">Eu aprendi</tspan><tspan
         style="font-size:45px"
         sodipodi:role="line"
         x="1507.4135"
         y="1771.0549"
         id="tspan49320">isso com uma</tspan><tspan
         style="font-size:45px"
         sodipodi:role="line"
         x="1507.4135"
         y="1827.3049"
         id="tspan913">velha amiga.</tspan></text>
  </g>
</svg>
