<?xml version="1.0" encoding="UTF-8" standalone="no"?>
<!-- Created with Inkscape (http://www.inkscape.org/) -->

<svg
   xmlns:dc="http://purl.org/dc/elements/1.1/"
   xmlns:cc="http://creativecommons.org/ns#"
   xmlns:rdf="http://www.w3.org/1999/02/22-rdf-syntax-ns#"
   xmlns:svg="http://www.w3.org/2000/svg"
   xmlns="http://www.w3.org/2000/svg"
   xmlns:xlink="http://www.w3.org/1999/xlink"
   xmlns:sodipodi="http://sodipodi.sourceforge.net/DTD/sodipodi-0.dtd"
   xmlns:inkscape="http://www.inkscape.org/namespaces/inkscape"
   id="svg2"
   version="1.1"
   inkscape:version="0.92.4 (5da689c313, 2019-01-14)"
   width="2481"
   height="3503"
   sodipodi:docname="E31P06.svg">
  <metadata
     id="metadata8">
    <rdf:RDF>
      <cc:Work
         rdf:about="">
        <dc:format>image/svg+xml</dc:format>
        <dc:type
           rdf:resource="http://purl.org/dc/dcmitype/StillImage" />
        <dc:title />
      </cc:Work>
    </rdf:RDF>
  </metadata>
  <defs
     id="defs6">
    <filter
       style="color-interpolation-filters:sRGB"
       id="filter4375-4-1-1-1-9-5-8-3-8"
       inkscape:label="Drop Shadow">
      <feFlood
         id="feFlood4377-7-9-0-8-1-7-3-8-3"
         flood-opacity="1"
         flood-color="rgb(39,39,39)"
         result="flood" />
      <feComposite
         id="feComposite4379-3-8-8-2-77-4-1-8-7"
         in2="SourceGraphic"
         in="flood"
         operator="in"
         result="composite1" />
      <feMorphology
         id="feMorphology4393-1-0-49-8-9-3-0-31-8"
         operator="dilate"
         radius="6.2000000000000002"
         result="result3" />
      <feComposite
         id="feComposite4385-9-5-7-0-8-8-7-8-2"
         in2="result3"
         in="SourceGraphic"
         operator="over"
         result="fbSourceGraphic" />
      <feColorMatrix
         result="fbSourceGraphicAlpha"
         in="fbSourceGraphic"
         values="0 0 0 -1 0 0 0 0 -1 0 0 0 0 -1 0 0 0 0 1 0"
         id="feColorMatrix4544-96-1" />
      <feTurbulence
         id="feTurbulence4546-4-0"
         type="fractalNoise"
         numOctaves="3"
         seed="37"
         baseFrequency="0.129 0.0050000000000000001"
         result="turbulence" />
      <feDisplacementMap
         id="feDisplacementMap4548-3-5"
         in2="turbulence"
         in="fbSourceGraphic"
         scale="6.6"
         yChannelSelector="G"
         xChannelSelector="R"
         result="fbSourceGraphic" />
      <feColorMatrix
         result="fbSourceGraphicAlpha"
         in="fbSourceGraphic"
         values="0 0 0 -1 0 0 0 0 -1 0 0 0 0 -1 0 0 0 0 1 0"
         id="feColorMatrix4670-33-8" />
      <feFlood
         id="feFlood4672-8-5"
         flood-opacity="0.40999999999999998"
         flood-color="rgb(0,0,0)"
         result="flood"
         in="fbSourceGraphic" />
      <feComposite
         id="feComposite4674-6-5"
         in2="fbSourceGraphic"
         in="flood"
         operator="in"
         result="composite1" />
      <feGaussianBlur
         id="feGaussianBlur4676-0-0"
         in="composite1"
         stdDeviation="0"
         result="blur" />
      <feOffset
         id="feOffset4678-4-7"
         dx="6"
         dy="6"
         result="offset" />
      <feComposite
         id="feComposite4680-8-3"
         in2="offset"
         in="fbSourceGraphic"
         operator="over"
         result="composite2" />
    </filter>
    <filter
       style="color-interpolation-filters:sRGB"
       id="filter4375-4-1-1-1-9-0"
       inkscape:label="deevad outline effect">
      <feFlood
         id="feFlood4377-7-9-0-8-1-9"
         flood-opacity="1"
         flood-color="rgb(0,0,0)"
         result="flood" />
      <feComposite
         id="feComposite4379-3-8-8-2-77-1"
         in2="SourceGraphic"
         in="flood"
         operator="in"
         result="composite1" />
      <feMorphology
         id="feMorphology4393-1-0-49-8-9-9"
         operator="dilate"
         radius="3"
         result="result3" />
      <feComposite
         id="feComposite4385-9-5-7-0-8-6"
         in2="result3"
         in="SourceGraphic"
         operator="over"
         result="composite2" />
    </filter>
    <filter
       style="color-interpolation-filters:sRGB"
       id="filter4375-4-1-1-1-9-0-5"
       inkscape:label="deevad outline effect">
      <feFlood
         id="feFlood4377-7-9-0-8-1-9-6"
         flood-opacity="1"
         flood-color="rgb(0,0,0)"
         result="flood" />
      <feComposite
         id="feComposite4379-3-8-8-2-77-1-2"
         in2="SourceGraphic"
         in="flood"
         operator="in"
         result="composite1" />
      <feMorphology
         id="feMorphology4393-1-0-49-8-9-9-9"
         operator="dilate"
         radius="3"
         result="result3" />
      <feComposite
         id="feComposite4385-9-5-7-0-8-6-1"
         in2="result3"
         in="SourceGraphic"
         operator="over"
         result="composite2" />
    </filter>
  </defs>
  <sodipodi:namedview
     pagecolor="#ffffff"
     bordercolor="#666666"
     borderopacity="1"
     objecttolerance="10"
     gridtolerance="10"
     guidetolerance="10"
     inkscape:pageopacity="0"
     inkscape:pageshadow="2"
     inkscape:window-width="1858"
     inkscape:window-height="1057"
     id="namedview4"
     showgrid="false"
     inkscape:zoom="0.4574026"
     inkscape:cx="1262.7839"
     inkscape:cy="842.04776"
     inkscape:window-x="54"
     inkscape:window-y="-8"
     inkscape:window-maximized="1"
     inkscape:current-layer="layer3"
     inkscape:snap-global="false" />
  <g
     inkscape:groupmode="layer"
     id="layer2"
     inkscape:label="artwork"
     sodipodi:insensitive="true">
    <image
       sodipodi:absref="D:\Documents\Others\webcomics\ep31_The-Fight\lang\id\../gfx_Pepper-and-Carrot_by-David-Revoy_E31P06.png"
       xlink:href="../gfx_Pepper-and-Carrot_by-David-Revoy_E31P06.png"
       width="2481"
       height="3503"
       id="image10"
       x="0"
       y="0" />
  </g>
  <g
     inkscape:groupmode="layer"
     id="layer3"
     inkscape:label="speechbubbles">
    <path
       style="color:#000000;display:inline;overflow:visible;visibility:visible;fill:#ffffff;fill-opacity:1;fill-rule:nonzero;stroke:none;stroke-width:1.42565715px;marker:none;enable-background:accumulate"
       d="m 934.08771,2940.3582 c -20.9731,-3.418 -82.83883,-34.4914 -9.53132,-35.5577 -54.78847,-11.971 -49.45887,-40.1844 -6.26081,-58.2012 -57.8452,5.5637 -101.39017,0.2542 -73.36161,-29.7302 -84.67576,21.7627 -122.54623,26.991 -107.35238,-14.1965 -37.37354,34.94 -75.73186,30.1588 -88.07065,-8.5629 -7.00557,29.4836 -65.00884,41.004 -134.18854,4.6514 23.5672,34.2791 36.95001,52.1204 -86.02399,47.1061 47.69861,18.6019 78.00517,30.5177 -0.3251,42.1676 40.80901,7.6257 67.26444,19.0622 5.89234,41.1999 41.01281,4.6741 105.1306,0.3811 29.5977,41.1159 50.2599,-19.811 136.89412,-10.2156 101.8036,19.9752 98.66048,-36.1964 118.60862,-28.3202 135.34445,-5.7398 35.24839,-35.3567 108.76572,-41.9501 141.55625,-23.4423 -17.2826,-29.4704 44.64208,-19.0221 90.92006,-20.7855 z"
       id="path3549-3-78-5-3"
       inkscape:connector-curvature="0"
       sodipodi:nodetypes="ccccccccccccccc" />
    <path
       style="color:#000000;display:inline;overflow:visible;visibility:visible;fill:#ffffff;fill-opacity:1;fill-rule:nonzero;stroke:none;stroke-width:1.13598561px;marker:none;enable-background:accumulate"
       d="m 843.02907,2994.1713 c -11.89713,-2.9785 -24.17157,-22.306 -4.83933,-35.2868 -16.04099,-0.688 -25.22109,-7.3316 -10.09016,-20.9326 -33.63592,17.0282 -42.55262,-6.109 -31.54836,-33.2935 -49.36943,13.0575 -71.28017,15.72 -61.02027,-12.9191 -22.7425,23.6321 -44.55674,19.2215 -50.17625,-8.4238 -5.12498,20.6058 -16.0656,31.8674 -48.67807,5.9229 -2.4006,7.5606 8.64658,32.4271 -61.67596,25.5615 26.65036,14.4116 42.6399,17.0575 -2.71109,23.1541 23.11252,6.4833 53.82905,16.2056 17.80741,30.1585 23.34031,4.4069 45.22812,8.7539 0.38797,35.4404 29.56268,-12.6127 61.01949,-4.4394 39.76453,15.9049 57.9305,-22.8594 69.07237,-16.7642 77.8197,-0.3847 21.53965,-23.9836 52.66833,-21.2672 70.7742,-7.3256 -8.80189,-21.2539 37.58447,-17.5851 64.18568,-17.5762 z"
       id="path3549-3-78-5"
       inkscape:connector-curvature="0"
       sodipodi:nodetypes="ccccccccccccccc" />
    <path
       style="fill:#ffffff;fill-opacity:1;stroke:none;stroke-width:1.17927551"
       d="m 2368.8893,607.49643 c -21.9082,3.86007 -30.3408,7.46431 -26.4181,9.6977 -8.9865,1.09817 -12.4483,30.03928 -4.0438,35.3413 0.5594,0.55806 4.4843,2.23433 2.7987,2.50979 -1.6847,0.27548 -11.7877,-0.5762 -13.4754,0.53413 -1.688,1.11089 15.1036,17.00347 12.8559,17.5563 -2.2474,0.55338 -53.8641,-10.10974 -61.1705,-7.61678 -7.3065,2.49298 -3.3971,8.9012 -5.6436,9.17575 -2.2464,0.27454 -23.0139,-1.42978 -25.8218,-1.15616 -2.808,0.2736 -7.8876,8.61487 -10.6954,8.88847 -2.8083,0.27362 -15.7083,-3.64446 -17.9547,-3.36991 -2.2467,0.27454 -1.1462,7.23467 -3.9541,7.50829 -2.8082,0.2736 -15.1396,-5.86981 -16.8248,-5.59434 -1.685,0.27548 -7.9056,14.1817 -10.7153,15.01188 -2.8099,0.83018 -20.723,-15.34253 -22.4067,-15.62363 -1.6832,-0.28165 -12.412,18.90564 -14.6584,19.18018 -2.247,0.27454 -13.432,-13.1041 -15.1174,-12.82862 -1.6852,0.27548 -12.3771,8.05138 -14.6245,8.60421 -2.2474,0.55283 -16.7869,-17.28455 -19.0328,-17.28829 -2.2457,-0.004 -21.3581,7.47929 -23.0468,8.86791 -1.6889,1.38917 -3.3452,-7.24215 -5.5909,-7.24589 -2.2455,-0.004 -28.0871,4.96349 -28.6476,4.68427 -0.5606,-0.27923 3.948,-5.56029 2.2637,-5.56309 -1.6841,-0.003 -28.0931,6.9115 -29.2119,5.5182 7.7032,-20.42315 -56.9577,6.15199 -61.2133,5.74316 -3.9264,-1.12024 25.3374,-22.78124 22.5359,-24.45617 -2.802,-1.6744 -12.914,0.25676 -13.4728,-0.57903 -0.5584,-0.83579 6.1902,-4.44284 4.5096,-5.55878 -1.6807,-1.1165 -20.7545,-5.60143 -22.4342,-6.99566 -1.6799,-1.3948 8.4372,-4.99624 6.1942,-5.83483 -2.2431,-0.83915 -35.3497,-6.18233 -35.9068,-7.57524 -0.5568,-1.39237 16.869,-8.04334 14.6294,-9.99509 -2.2392,-1.95229 -8.4125,-2.79743 -7.8464,-4.18848 0.566,-1.39049 11.2382,-3.04299 10.6814,-4.43535 -0.5569,-1.39238 -6.1488,-8.36054 -7.8294,-9.47648 -1.6808,-1.11595 11.7916,-0.53694 11.7951,-1.65008 0,-1.11369 -2.5965,-23.5183 -22.51,-33.66701 34.8651,6.75864 49.5586,3.53587 68.0928,1.34045 18.5342,-2.19598 11.2802,-16.12464 14.0901,-16.95484 11.4012,5.17921 29.6692,27.89768 32.5714,1.91714 -0.5766,-1.85524 20.0752,11.16727 22.883,10.89366 2.8081,-0.27361 25.9548,-14.7864 29.8855,-15.05814 3.9308,-0.27174 19.0731,4.76377 22.4406,5.04767 3.3677,0.2839 6.1971,-6.66969 9.0026,-6.10843 2.8054,0.56124 20.7545,5.60143 23.5632,5.04953 2.809,-0.55245 5.0618,-2.775 7.3059,-2.21468 2.2435,0.56031 12.342,2.80399 12.342,2.80399 0,0 7.3041,-1.65812 10.6724,-1.65251 3.3685,0.006 26.3572,9.22905 29.1624,9.79031 2.8053,0.56124 31.6564,-9.43403 29.9776,-11.10655 3.5532,7.31416 20.8224,0.65375 24.4766,1.02589 3.9269,0.84196 15.7249,-1.64353 16.8452,-0.80679 1.1199,0.83672 4.4742,5.29601 7.8418,5.57991 3.3677,0.2839 11.2238,1.41013 11.2238,1.41013 l -1.128,1.6684 c 0,0 23.5938,6.87013 26.4066,5.20508 10.1037,-0.92566 9.6549,1.56665 35.5909,-6.34533 -20.7753,16.83134 -34.5655,35.87639 8.6908,28.12884 -35.9695,7.40389 -20.0405,13.68463 10.0663,12.26364 z"
       id="path5888-3-2"
       inkscape:connector-curvature="0"
       sodipodi:nodetypes="cccsccsscccccccsccscscsccsccccccsccscsccccsccscsccccccccccc" />
    <path
       style="fill:#ffffff;fill-opacity:1;stroke:none;stroke-width:1.09623992"
       d="m 2211.2986,406.59234 c -0.068,0.004 -0.139,0.0176 -0.2077,0.041 -2.2003,0.75002 -10.4232,7.90828 -12.6234,7.15827 -2.2004,-0.75076 -12.2617,-7.40689 -14.0221,-6.65688 -1.7601,0.75001 -8.2148,11.06376 -8.2148,11.06376 0,0 -10.6718,-4.96527 -21.8134,-11.01838 -3.2864,5.91093 -6.2542,17.08211 -8.4547,17.83213 -2.2002,0.75002 -24.7898,-12.78316 -33.7237,-17.47112 -3.2919,6.19133 -6.0979,18.47784 -8.963,18.97112 -3.0804,1.12577 -22.5763,-13.22067 -23.4562,-12.09564 -0.8802,1.12502 6.7327,18.09759 4.0923,18.4726 -2.6405,0.37501 -8.8009,1.875 -8.8009,1.875 l 0.879,2.25 c 0,0 -18.483,-6.00192 -20.6833,-8.25196 -2.2003,-2.25078 1.3211,9.75311 2.6414,12.75391 -7.9215,-3.0008 -31.2448,-9.37813 -33.0049,-11.25391 -1.7603,-1.87503 3.0808,6.75193 5.7211,9.37696 -3.5205,-1.12501 -6.6022,-1.5 -6.6022,-1.5 l 10.1225,9.00195 -3.0798,0.75 c 0,0 6.6003,4.12498 6.6003,6 0,1.87579 -17.1633,4.12695 -17.1633,4.12695 19.4703,11.23691 7.2041,14.55335 -7.9199,16.50391 8.216,2.51362 13.9831,4.93804 17.4548,7.11523 l -16.7666,3.7168 17.413,7.56445 -9.2877,3.24219 9.2877,5.4043 -25.5404,8.64648 26.7025,5.4043 -19.7373,9.72851 19.7373,5.4043 -10.4498,7.56446 23.3941,1.45312 c 0,3.14332 -6.8116,19.04189 -10.2044,23.27148 13.3637,-0.0303 35.5809,0.13477 51.731,0.13477 0.03,1.16441 0.1261,2.00665 0.6355,2.11523 0.8647,0.18421 5.2502,-0.26823 9.7325,-0.72851 l 14.2596,4.42578 c 1.6807,3.15354 3.4098,6.59956 4.6134,6.80469 1.3753,0.23437 5.8438,-1.72876 9.4321,-3.14258 8e-4,-2.5e-4 0,2.5e-4 0,0 l 5.1421,-0.9082 c 1.1035,1.91909 0.6322,9.34263 2.5867,9.67578 2.2005,0.37502 11.8822,-7.87501 13.2023,-7.5 1.3202,0.375 6.1602,19.12886 8.3603,20.2539 2.2005,1.12501 16.2836,-20.6289 17.604,-21.0039 1.32,-0.37576 9.6796,25.5039 11.4398,25.8789 1.7604,0.37502 10.5625,-17.62892 11.8828,-17.2539 1.3203,0.37499 9.682,10.87889 11.4421,11.6289 1.7604,0.75002 13.2021,-23.25586 14.9625,-23.25586 1.7603,0 16.7221,10.12693 18.0424,12.00196 1.3203,1.87579 2.6411,-9.75196 4.4013,-9.75196 1.7604,0 22.0015,6.75197 22.4416,6.37696 0.4403,-0.37501 -3.0804,-7.50196 -1.7601,-7.50196 1.3202,0 22.0042,9.37698 22.8844,7.50196 0.8799,-1.87578 37.7833,3.46603 47.9669,7.87695 -7.8973,-9.56114 -19.8039,-30.75508 -17.6037,-33.00586 2.2003,-2.25003 10.1232,0.37502 10.5633,-0.75 0.4399,-1.12502 -4.8404,-6.00194 -3.5203,-7.50195 1.3202,-1.50078 16.2815,-7.50191 17.6015,-9.37696 1.3201,-1.87577 -6.6,-6.74999 -4.8399,-7.875 1.7603,-1.12576 27.7247,-8.25313 28.1648,-10.1289 0.4399,-1.87504 -13.2024,-10.87691 -11.4422,-13.50195 1.7603,-2.62579 6.6019,-3.74922 6.1617,-5.625 -0.4401,-1.87502 -8.8024,-4.12694 -8.3623,-6.00196 0.44,-1.87503 4.8415,-11.25193 6.1615,-12.75195 1.3204,-1.50003 -9.2412,-0.74998 -9.2412,-2.25 0,-1.50078 -24.1475,-9.73512 2.9909,-31.94263 -38.8498,4.74119 -25.4345,-1.06318 -39.9567,-4.06323 -14.5223,-3.0008 -8.8012,-21.75584 -11.0014,-22.88086 -2.2005,-1.12577 -18.4834,6.377 -20.6837,3.75195 -2.2003,-2.62579 -3.0817,-7.50195 -4.8421,-7.50195 -1.76,0 -20.6702,8.06404 -22.8706,7.68903 -2.2003,-0.37501 -14.0942,-14.44098 -17.1747,-14.81598 -3.0805,-0.37502 -14.9635,6.37695 -17.6039,6.75195 -2.5577,0.36329 -4.7006,-8.42522 -6.8329,-8.29297 z"
       id="path5888-3"
       inkscape:connector-curvature="0"
       sodipodi:nodetypes="ccccccccccscccccccccscccccccccccccccscccccccccccccscsssccccccccccccsccccsccccc" />
    <path
       style="color:#000000;display:inline;overflow:visible;visibility:visible;fill:#ffffff;fill-opacity:1;fill-rule:nonzero;stroke:none;stroke-width:0.99999994px;marker:none;enable-background:accumulate"
       d="m 1272.5449,3077.9523 c -78.231,15.2781 -158.5825,23.1124 -234.3525,47.042 l 48.6913,-38.9221 c -31.113,-0.2775 -62.6052,11.89 -93.96922,19.832 l 24.81112,-26.6421 c -73.62433,-0.043 -140.93978,19.5825 -211.30464,29.7017 l 48.37788,-44.8304 c 71.35729,-4.7997 140.74069,-1.8479 214.31916,-15.3676 l -20.5535,27.1733 c 25.7084,-2.3825 51.5171,-5.4463 77.7719,-11.5491 l -30.1046,33.1547 z"
       id="path4032-1"
       inkscape:connector-curvature="0"
       sodipodi:nodetypes="cccccccccccc" />
    <path
       style="display:inline;fill:#ffffff;fill-rule:evenodd;stroke:none;stroke-width:1.04528606px;stroke-linecap:butt;stroke-linejoin:miter;stroke-opacity:1"
       d="m 518.03764,2945.2186 c 47.45441,27.7664 88.44603,48.8362 56.26585,-29.8209 38.32299,58.7662 53.77977,32.7067 63.09757,-1.6568 29.97418,29.537 50.67193,55.6431 65.53548,34.3917 5.53998,27.3304 17.42065,16.3014 27.70267,14.9435 3.38641,6.1843 -21.09131,-14.0312 25.89867,-34.4992 -5.85003,-39.2524 29.87274,4.5596 57.39717,-13.5861 7.13071,33.2197 3.16074,53.7803 43.56546,6.9226 -14.60266,46.0865 -8.54754,52.5958 10.11166,34.9581 -8.53084,18.9789 -13.63315,33.6705 18.77867,1.456 -11.09619,35.0311 28.10871,11.8832 66.4456,-24.0828 -36.48263,39.882 -87.27539,84.6303 -46.22216,79.433 -5.72515,10.964 -26.14632,20.5167 34.66843,37.8711 -11.3533,7.4397 -46.01455,-3.4328 -17.10083,28.0683 3.87385,3.6828 -9.09489,5.9311 15.6563,15.6289 -14.61089,-0.6599 -23.57142,1.6963 -10.11168,16.022 -26.6703,-0.7748 -16.69144,14.2886 2.88908,33.501 -50.0161,-37.5979 -66.04535,-44.4483 -41.89121,-5.826 -48.40512,-33.5984 -65.44372,-29.2979 -59.27522,-1.6753 -20.60499,-29.3292 -44.19888,-34.4578 -63.30952,-0.5745 -20.37612,-34.9626 -34.25857,-31.3804 -76.7593,-5.0332 22.92622,-29.6489 -9.68928,-10.7595 -34.66856,1.4561 13.67914,-37.038 -21.03656,-12.7295 -65.00354,23.305 24.6213,-40.8998 -3.34271,-26.1256 -44.78025,2.913 15.65639,-40.1807 -9.84147,-59.6121 -70.7816,-61.1752 29.16775,-14.494 46.17688,-32.7341 15.88983,-65.5461 34.1421,9.6616 44.32618,0.6871 20.22328,-34.9572 37.23996,29.2567 20.30833,-13.179 5.77815,-52.437 z"
       id="path4508-9"
       inkscape:connector-curvature="0"
       sodipodi:nodetypes="cccccccccccccccccccccccccccc" />
    <path
       style="color:#000000;display:inline;overflow:visible;visibility:visible;fill:#ffffff;fill-opacity:1;fill-rule:nonzero;stroke:none;stroke-width:1px;marker:none;enable-background:accumulate"
       d="m 2279.1877,625.34512 c -0.091,3.76817 51.831,-6.4041 51.831,-6.4041 0,0 1.5665,29.95657 4.6782,32.0986 11.0733,-0.0391 21.0624,-5.37296 21.0624,-5.37296 l 18.0133,48.73793 -20.0054,-31.72225 c -9.8867,-0.91886 -20.0127,-0.88091 -32.7339,9.5382 l -4.3594,-32.26765 -34.1656,7.80769 z"
       id="path4448"
       inkscape:connector-curvature="0"
       sodipodi:nodetypes="cccccccccc" />
  </g>
  <g
     inkscape:groupmode="layer"
     id="layer1"
     inkscape:label="txt">
    <text
       xml:space="preserve"
       style="font-style:normal;font-variant:normal;font-weight:normal;font-stretch:normal;font-size:15.89058971px;line-height:0%;font-family:Lavi;-inkscape-font-specification:Lavi;text-align:center;letter-spacing:0px;word-spacing:0px;text-anchor:middle;fill:#000000;fill-opacity:1;stroke:none;stroke-width:1.17751098"
       x="2192.574"
       y="482.24832"
       id="text4246-1-3-2-8"
       transform="scale(0.99789912,1.0021053)"><tspan
         sodipodi:role="line"
         style="font-style:normal;font-variant:normal;font-weight:bold;font-stretch:normal;font-size:46.66666794px;line-height:1.25;font-family:Lavi;-inkscape-font-specification:'Lavi Bold';stroke-width:1.17751098"
         x="2192.574"
         y="482.24832"
         id="tspan70">Aku bilang</tspan><tspan
         sodipodi:role="line"
         style="font-style:normal;font-variant:normal;font-weight:bold;font-stretch:normal;font-size:46.66666794px;line-height:1.25;font-family:Lavi;-inkscape-font-specification:'Lavi Bold';stroke-width:1.17751098"
         x="2192.574"
         y="540.58167"
         id="tspan829">BERHENTI!</tspan></text>
    <text
       xml:space="preserve"
       style="font-style:normal;font-variant:normal;font-weight:normal;font-stretch:normal;font-size:15.89058971px;line-height:0%;font-family:Lavi;-inkscape-font-specification:Lavi;text-align:center;letter-spacing:0px;word-spacing:0px;text-anchor:middle;fill:#000000;fill-opacity:1;stroke:none;stroke-width:1.17751098"
       x="2144.4634"
       y="637.91968"
       id="text4246-1-3-2-8-3"
       transform="scale(0.99789912,1.0021053)"><tspan
         sodipodi:role="line"
         style="font-style:normal;font-variant:normal;font-weight:bold;font-stretch:normal;font-size:46.66666794px;line-height:1.25;font-family:Lavi;-inkscape-font-specification:'Lavi Bold';stroke-width:1.17751098"
         x="2144.4634"
         y="637.91968"
         id="tspan829-7">Sudah cukup!</tspan></text>
    <text
       xml:space="preserve"
       style="font-style:normal;font-variant:normal;font-weight:normal;font-stretch:normal;line-height:0%;font-family:Lavi;-inkscape-font-specification:Lavi;letter-spacing:0px;word-spacing:0px;fill:#000000;fill-opacity:1;stroke:#ffffff;stroke-width:2.66678286;stroke-miterlimit:4;stroke-dasharray:none;stroke-opacity:1;filter:url(#filter4375-4-1-1-1-9-0)"
       x="787.65729"
       y="1584.5073"
       id="text4580-25"
       transform="matrix(0.55718765,-0.37423929,0.21813977,1.0749149,-120.92735,-234.76499)"><tspan
         sodipodi:role="line"
         id="tspan4582-4"
         x="787.65729"
         y="1584.5073"
         style="font-size:70px;line-height:100%;letter-spacing:4.88345098px;fill:#ffffff;stroke:#ffffff;stroke-width:2.66678286;stroke-miterlimit:4;stroke-dasharray:none;stroke-opacity:1"><tspan
           style="font-size:55.34964371px;line-height:100%;letter-spacing:4.88345098px;stroke:#ffffff;stroke-width:2.66678286;stroke-miterlimit:4;stroke-dasharray:none;stroke-opacity:1"
           id="tspan4439-4">Ptik</tspan><tspan
           style="font-size:80.40014648px;line-height:100%;letter-spacing:4.88345098px;stroke:#ffffff;stroke-width:2.66678286;stroke-miterlimit:4;stroke-dasharray:none;stroke-opacity:1"
           id="tspan4617-9">!</tspan></tspan></text>
    <text
       xml:space="preserve"
       style="font-style:normal;font-variant:normal;font-weight:normal;font-stretch:normal;line-height:0%;font-family:Lavi;-inkscape-font-specification:Lavi;letter-spacing:0px;word-spacing:0px;display:inline;fill:#ffffff;fill-opacity:1;stroke:#000000;stroke-width:0.48148537;stroke-miterlimit:4;stroke-dasharray:none;stroke-opacity:1;filter:url(#filter4375-4-1-1-1-9-5-8-3-8)"
       x="787.65729"
       y="1584.5073"
       id="text4580-6-0-8-8"
       transform="matrix(1.5492299,-0.0813593,-0.87667877,1.9075458,1570.733,-1836.1775)"><tspan
         sodipodi:role="line"
         id="tspan4582-1-1-8-2"
         x="787.65729"
         y="1584.5073"
         style="font-style:normal;font-variant:normal;font-weight:bold;font-stretch:normal;font-size:70px;line-height:1.25;font-family:'Noto Sans';-inkscape-font-specification:'Noto Sans Bold';letter-spacing:5.87610865px;fill:#ffffff;fill-opacity:1;stroke:#000000;stroke-width:0.48148537;stroke-opacity:1"><tspan
           style="font-style:normal;font-variant:normal;font-weight:bold;font-stretch:normal;font-size:93.14950562px;font-family:'Noto Sans';-inkscape-font-specification:'Noto Sans Bold';letter-spacing:5.87610865px;fill:#ffffff;fill-opacity:1;stroke:#000000;stroke-width:0.48148537;stroke-opacity:1"
           id="tspan4315-8-97-3">PU<tspan
   style="font-style:normal;font-variant:normal;font-weight:bold;font-stretch:normal;font-size:81.11493683px;font-family:'Noto Sans';-inkscape-font-specification:'Noto Sans Bold';stroke-width:0.48148537"
   id="tspan912">FF</tspan></tspan><tspan
           style="font-style:normal;font-variant:normal;font-weight:bold;font-stretch:normal;font-size:114.73223114px;font-family:'Noto Sans';-inkscape-font-specification:'Noto Sans Bold';letter-spacing:5.87610865px;fill:#ffffff;fill-opacity:1;stroke:#000000;stroke-width:0.48148537;stroke-opacity:1"
           id="tspan4313-2-76-0">!</tspan></tspan></text>
    <text
       xml:space="preserve"
       style="font-style:normal;font-variant:normal;font-weight:normal;font-stretch:normal;line-height:0%;font-family:Lavi;-inkscape-font-specification:Lavi;letter-spacing:0px;word-spacing:0px;fill:#000000;fill-opacity:1;stroke:#ffffff;stroke-width:4.21925974;stroke-miterlimit:4;stroke-dasharray:none;stroke-opacity:1;filter:url(#filter4375-4-1-1-1-9-0-5)"
       x="787.65729"
       y="1584.5073"
       id="text4580-25-2"
       transform="matrix(0.37191843,0.11061463,-0.38324889,0.61702867,2371.8774,1301.4149)"><tspan
         sodipodi:role="line"
         id="tspan4582-4-7"
         x="787.65729"
         y="1584.5073"
         style="font-style:normal;font-variant:normal;font-weight:bold;font-stretch:normal;font-size:80.40014648px;line-height:100%;font-family:'Noto Sans';-inkscape-font-specification:'Noto Sans Bold';letter-spacing:4.88345098px;fill:#ffffff;stroke:#ffffff;stroke-width:4.21925974;stroke-miterlimit:4;stroke-dasharray:none;stroke-opacity:1">TCHK!</tspan></text>
    <text
       xml:space="preserve"
       style="font-style:normal;font-variant:normal;font-weight:normal;font-stretch:normal;font-size:15.89058971px;line-height:0%;font-family:Lavi;-inkscape-font-specification:Lavi;text-align:center;letter-spacing:0px;word-spacing:0px;text-anchor:middle;fill:#000000;fill-opacity:1;stroke:none;stroke-width:1.17751098"
       x="685.59564"
       y="2895.5073"
       id="text4246-1-3-2-8-3-3"
       transform="scale(0.99789912,1.0021053)"><tspan
         sodipodi:role="line"
         style="font-style:normal;font-variant:normal;font-weight:bold;font-stretch:normal;font-size:46.66666794px;line-height:1.25;font-family:Lavi;-inkscape-font-specification:'Lavi Bold';stroke-width:1.17751098"
         x="685.59564"
         y="2895.5073"
         id="tspan829-7-6">Kalian berdua!</tspan></text>
    <text
       xml:space="preserve"
       style="font-style:normal;font-variant:normal;font-weight:normal;font-stretch:normal;font-size:15.89058971px;line-height:0%;font-family:Lavi;-inkscape-font-specification:Lavi;text-align:center;letter-spacing:0px;word-spacing:0px;text-anchor:middle;fill:#000000;fill-opacity:1;stroke:none;stroke-width:1.17751098"
       x="719.39069"
       y="2985.6943"
       id="text4246-1-3-2-8-3-3-7"
       transform="scale(0.99789912,1.0021053)"><tspan
         sodipodi:role="line"
         style="font-style:normal;font-variant:normal;font-weight:bold;font-stretch:normal;font-size:46.66666794px;line-height:1.25;font-family:Lavi;-inkscape-font-specification:'Lavi Bold';stroke-width:1.17751098"
         x="719.39069"
         y="2985.6943"
         id="tspan829-7-6-5">KE SINI!</tspan></text>
    <text
       xml:space="preserve"
       style="font-style:normal;font-variant:normal;font-weight:normal;font-stretch:normal;font-size:15.89058971px;line-height:0%;font-family:Lavi;-inkscape-font-specification:Lavi;text-align:center;letter-spacing:0px;word-spacing:0px;text-anchor:middle;fill:#000000;fill-opacity:1;stroke:none;stroke-width:1.17751098"
       x="713.04907"
       y="3070.9504"
       id="text4246-1-3-2-8-36-2"
       transform="scale(0.99789912,1.0021053)"><tspan
         sodipodi:role="line"
         style="font-style:normal;font-variant:normal;font-weight:bold;font-stretch:normal;font-size:46.66666794px;line-height:1.25;font-family:Lavi;-inkscape-font-specification:'Lavi Bold';stroke-width:1.17751098"
         x="713.04907"
         y="3070.9504"
         id="tspan1020-8">Sekarang!</tspan></text>
  </g>
</svg>
