<?xml version="1.0" encoding="UTF-8" standalone="no"?>
<!-- Created with Inkscape (http://www.inkscape.org/) -->

<svg
   xmlns:dc="http://purl.org/dc/elements/1.1/"
   xmlns:cc="http://creativecommons.org/ns#"
   xmlns:rdf="http://www.w3.org/1999/02/22-rdf-syntax-ns#"
   xmlns:svg="http://www.w3.org/2000/svg"
   xmlns="http://www.w3.org/2000/svg"
   xmlns:xlink="http://www.w3.org/1999/xlink"
   xmlns:sodipodi="http://sodipodi.sourceforge.net/DTD/sodipodi-0.dtd"
   xmlns:inkscape="http://www.inkscape.org/namespaces/inkscape"
   id="svg2"
   version="1.1"
   inkscape:version="0.92.2 (5c3e80d, 2017-08-06)"
   width="2481"
   height="3503"
   sodipodi:docname="E24P05.svg"
   inkscape:export-filename="E:\Users\jamesmichael\Downloads\Compressed\eps\ep24_The-Unity-Tree_lang-pack\lang\ph\E24P05.png"
   inkscape:export-xdpi="90"
   inkscape:export-ydpi="90">
  <metadata
     id="metadata8">
    <rdf:RDF>
      <cc:Work
         rdf:about="">
        <dc:format>image/svg+xml</dc:format>
        <dc:type
           rdf:resource="http://purl.org/dc/dcmitype/StillImage" />
        <dc:title />
      </cc:Work>
    </rdf:RDF>
  </metadata>
  <defs
     id="defs6">
    <filter
       style="color-interpolation-filters:sRGB"
       id="filter4375-4-1-1-1-9-5-8-0-9"
       inkscape:label="Drop Shadow">
      <feFlood
         id="feFlood4377-7-9-0-8-1-7-3-9-2"
         flood-opacity="1"
         flood-color="rgb(200,55,55)"
         result="flood" />
      <feComposite
         id="feComposite4379-3-8-8-2-77-4-1-3-2"
         in2="SourceGraphic"
         in="flood"
         operator="in"
         result="composite1" />
      <feMorphology
         id="feMorphology4393-1-0-49-8-9-3-0-6-8"
         operator="dilate"
         radius="6.2000000000000002"
         result="result3" />
      <feComposite
         id="feComposite4385-9-5-7-0-8-8-7-0-9"
         in2="result3"
         in="SourceGraphic"
         operator="over"
         result="fbSourceGraphic" />
      <feColorMatrix
         result="fbSourceGraphicAlpha"
         in="fbSourceGraphic"
         values="0 0 0 -1 0 0 0 0 -1 0 0 0 0 -1 0 0 0 0 1 0"
         id="feColorMatrix4544-6-7" />
      <feTurbulence
         id="feTurbulence4546-2-3"
         type="fractalNoise"
         numOctaves="3"
         seed="37"
         baseFrequency="0.129 0.0050000000000000001"
         result="turbulence" />
      <feDisplacementMap
         id="feDisplacementMap4548-6-6"
         in2="turbulence"
         in="fbSourceGraphic"
         scale="6.6"
         yChannelSelector="G"
         xChannelSelector="R"
         result="fbSourceGraphic" />
      <feColorMatrix
         result="fbSourceGraphicAlpha"
         in="fbSourceGraphic"
         values="0 0 0 -1 0 0 0 0 -1 0 0 0 0 -1 0 0 0 0 1 0"
         id="feColorMatrix4670-1-1" />
      <feFlood
         id="feFlood4672-8-2"
         flood-opacity="1"
         flood-color="rgb(80,22,22)"
         result="flood"
         in="fbSourceGraphic" />
      <feComposite
         id="feComposite4674-7-9"
         in2="fbSourceGraphic"
         in="flood"
         operator="in"
         result="composite1" />
      <feGaussianBlur
         id="feGaussianBlur4676-9-3"
         in="composite1"
         stdDeviation="0"
         result="blur" />
      <feOffset
         id="feOffset4678-2-1"
         dx="6"
         dy="6"
         result="offset" />
      <feComposite
         id="feComposite4680-0-9"
         in2="offset"
         in="fbSourceGraphic"
         operator="over"
         result="composite2" />
    </filter>
    <filter
       style="color-interpolation-filters:sRGB"
       id="filter4375-4-1-1-1-9-5-8"
       inkscape:label="Drop Shadow">
      <feFlood
         id="feFlood4377-7-9-0-8-1-7-3"
         flood-opacity="1"
         flood-color="rgb(200,55,55)"
         result="flood" />
      <feComposite
         id="feComposite4379-3-8-8-2-77-4-1"
         in2="SourceGraphic"
         in="flood"
         operator="in"
         result="composite1" />
      <feMorphology
         id="feMorphology4393-1-0-49-8-9-3-0"
         operator="dilate"
         radius="6.2000000000000002"
         result="result3" />
      <feComposite
         id="feComposite4385-9-5-7-0-8-8-7"
         in2="result3"
         in="SourceGraphic"
         operator="over"
         result="fbSourceGraphic" />
      <feColorMatrix
         result="fbSourceGraphicAlpha"
         in="fbSourceGraphic"
         values="0 0 0 -1 0 0 0 0 -1 0 0 0 0 -1 0 0 0 0 1 0"
         id="feColorMatrix4544" />
      <feTurbulence
         id="feTurbulence4546"
         type="fractalNoise"
         numOctaves="3"
         seed="37"
         baseFrequency="0.129 0.0050000000000000001"
         result="turbulence" />
      <feDisplacementMap
         id="feDisplacementMap4548"
         in2="turbulence"
         in="fbSourceGraphic"
         scale="6.6"
         yChannelSelector="G"
         xChannelSelector="R"
         result="fbSourceGraphic" />
      <feColorMatrix
         result="fbSourceGraphicAlpha"
         in="fbSourceGraphic"
         values="0 0 0 -1 0 0 0 0 -1 0 0 0 0 -1 0 0 0 0 1 0"
         id="feColorMatrix4670" />
      <feFlood
         id="feFlood4672"
         flood-opacity="1"
         flood-color="rgb(80,22,22)"
         result="flood"
         in="fbSourceGraphic" />
      <feComposite
         id="feComposite4674"
         in2="fbSourceGraphic"
         in="flood"
         operator="in"
         result="composite1" />
      <feGaussianBlur
         id="feGaussianBlur4676"
         in="composite1"
         stdDeviation="0"
         result="blur" />
      <feOffset
         id="feOffset4678"
         dx="6"
         dy="6"
         result="offset" />
      <feComposite
         id="feComposite4680"
         in2="offset"
         in="fbSourceGraphic"
         operator="over"
         result="composite2" />
    </filter>
    <filter
       inkscape:collect="always"
       style="color-interpolation-filters:sRGB"
       id="filter4210"
       x="-0.0015578248"
       width="1.0031157"
       y="-0.0045528179"
       height="1.0091056">
      <feGaussianBlur
         inkscape:collect="always"
         stdDeviation="0.2079876"
         id="feGaussianBlur4212" />
    </filter>
  </defs>
  <sodipodi:namedview
     pagecolor="#ffffff"
     bordercolor="#666666"
     borderopacity="1"
     objecttolerance="10"
     gridtolerance="10"
     guidetolerance="10"
     inkscape:pageopacity="0"
     inkscape:pageshadow="2"
     inkscape:window-width="1920"
     inkscape:window-height="1029"
     id="namedview4"
     showgrid="false"
     inkscape:zoom="0.2630065"
     inkscape:cx="993.76141"
     inkscape:cy="146.05589"
     inkscape:window-x="0"
     inkscape:window-y="27"
     inkscape:window-maximized="1"
     inkscape:current-layer="layer3"
     inkscape:snap-global="false"
     showguides="true"
     inkscape:guide-bbox="true">
    <sodipodi:guide
       position="938.30482,3503.1839"
       orientation="0,1"
       id="guide4952"
       inkscape:locked="false" />
  </sodipodi:namedview>
  <g
     inkscape:groupmode="layer"
     id="layer2"
     inkscape:label="artwork"
     sodipodi:insensitive="true">
    <image
       sodipodi:absref="E:\Users\jamesmichael\Downloads\Compressed\eps\ep24_The-Unity-Tree_lang-pack\lang\ph\../gfx_Pepper-and-Carrot_by-David-Revoy_E24P05.png"
       xlink:href="../gfx_Pepper-and-Carrot_by-David-Revoy_E24P05.png"
       width="2481"
       height="3503"
       id="image10"
       x="0"
       y="0" />
  </g>
  <g
     inkscape:groupmode="layer"
     id="layer3"
     inkscape:label="speechbubbles"
     style="display:inline">
    <path
       style="color:#000000;display:inline;overflow:visible;visibility:visible;fill:#ffffff;fill-opacity:1;fill-rule:nonzero;stroke:none;stroke-width:0.9934271px;marker:none;enable-background:accumulate"
       d="m 1037.5903,43.707984 c 72.021,4.898011 125.2978,69.183316 113.3747,237.149116 -6.3863,89.97148 -10.16,192.11712 -115.6555,185.98529 C 929.81421,460.71039 931.11086,313.91441 928.35358,283.62473 925.596,253.33498 935.13233,95.456714 970.73043,67.676452 993.01393,50.286677 1015.2959,43.32516 1037.5903,43.707984 Z"
       id="path4546-6"
       inkscape:connector-curvature="0"
       sodipodi:nodetypes="cssssc" />
    <path
       style="color:#000000;display:inline;overflow:visible;visibility:visible;fill:#ffffff;fill-opacity:1;fill-rule:nonzero;stroke:none;stroke-width:1.49066293px;marker:none;enable-background:accumulate"
       d="m 1289.1886,150.76689 c 107.8182,10.20412 156.1181,58.15348 152.4329,265.52669 -1.1697,65.82183 -17.5384,135.39997 -51.4718,181.72298 -46.5894,-19.62709 -50.7271,-26.59334 -54.4415,-22.58843 -11.8349,6.85442 -19.0322,48.10716 -24.0566,71.59904 -16.7421,3.25419 -35.9096,4.54786 -57.783,2.26539 -116.3311,-12.13906 -117.2866,-132.11415 -122.6592,-241.50234 -1.9211,-39.11398 0.169,-196.00218 55.7375,-229.81178 34.7844,-21.16397 68.7806,-28.91226 102.2417,-27.21155 z"
       id="path4546-6-5"
       inkscape:connector-curvature="0"
       sodipodi:nodetypes="cscccsssc" />
    <path
       style="fill:#ffffff;stroke:none;stroke-width:0.8712396"
       d="m 206.69383,2177.8345 c 18.6867,-0.6093 70.3849,19.0544 64.4369,103.3338 -5.948,84.2794 -27.2341,110.2878 -60.4716,112.1283 -52.5808,2.9116 -65.3212,-41.7299 -67.3683,-105.5216 -2.1104,-65.7623 16.1383,-106.3441 63.403,-109.9405 z"
       id="path3280"
       inkscape:connector-curvature="0"
       sodipodi:nodetypes="csssc" />
    <path
       style="fill:#ffffff;stroke:none;stroke-width:0.62430412"
       d="m 190.53867,2486.2545 c -0.68684,-45.7446 21.47936,-172.3005 116.4842,-157.74 95.00484,14.5606 125.09286,66.6457 126.39774,148.033 2.03994,127.2337 2.64684,182.1472 -151.247,176.7786 -74.22577,-2.5893 -87.58078,-51.3688 -91.63494,-167.0716 z"
       id="path3280-5"
       inkscape:connector-curvature="0"
       sodipodi:nodetypes="csssc" />
    <path
       style="fill:#ffffff;stroke:none;stroke-width:0.93731052"
       d="m 344.89759,2712.6959 c 33.2443,-1.0102 125.2171,31.591 114.63542,171.3199 -10.58168,139.7289 -48.43387,183.9811 -107.58102,185.9001 -92.46542,3.0003 -132.37303,3.8929 -128.47139,-222.4474 1.88172,-109.168 37.33153,-128.8099 121.41699,-134.7726 z"
       id="path3280-5-9"
       inkscape:connector-curvature="0"
       sodipodi:nodetypes="csssc" />
    <path
       style="fill:#ffffff;stroke:none;stroke-width:0.84542125"
       d="m 1551.8688,2338.5067 c 26.1701,-1.3578 91.6842,22.9884 86.7564,141.7484 -4.9278,118.76 -33.7139,155.93 -80.2312,159.4102 -73.5889,5.5054 -93.2544,-56.9741 -98.7051,-146.689 -5.6191,-92.4864 44.8948,-155.905 92.1799,-154.4696 z"
       id="path3280-8"
       inkscape:connector-curvature="0"
       sodipodi:nodetypes="csssc" />
    <path
       style="fill:#ffffff;stroke:none;stroke-width:1"
       d="m 1747.3365,2410.3303 c 39.3366,-2.5861 137.8113,43.7831 130.4042,269.9709 -7.4069,226.1878 -22.6971,305.0829 -120.596,314.3635 -128.6899,12.1995 -128.073,-119.2658 -136.266,-290.135 -10.1243,-211.1471 47.3295,-297.243 126.4578,-294.1994 z"
       id="path3280-8-2"
       inkscape:connector-curvature="0"
       sodipodi:nodetypes="csssc" />
    <path
       style="color:#000000;display:inline;overflow:visible;visibility:visible;fill:#ffffff;fill-opacity:1;fill-rule:nonzero;stroke:none;stroke-width:1px;marker:none;enable-background:accumulate"
       d="m 1716.3708,2801.8226 c 14.3116,13.119 20.5898,27.3224 21.7824,31.4966 1.1926,4.1742 -2.1039,30.5204 2.0703,35.291 4.1742,4.7705 19.6785,5.3668 21.4675,8.9448 1.7889,3.5779 -3.5779,22.0637 0,25.6416 3.5779,3.5779 28.6232,13.119 29.8159,16.1006 1.1926,2.9816 7.7521,19.0822 19.6784,31.6048 -11.33,-31.6048 -7.7521,-38.1643 -11.9263,-42.9348 -4.1742,-4.7706 -15.9274,-10.1807 -18.3127,-15.5476 -2.3853,-5.3668 6.711,-25.7283 0.086,-28.0269 -4.7705,-4.7705 -19.8083,-10.2673 -19.8083,-10.2673 4.1743,-4.7706 18.356,-27.8538 -1.3225,-55.8807 -19.6785,-28.027 -43.5312,3.5779 -43.5312,3.5779 z"
       id="path5050"
       inkscape:connector-curvature="0"
       sodipodi:nodetypes="csccscccccccc" />
    <path
       style="color:#000000;display:inline;overflow:visible;visibility:visible;fill:#ffffff;fill-opacity:1;fill-rule:nonzero;stroke:none;stroke-width:1.08731771px;marker:none;enable-background:accumulate"
       d="m 1505.4608,2956.0058 c 40.2278,-7.0311 147.0826,11.7185 138.2827,155.8571 -8.7997,144.1385 -59.0844,167.5758 -74.1697,171.0912 -15.0854,3.5156 -100.5693,33.984 -123.1973,-78.5144 -22.6281,-112.4984 1.2571,-213.2782 59.0843,-248.4339 z"
       id="path3525"
       inkscape:connector-curvature="0" />
    <path
       style="color:#000000;display:inline;overflow:visible;visibility:visible;fill:#ffffff;fill-opacity:1;fill-rule:nonzero;stroke:none;stroke-width:1px;marker:none;enable-background:accumulate"
       d="m 1440.0374,3192.1177 c -3.4359,34.9435 -1.889,46.2128 48.7685,41.0896 50.6576,-5.1233 39.9931,12.3576 39.9931,12.3576 l -39.0523,20.1395 c 0,0 -103.9385,3.9565 -49.7093,-73.5867 z"
       id="path3072"
       inkscape:connector-curvature="0" />
    <path
       style="color:#000000;display:inline;overflow:visible;visibility:visible;fill:#ffffff;fill-opacity:1;fill-rule:nonzero;stroke:none;stroke-width:1.64326465px;marker:none;enable-background:accumulate"
       d="m 2045.9461,107.32826 c 96.5742,12.89712 181.3174,118.98258 153.9348,391.28016 -14.6676,145.85741 -38.2404,324.2429 -179.7717,307.04647 -141.5311,-17.19669 -120.2098,-266.26143 -121.8747,-315.70157 -1.6653,-49.44078 6.3593,-305.49916 56.1327,-348.23183 31.1567,-26.74943 61.6076,-36.54275 91.5789,-34.39323 z"
       id="path4546-6-5-3"
       inkscape:connector-curvature="0"
       sodipodi:nodetypes="cssssc" />
    <path
       style="display:inline;fill:#ffffff;stroke:none;stroke-width:0.99999994"
       d="m 1939.8382,701.58085 c 51.4934,-25.05742 101.3335,-84.50569 87.939,-140.05224 -8.1157,-33.6558 -17.2505,-51.47851 -17.2505,-51.47851 l 37.7708,-2.39424 11.5884,36.59761 c 0,0 3.2849,108.24957 -120.0477,157.32738 z"
       id="path3063-1-6"
       inkscape:connector-curvature="0"
       sodipodi:nodetypes="cscccc" />
    <path
       sodipodi:nodetypes="csssc"
       inkscape:connector-curvature="0"
       id="path5006"
       d="m 219.76274,2609.3822 c 25.32298,-0.5879 95.38093,18.3823 87.3206,99.6893 -8.06033,81.307 -36.90584,106.3981 -81.94709,108.1736 -71.254,2.809 -88.51894,-40.2581 -91.29303,-101.7999 -2.85988,-63.4429 21.86955,-102.5935 85.91952,-106.063 z"
       style="fill:#ffffff;stroke:none;stroke-width:0.99616605" />
    <path
       inkscape:connector-curvature="0"
       id="path5214"
       d="m 1834.986,2957.1363 c -13.3584,32.4716 -20.0112,41.6982 -62.3451,13.4091 -42.334,-28.2891 -41.1165,-7.8482 -41.1165,-7.8482 l 25.0405,36.1062 c 0,0 89.9354,52.254 78.4211,-41.6671 z"
       style="color:#000000;display:inline;overflow:visible;visibility:visible;fill:#ffffff;fill-opacity:1;fill-rule:nonzero;stroke:none;stroke-width:1px;marker:none;enable-background:accumulate" />
    <path
       inkscape:connector-curvature="0"
       id="path5216"
       d="m 438.04701,3000.1072 c 3.4359,34.9435 1.889,46.2128 -48.7685,41.0896 -50.6576,-5.1233 -39.9931,12.3576 -39.9931,12.3576 l 39.0523,20.1395 c 0,0 103.9385,3.9565 49.7093,-73.5867 z"
       style="color:#000000;display:inline;overflow:visible;visibility:visible;fill:#ffffff;fill-opacity:1;fill-rule:nonzero;stroke:none;stroke-width:1px;marker:none;enable-background:accumulate" />
  </g>
  <g
     inkscape:groupmode="layer"
     id="layer1"
     inkscape:label="txt"
     style="display:inline">
    <text
       xml:space="preserve"
       style="font-style:normal;font-variant:normal;font-weight:normal;font-stretch:normal;line-height:0%;font-family:Lavi;-inkscape-font-specification:Lavi;letter-spacing:0px;word-spacing:0px;fill:#ffffff;fill-opacity:1;stroke:#c83737;stroke-width:0.99236238;stroke-miterlimit:4;stroke-dasharray:none;stroke-opacity:1;filter:url(#filter4375-4-1-1-1-9-5-8-0-9)"
       x="787.65729"
       y="1584.5073"
       id="text4580-6-0-2-4"
       transform="matrix(0.83434398,-0.14790328,-0.40858731,0.88612324,531.23181,-1091.7696)"><tspan
         sodipodi:role="line"
         id="tspan4582-1-1-3-7"
         x="787.65729"
         y="1584.5073"
         style="font-size:70px;line-height:1.25;fill:#ffffff;fill-opacity:1;stroke:#c83737;stroke-opacity:1"><tspan
           style="font-size:93.14950562px;fill:#ffffff;fill-opacity:1;stroke:#c83737;stroke-opacity:1"
           id="tspan4315-8-7-8">Plooom!</tspan><tspan
           style="font-size:114.73223114px;fill:#ffffff;fill-opacity:1;stroke:#c83737;stroke-opacity:1"
           id="tspan4313-2-5-4">!</tspan></tspan></text>
    <text
       xml:space="preserve"
       style="font-style:normal;font-variant:normal;font-weight:normal;font-stretch:normal;line-height:0%;font-family:Lavi;-inkscape-font-specification:Lavi;text-align:center;letter-spacing:0px;word-spacing:0px;text-anchor:middle;fill:#000000;fill-opacity:1;stroke:none"
       x="1279.3627"
       y="301.13547"
       id="text4246"><tspan
         sodipodi:role="line"
         style="font-size:45px;line-height:1.25"
         x="1287.2728"
         y="301.13547"
         id="tspan91">Wala </tspan><tspan
         sodipodi:role="line"
         style="font-size:45px;line-height:1.25"
         x="1287.2728"
         y="357.38547"
         id="tspan4936">naman siguro </tspan><tspan
         sodipodi:role="line"
         style="font-size:45px;line-height:1.25"
         x="1287.2728"
         y="413.63547"
         id="tspan4858">masama kung </tspan><tspan
         sodipodi:role="line"
         style="font-size:45px;line-height:1.25"
         x="1287.2728"
         y="469.88547"
         id="tspan4856">ilalabas ko </tspan><tspan
         sodipodi:role="line"
         style="font-size:45px;line-height:1.25"
         x="1279.3627"
         y="526.13544"
         id="tspan4938">to diba?</tspan></text>
    <text
       xml:space="preserve"
       style="font-style:normal;font-variant:normal;font-weight:normal;font-stretch:normal;line-height:1;font-family:Lavi;-inkscape-font-specification:Lavi;text-align:center;letter-spacing:0px;word-spacing:0px;text-anchor:middle;fill:#000000;fill-opacity:1;stroke:none"
       x="1034.8811"
       y="126.9622"
       id="text4246-7"><tspan
         sodipodi:role="line"
         style="font-size:45px;line-height:1"
         x="1042.7913"
         y="126.9622"
         id="tspan906">Yan </tspan><tspan
         sodipodi:role="line"
         style="font-size:45px;line-height:1"
         x="1042.7913"
         y="171.96219"
         id="tspan4928">pinalaki </tspan><tspan
         sodipodi:role="line"
         style="font-size:45px;line-height:1"
         x="1034.8811"
         y="216.96219"
         id="tspan4954">na natin!</tspan><tspan
         sodipodi:role="line"
         style="font-size:45px;line-height:1"
         x="1034.8811"
         y="235.87073"
         id="tspan4958" /><tspan
         sodipodi:role="line"
         style="font-size:45px;line-height:1"
         x="1034.8811"
         y="247.87073"
         id="tspan4960" /><tspan
         sodipodi:role="line"
         style="font-size:45px;line-height:1"
         x="1042.7913"
         y="285.96219"
         id="tspan4843">Anne </tspan><tspan
         sodipodi:role="line"
         style="font-size:45px;line-height:1"
         x="1042.7913"
         y="330.96219"
         id="tspan4932">Ganda </tspan><tspan
         sodipodi:role="line"
         style="font-size:45px;line-height:1"
         x="1034.8811"
         y="375.96219"
         id="tspan4934">talaga</tspan><tspan
         sodipodi:role="line"
         style="font-size:45px;line-height:1"
         x="1034.8811"
         y="394.87073"
         id="tspan4845" /></text>
    <text
       xml:space="preserve"
       style="font-style:normal;font-variant:normal;font-weight:normal;font-stretch:normal;line-height:1;font-family:Lavi;-inkscape-font-specification:Lavi;text-align:center;letter-spacing:0px;word-spacing:0px;text-anchor:middle;fill:#000000;fill-opacity:1;stroke:none"
       x="206.39417"
       y="2303.3279"
       id="text4246-7-6"><tspan
         sodipodi:role="line"
         style="font-size:45px;line-height:1"
         x="206.39417"
         y="2303.3279"
         id="tspan906-9">Okay!</tspan></text>
    <text
       xml:space="preserve"
       style="font-style:normal;font-variant:normal;font-weight:normal;font-stretch:normal;line-height:1;font-family:Lavi;-inkscape-font-specification:Lavi;text-align:center;letter-spacing:0px;word-spacing:0px;text-anchor:middle;fill:#000000;fill-opacity:1;stroke:none"
       x="315.6752"
       y="2426.3789"
       id="text4246-7-6-1"><tspan
         sodipodi:role="line"
         style="font-size:45px;line-height:1"
         x="323.58536"
         y="2426.3789"
         id="tspan1198">Oras na </tspan><tspan
         sodipodi:role="line"
         style="font-size:45px;line-height:1"
         x="323.58536"
         y="2471.3789"
         id="tspan4986">para </tspan><tspan
         sodipodi:role="line"
         style="font-size:45px;line-height:1"
         x="323.58536"
         y="2516.3789"
         id="tspan5184">tanggalin </tspan><tspan
         sodipodi:role="line"
         style="font-size:45px;line-height:1"
         x="323.58536"
         y="2561.3789"
         id="tspan4908">ang </tspan><tspan
         sodipodi:role="line"
         style="font-size:45px;line-height:1"
         x="315.6752"
         y="2606.3789"
         id="tspan5186">dimension.</tspan></text>
    <text
       xml:space="preserve"
       style="font-style:normal;font-variant:normal;font-weight:normal;font-stretch:normal;line-height:0%;font-family:Lavi;-inkscape-font-specification:Lavi;letter-spacing:0px;word-spacing:0px;fill:#ffffff;fill-opacity:1;stroke:#c83737;stroke-width:0.99236238;stroke-miterlimit:4;stroke-dasharray:none;stroke-opacity:1;filter:url(#filter4375-4-1-1-1-9-5-8)"
       x="787.65729"
       y="1584.5073"
       id="text4580-6-0"
       transform="matrix(0.84200562,-0.09503576,-0.46361166,0.85861645,1426.8384,990.64508)"><tspan
         sodipodi:role="line"
         id="tspan4582-1-1"
         x="787.65729"
         y="1584.5073"
         style="font-size:70px;line-height:1.25;fill:#ffffff;fill-opacity:1;stroke:#c83737;stroke-opacity:1"><tspan
           style="font-size:93.14950562px;fill:#ffffff;fill-opacity:1;stroke:#c83737;stroke-opacity:1"
           id="tspan4315-8">DOooong!</tspan><tspan
           style="font-size:114.73223114px;fill:#ffffff;fill-opacity:1;stroke:#c83737;stroke-opacity:1"
           id="tspan4313-2">!</tspan></tspan></text>
    <text
       xml:space="preserve"
       style="font-style:normal;font-variant:normal;font-weight:normal;font-stretch:normal;line-height:1;font-family:Lavi;-inkscape-font-specification:Lavi;text-align:center;letter-spacing:0px;word-spacing:0px;text-anchor:middle;fill:#000000;fill-opacity:1;stroke:none"
       x="1548.1832"
       y="2474.9263"
       id="text4246-7-6-1-7"><tspan
         sodipodi:role="line"
         style="font-size:45px;line-height:1"
         x="1556.0934"
         y="2474.9263"
         id="tspan1080">Anjan </tspan><tspan
         sodipodi:role="line"
         style="font-size:45px;line-height:1"
         x="1556.0934"
         y="2519.9263"
         id="tspan5190">na uli </tspan><tspan
         sodipodi:role="line"
         style="font-size:45px;line-height:1"
         x="1548.1832"
         y="2564.9263"
         id="tspan5192">siya.</tspan></text>
    <text
       xml:space="preserve"
       style="font-style:normal;font-variant:normal;font-weight:normal;font-stretch:normal;line-height:0%;font-family:Lavi;-inkscape-font-specification:Lavi;text-align:center;letter-spacing:0px;word-spacing:0px;text-anchor:middle;fill:#000000;fill-opacity:1;stroke:none"
       x="1750.8479"
       y="2570.1968"
       id="text4246-7-6-1-7-6"><tspan
         sodipodi:role="line"
         style="font-size:45px;line-height:1.25"
         x="1758.7581"
         y="2570.1968"
         id="tspan1111">Magaling </tspan><tspan
         sodipodi:role="line"
         style="font-size:45px;line-height:1.25"
         x="1750.8479"
         y="2626.4468"
         id="tspan5194">Cayenne,</tspan><tspan
         sodipodi:role="line"
         style="font-size:45px;line-height:1.25"
         x="1758.7581"
         y="2682.6968"
         id="tspan4917">Mukhang </tspan><tspan
         sodipodi:role="line"
         style="font-size:45px;line-height:1.25"
         x="1750.8479"
         y="2738.9468"
         id="tspan5196">gumagana</tspan><tspan
         sodipodi:role="line"
         style="font-size:45px;line-height:1.25"
         x="1758.7581"
         y="2795.1968"
         id="tspan5200"> ang istilo </tspan><tspan
         sodipodi:role="line"
         style="font-size:45px;line-height:1.25"
         x="1758.7581"
         y="2851.4468"
         id="tspan5210">mo ng </tspan><tspan
         sodipodi:role="line"
         style="font-size:45px;line-height:1.25"
         x="1750.8479"
         y="2907.6968"
         id="tspan5202">pagtuturo</tspan></text>
    <text
       xml:space="preserve"
       style="font-style:normal;font-variant:normal;font-weight:normal;font-stretch:normal;line-height:0%;font-family:Lavi;-inkscape-font-specification:Lavi;text-align:center;letter-spacing:0px;word-spacing:0px;text-anchor:middle;fill:#000000;fill-opacity:1;stroke:none"
       x="1537.236"
       y="3089.1091"
       id="text4246-7-6-1-7-1"><tspan
         sodipodi:role="line"
         style="font-size:45px;line-height:1.25"
         x="1545.1461"
         y="3089.1091"
         id="tspan1136">Salamat, </tspan><tspan
         sodipodi:role="line"
         style="font-size:45px;line-height:1.25"
         x="1537.236"
         y="3145.3591"
         id="tspan4926">Head-</tspan><tspan
         sodipodi:role="line"
         style="font-size:45px;line-height:1.25"
         x="1537.236"
         y="3201.6091"
         id="tspan5212">mistress</tspan><tspan
         sodipodi:role="line"
         style="font-size:45px;line-height:1.25"
         x="1537.236"
         y="3220.1426"
         id="tspan4924" /></text>
    <text
       xml:space="preserve"
       style="font-style:normal;font-variant:normal;font-weight:normal;font-stretch:normal;line-height:0%;font-family:Lavi;-inkscape-font-specification:Lavi;text-align:center;letter-spacing:0px;word-spacing:0px;text-anchor:middle;display:inline;opacity:0.35800003;fill:#000000;fill-opacity:1;stroke:none;stroke-width:1.38229895;filter:url(#filter4210)"
       x="1174.0292"
       y="1085.962"
       id="text4246-5"
       transform="matrix(0.63179135,-0.09563029,0.03930404,0.666392,431.41606,2450.8071)"><tspan
         sodipodi:role="line"
         style="font-style:normal;font-variant:normal;font-weight:normal;font-stretch:normal;font-size:45.00812149px;line-height:1.25;font-family:Fondamento;-inkscape-font-specification:Fondamento;stroke:#000000;stroke-width:4.69086981;stroke-miterlimit:4;stroke-dasharray:none;stroke-opacity:1"
         x="1174.0292"
         y="1085.962"
         id="tspan4217">The KOMONAN</tspan><tspan
         sodipodi:role="line"
         style="font-style:normal;font-variant:normal;font-weight:normal;font-stretch:normal;font-size:45.00812149px;line-height:1.25;font-family:Fondamento;-inkscape-font-specification:Fondamento;stroke:#000000;stroke-width:4.69086981;stroke-miterlimit:4;stroke-dasharray:none;stroke-opacity:1"
         x="1179.5233"
         y="1142.2222"
         id="tspan4207"> </tspan><tspan
         sodipodi:role="line"
         style="font-style:normal;font-variant:normal;font-weight:normal;font-stretch:normal;font-size:45.00812149px;line-height:1.25;font-family:Fondamento;-inkscape-font-specification:Fondamento;stroke:#000000;stroke-width:4.69086981;stroke-miterlimit:4;stroke-dasharray:none;stroke-opacity:1"
         x="1179.5233"
         y="1198.4823"
         id="tspan4209"> </tspan></text>
    <text
       xml:space="preserve"
       style="font-style:normal;font-variant:normal;font-weight:normal;font-stretch:normal;line-height:0%;font-family:Lavi;-inkscape-font-specification:Lavi;text-align:center;letter-spacing:0px;word-spacing:0px;text-anchor:middle;fill:#000000;fill-opacity:1;stroke:none"
       x="2040.4415"
       y="232.41074"
       id="text4246-75"><tspan
         sodipodi:role="line"
         style="font-size:45px;line-height:1"
         x="2048.3516"
         y="232.41074"
         id="tspan158">Unity </tspan><tspan
         sodipodi:role="line"
         style="font-size:45px;line-height:1"
         x="2048.3516"
         y="277.41074"
         id="tspan4869">Tree lang </tspan><tspan
         sodipodi:role="line"
         style="font-size:45px;line-height:1"
         x="2048.3516"
         y="322.41074"
         id="tspan4944">naman to </tspan><tspan
         sodipodi:role="line"
         style="font-size:45px;line-height:1"
         x="2040.4415"
         y="367.41074"
         id="tspan4974">eh.</tspan><tspan
         sodipodi:role="line"
         style="font-size:45px;line-height:1"
         x="2048.3516"
         y="412.41074"
         id="tspan4984"> </tspan><tspan
         sodipodi:role="line"
         style="font-size:45px;line-height:1"
         x="2048.3516"
         y="457.41074"
         id="tspan4865">Hindi </tspan><tspan
         sodipodi:role="line"
         style="font-size:45px;line-height:1"
         x="2048.3516"
         y="502.41074"
         id="tspan4946">naman to </tspan><tspan
         sodipodi:role="line"
         style="font-size:45px;line-height:1"
         x="2048.3516"
         y="547.41071"
         id="tspan4871">&quot;Spell ng </tspan><tspan
         sodipodi:role="line"
         style="font-size:45px;line-height:1"
         x="2040.4415"
         y="592.41071"
         id="tspan4948">Pagkawasak&quot;</tspan><tspan
         sodipodi:role="line"
         style="font-size:45px;line-height:1"
         x="2048.3516"
         y="637.41071"
         id="tspan4950">o kung ano </tspan><tspan
         sodipodi:role="line"
         style="font-size:45px;line-height:1"
         x="2040.4415"
         y="682.41071"
         id="tspan4964">diba?</tspan><tspan
         sodipodi:role="line"
         style="font-size:45px;line-height:1"
         x="2040.4415"
         y="695.31921"
         id="tspan4867" /></text>
    <text
       xml:space="preserve"
       style="font-style:normal;font-weight:normal;font-size:40px;line-height:1.25;font-family:sans-serif;letter-spacing:0px;word-spacing:0px;fill:#000000;fill-opacity:1;stroke:none"
       x="2051.3655"
       y="327.81949"
       id="text4978"><tspan
         sodipodi:role="line"
         id="tspan4976"
         x="2051.3655"
         y="364.31271"></tspan><tspan
         sodipodi:role="line"
         x="2051.3655"
         y="414.31271"
         id="tspan4980" /><tspan
         sodipodi:role="line"
         x="2051.3655"
         y="464.31271"
         id="tspan4982" /></text>
    <text
       id="text5030"
       y="2660.2131"
       x="220.62054"
       style="font-style:normal;font-variant:normal;font-weight:normal;font-stretch:normal;line-height:1;font-family:Lavi;-inkscape-font-specification:Lavi;text-align:center;letter-spacing:0px;word-spacing:0px;text-anchor:middle;fill:#000000;fill-opacity:1;stroke:none"
       xml:space="preserve"><tspan
         id="tspan5012"
         y="2669.7009"
         x="220.62054"
         style="font-size:45px;line-height:1"
         sodipodi:role="line" /><tspan
         id="tspan5014"
         y="2681.7009"
         x="220.62054"
         style="font-size:45px;line-height:1"
         sodipodi:role="line" /><tspan
         id="tspan5016"
         y="2719.7925"
         x="228.5307"
         style="font-size:45px;line-height:1"
         sodipodi:role="line">Makikita </tspan><tspan
         y="2764.7925"
         x="228.5307"
         style="font-size:45px;line-height:1"
         sodipodi:role="line"
         id="tspan5182">nila! </tspan><tspan
         id="tspan5028"
         y="2783.7009"
         x="220.62054"
         style="font-size:45px;line-height:1"
         sodipodi:role="line" /></text>
    <text
       xml:space="preserve"
       style="font-style:normal;font-variant:normal;font-weight:normal;font-stretch:normal;line-height:1;font-family:Lavi;-inkscape-font-specification:Lavi;text-align:center;letter-spacing:0px;word-spacing:0px;text-anchor:middle;fill:#000000;fill-opacity:1;stroke:none"
       x="330.88394"
       y="2795.1912"
       id="text5054"><tspan
         sodipodi:role="line"
         style="font-size:45px;line-height:1"
         x="338.7941"
         y="2795.1912"
         id="tspan5052">Kaya </tspan><tspan
         sodipodi:role="line"
         style="font-size:45px;line-height:1"
         x="330.88394"
         y="2840.1912"
         id="tspan5188">ding</tspan><tspan
         sodipodi:role="line"
         style="font-size:45px;line-height:1"
         x="338.7941"
         y="2885.1912"
         id="tspan5172"> maging </tspan><tspan
         sodipodi:role="line"
         style="font-size:45px;line-height:1"
         x="330.88394"
         y="2930.1912"
         id="tspan5174">creative</tspan><tspan
         sodipodi:role="line"
         style="font-size:45px;line-height:1"
         x="330.88394"
         y="2975.1912"
         id="tspan5176"> ng isang</tspan><tspan
         sodipodi:role="line"
         style="font-size:45px;line-height:1"
         x="330.88394"
         y="3020.1912"
         id="tspan5178">Chaosa</tspan><tspan
         sodipodi:role="line"
         style="font-size:45px;line-height:1"
         x="330.88394"
         y="3039.0996"
         id="tspan5180" /></text>
  </g>
</svg>
