<?xml version="1.0" encoding="UTF-8" standalone="no"?>
<svg
   id="svg2"
   version="1.1"
   inkscape:version="1.1 (c68e22c387, 2021-05-23)"
   width="2481"
   height="3503"
   sodipodi:docname="E01P02.svg"
   enable-background="new"
   xmlns:inkscape="http://www.inkscape.org/namespaces/inkscape"
   xmlns:sodipodi="http://sodipodi.sourceforge.net/DTD/sodipodi-0.dtd"
   xmlns:xlink="http://www.w3.org/1999/xlink"
   xmlns="http://www.w3.org/2000/svg"
   xmlns:svg="http://www.w3.org/2000/svg"
   xmlns:rdf="http://www.w3.org/1999/02/22-rdf-syntax-ns#"
   xmlns:cc="http://creativecommons.org/ns#"
   xmlns:dc="http://purl.org/dc/elements/1.1/">
  <sodipodi:namedview
     pagecolor="#ffffff"
     bordercolor="#666666"
     inkscape:pageopacity="0"
     inkscape:pageshadow="2"
     inkscape:window-width="1366"
     inkscape:window-height="745"
     id="namedview70"
     showgrid="false"
     inkscape:zoom="0.5656854"
     inkscape:cx="1620.1585"
     inkscape:cy="3221.7554"
     inkscape:current-layer="layer3"
     inkscape:document-rotation="0"
     inkscape:window-x="-8"
     inkscape:window-y="-8"
     inkscape:window-maximized="1"
     borderopacity="1.0"
     inkscape:pagecheckerboard="0" />
  <metadata
     id="metadata8">
    <rdf:RDF>
      <cc:Work
         rdf:about="">
        <dc:format>image/svg+xml</dc:format>
        <dc:type
           rdf:resource="http://purl.org/dc/dcmitype/StillImage" />
        <dc:title />
      </cc:Work>
    </rdf:RDF>
  </metadata>
  <defs
     id="defs6" />
  <sodipodi:namedview
     pagecolor="#ffffff"
     bordercolor="#666666"
     borderopacity="1"
     objecttolerance="10"
     gridtolerance="10"
     guidetolerance="10"
     inkscape:pageopacity="0"
     inkscape:pageshadow="2"
     inkscape:window-width="1920"
     inkscape:window-height="1025"
     id="namedview4"
     showgrid="false"
     inkscape:zoom="0.37856796"
     inkscape:cx="1249.4438"
     inkscape:cy="2325.7348"
     inkscape:window-x="0"
     inkscape:window-y="26"
     inkscape:window-maximized="1"
     inkscape:current-layer="layer3"
     inkscape:snap-global="false">
    <inkscape:grid
       type="xygrid"
       id="grid4282" />
  </sodipodi:namedview>
  <flowRoot
     xml:space="preserve"
     id="flowRoot2987"
     style="font-style:normal;font-variant:normal;font-weight:normal;font-stretch:normal;line-height:0.01%;font-family:'linja sike';-inkscape-font-specification:'linja sike';letter-spacing:0px;word-spacing:0px;fill:#000000;fill-opacity:1;stroke:none;stroke-width:1px;stroke-linecap:butt;stroke-linejoin:miter;stroke-opacity:1"
     transform="matrix(0.71,0,0,0.71,265.11702,-3656.7311)"><flowRegion
       id="flowRegion2989"><rect
         id="rect2991"
         width="1016.5607"
         height="77.684769"
         x="838.99548"
         y="443.73529"
         style="font-style:normal;font-variant:normal;font-weight:normal;font-stretch:normal;font-family:'linja sike';-inkscape-font-specification:'linja sike'" /></flowRegion><flowPara
       id="flowPara2993"
       style="font-size:12px;line-height:1.25"> </flowPara></flowRoot>
  <g
     inkscape:groupmode="layer"
     id="layer1"
     inkscape:label="artwork"
     style="display:inline"
     sodipodi:insensitive="true">
    <image
       xlink:href="../gfx_Pepper-and-Carrot_by-David-Revoy_E01P02.png"
       width="2481"
       height="3503"
       id="image3084"
       x="0"
       y="0" />
  </g>
  <g
     inkscape:groupmode="layer"
     id="layer2"
     inkscape:label="speechbubble"
     style="display:inline;opacity:0.702326">
    <path
       style="color:#000000;display:inline;overflow:visible;visibility:visible;fill:#dfffd4;fill-opacity:1;fill-rule:nonzero;stroke:none;stroke-width:1.30139px;marker:none;enable-background:accumulate"
       d="m 1742.3435,349.75688 c 7.4813,-56.11313 93.5178,-108.82531 155.2395,-103.72415 61.7217,5.10116 160.8506,49.31149 147.7582,132.63076 -13.0925,83.31939 -132.7954,68.01579 -177.6838,62.91463 -44.8886,-5.10128 -123.4436,-28.90674 -125.3139,-91.82124 z"
       id="path3113"
       inkscape:connector-curvature="0"
       sodipodi:nodetypes="csssc" />
    <path
       style="color:#000000;display:inline;overflow:visible;visibility:visible;fill:#dfffd4;fill-opacity:1;fill-rule:nonzero;stroke:none;stroke-width:1px;marker:none;enable-background:accumulate"
       d="m 1814.9715,420.82124 c -5.4814,30.1475 0.6684,46.6253 0.6684,56.2177 0,9.5924 -11.6194,43.0645 -54.5857,49.8532 -27.4068,5.4813 -48.8582,25.1813 -51.5989,34.7737 24.6661,-23.2958 41.4444,-25.3008 63.3698,-25.3008 21.9255,0 57.2202,-15.8094 58.5905,-67.8823 1.3703,-52.073 1.3703,-80.8501 1.3703,-80.8501 z"
       id="path3121"
       inkscape:connector-curvature="0"
       sodipodi:nodetypes="csccsscc" />
    <path
       style="color:#000000;display:inline;overflow:visible;visibility:visible;fill:#dfffd4;fill-opacity:1;fill-rule:nonzero;stroke:none;stroke-width:0.830737px;marker:none;enable-background:accumulate"
       d="m 1250.6927,1382.842 c 5.4377,-52.0044 77.2167,-110.3124 141.3827,-92.9776 64.1659,17.3348 118.5439,52.0045 122.8942,91.4017 4.3501,39.3973 -22.8388,130.799 -133.7699,115.04 -110.9309,-15.7588 -135.9448,-92.9775 -130.507,-113.4641 z"
       id="path3129"
       inkscape:connector-curvature="0"
       sodipodi:nodetypes="csssc" />
    <path
       style="color:#000000;display:inline;overflow:visible;visibility:visible;fill:#dfffd4;fill-opacity:1;fill-rule:nonzero;stroke:none;stroke-width:1px;marker:none;enable-background:accumulate"
       d="m 1352.4818,1447.4535 c 4.7277,66.1874 -96.1293,94.5535 -96.1293,124.4954 0,29.9419 9.4553,28.3661 9.4553,28.3661 0,0 -9.4553,-11.0313 1.5759,-29.942 11.0312,-18.9106 54.8248,-30.2397 86.6739,-61.4597 39.8201,-39.0336 53.5804,-72.491 53.5804,-72.491 z"
       id="path3137"
       inkscape:connector-curvature="0"
       sodipodi:nodetypes="cscsscc" />
  </g>
  <g
     inkscape:groupmode="layer"
     id="layer3"
     inkscape:label="txt"
     style="display:inline">
    <flowRoot
       xml:space="preserve"
       id="flowRoot3063-8-6-1"
       style="color:#000000;font-style:normal;font-variant:normal;font-weight:normal;font-stretch:normal;font-size:104.155px;line-height:0.01%;font-family:'linja sike';-inkscape-font-specification:'linja sike';letter-spacing:0px;word-spacing:0px;display:inline;overflow:visible;visibility:visible;fill:#3c4036;fill-opacity:1;fill-rule:nonzero;stroke:none;marker:none;enable-background:accumulate"
       transform="matrix(0.62578859,0,0,0.65468471,1677.2158,-9.102661)"><flowRegion
         id="flowRegion3065-8-1-1"
         style="font-style:normal;font-variant:normal;font-weight:normal;font-stretch:normal;font-size:104.155px;font-family:'linja sike';-inkscape-font-specification:'linja sike'"><rect
           id="rect3067-6-3-8"
           width="526.9325"
           height="288.6394"
           x="92.642677"
           y="425.30325"
           style="color:#000000;display:inline;overflow:visible;visibility:visible;fill:#3c4036;fill-opacity:1;fill-rule:nonzero;stroke:none;marker:none;enable-background:accumulate;-inkscape-font-specification:'linja sike';font-family:'linja sike';font-weight:normal;font-style:normal;font-stretch:normal;font-variant:normal;font-size:104.15468785px" /></flowRegion><flowPara
         style="color:#000000;font-style:normal;font-variant:normal;font-weight:normal;font-stretch:normal;font-size:104.155px;line-height:1.25;font-family:'linja sike';-inkscape-font-specification:'linja sike';text-align:center;text-anchor:middle;display:inline;overflow:visible;visibility:visible;fill:#3c4036;fill-opacity:1;fill-rule:nonzero;stroke:none;marker:none;enable-background:accumulate"
         id="flowPara3224-1">a&gt;______</flowPara><flowPara
         style="color:#000000;font-style:normal;font-variant:normal;font-weight:normal;font-stretch:normal;font-size:104.155px;line-height:1.25;font-family:'linja sike';-inkscape-font-specification:'linja sike';text-align:center;text-anchor:middle;display:inline;overflow:visible;visibility:visible;fill:#3c4036;fill-opacity:1;fill-rule:nonzero;stroke:none;marker:none;enable-background:accumulate"
         id="flowPara3264">pona a!</flowPara></flowRoot>
    <flowRoot
       xml:space="preserve"
       id="flowRoot3063-8-6-1-9"
       style="color:#000000;font-style:normal;font-variant:normal;font-weight:normal;font-stretch:normal;font-size:104.155px;line-height:0.01%;font-family:Arial;-inkscape-font-specification:Arial;letter-spacing:0px;word-spacing:0px;display:inline;overflow:visible;visibility:visible;fill:#3c4036;fill-opacity:1;fill-rule:nonzero;stroke:none;marker:none;enable-background:accumulate"
       transform="matrix(0.62578859,0,0,0.65468471,1128.7384,1023.6405)"><flowRegion
         id="flowRegion3065-8-1-1-1"
         style="font-size:104.155px"><rect
           id="rect3067-6-3-8-9"
           width="615.07123"
           height="310.30325"
           x="92.642677"
           y="425.30325"
           style="color:#000000;display:inline;overflow:visible;visibility:visible;fill:#3c4036;fill-opacity:1;fill-rule:nonzero;stroke:none;marker:none;enable-background:accumulate;font-size:104.15468785px" /></flowRegion><flowPara
         style="color:#000000;font-style:normal;font-variant:normal;font-weight:normal;font-stretch:normal;font-size:104.155px;line-height:1.25;font-family:'linja sike';-inkscape-font-specification:'linja sike';text-align:center;text-anchor:middle;display:inline;overflow:visible;visibility:visible;fill:#3c4036;fill-opacity:1;fill-rule:nonzero;stroke:none;marker:none;enable-background:accumulate"
         id="flowPara3264-9">ike a.</flowPara><flowPara
         style="color:#000000;font-style:normal;font-variant:normal;font-weight:normal;font-stretch:normal;font-size:104.155px;line-height:1.25;font-family:'linja sike';-inkscape-font-specification:'linja sike';text-align:center;text-anchor:middle;display:inline;overflow:visible;visibility:visible;fill:#3c4036;fill-opacity:1;fill-rule:nonzero;stroke:none;marker:none;enable-background:accumulate"
         id="flowPara3300">o pali ala</flowPara></flowRoot>
    <flowRoot
       xml:space="preserve"
       id="flowRoot4133-6-9-4-8"
       style="font-style:normal;font-variant:normal;font-weight:normal;font-stretch:normal;font-size:12.4214px;line-height:0.01%;font-family:Arial;-inkscape-font-specification:Arial;letter-spacing:0.00204969px;word-spacing:0px;display:inline;fill:#d9a73d;fill-opacity:1;stroke:#d9a83d;stroke-width:0.866467;stroke-opacity:1"
       transform="matrix(3.0123478,-0.56955109,0.58962563,6.0084875,-2594.568,-2925.0301)"><flowRegion
         id="flowRegion4135-2-9-3-5"
         style="font-size:12.4214px;stroke-width:0.866467"><rect
           id="rect4137-1-7-1-2"
           width="51.856533"
           height="24.039366"
           x="1125.3193"
           y="1078.5308"
           style="letter-spacing:0.00204969px;fill:#d9a73d;fill-opacity:1;stroke:#d9a83d;stroke-width:0.86646658;stroke-opacity:1;font-size:12.42142867px" /></flowRegion><flowPara
         id="flowPara4139-2-8-6-8"
         style="font-style:normal;font-variant:normal;font-weight:normal;font-stretch:normal;font-size:12.4214px;line-height:125%;font-family:'linja sike';-inkscape-font-specification:'linja sike';letter-spacing:0.00204969px;word-spacing:0.00204969px;fill:#d9a73d;fill-opacity:1;stroke:#d9a83d;stroke-width:0.926017;stroke-miterlimit:4;stroke-dasharray:none;stroke-opacity:1">    a&gt;_tawa]</flowPara></flowRoot>
  </g>
</svg>
