<?xml version="1.0" encoding="UTF-8" standalone="no"?>
<!-- Created with Inkscape (http://www.inkscape.org/) -->

<svg
   xmlns:dc="http://purl.org/dc/elements/1.1/"
   xmlns:cc="http://creativecommons.org/ns#"
   xmlns:rdf="http://www.w3.org/1999/02/22-rdf-syntax-ns#"
   xmlns:svg="http://www.w3.org/2000/svg"
   xmlns="http://www.w3.org/2000/svg"
   xmlns:xlink="http://www.w3.org/1999/xlink"
   xmlns:sodipodi="http://sodipodi.sourceforge.net/DTD/sodipodi-0.dtd"
   xmlns:inkscape="http://www.inkscape.org/namespaces/inkscape"
   id="svg2"
   version="1.1"
   inkscape:version="0.92.2 2405546, 2018-03-11"
   width="2481"
   height="3503"
   sodipodi:docname="E27P03.svg">
  <metadata
     id="metadata8">
    <rdf:RDF>
      <cc:Work
         rdf:about="">
        <dc:format>image/svg+xml</dc:format>
        <dc:type
           rdf:resource="http://purl.org/dc/dcmitype/StillImage" />
        <dc:title />
      </cc:Work>
    </rdf:RDF>
  </metadata>
  <defs
     id="defs6">
    <filter
       style="color-interpolation-filters:sRGB"
       id="filter4375-4-1-1-1-9"
       inkscape:label="deevad outline effect">
      <feFlood
         id="feFlood4377-7-9-0-8-1"
         flood-opacity="1"
         flood-color="rgb(0,0,0)"
         result="flood" />
      <feComposite
         id="feComposite4379-3-8-8-2-77"
         in2="SourceGraphic"
         in="flood"
         operator="in"
         result="composite1" />
      <feMorphology
         id="feMorphology4393-1-0-49-8-9"
         operator="dilate"
         radius="4"
         result="result3" />
      <feComposite
         id="feComposite4385-9-5-7-0-8"
         in2="result3"
         in="SourceGraphic"
         operator="over"
         result="composite2" />
    </filter>
    <filter
       style="color-interpolation-filters:sRGB"
       id="filter4375-4-1-1-1-9-5"
       inkscape:label="deevad outline effect">
      <feFlood
         id="feFlood4377-7-9-0-8-1-8"
         flood-opacity="1"
         flood-color="rgb(0,0,0)"
         result="flood" />
      <feComposite
         id="feComposite4379-3-8-8-2-77-0"
         in2="SourceGraphic"
         in="flood"
         operator="in"
         result="composite1" />
      <feMorphology
         id="feMorphology4393-1-0-49-8-9-0"
         operator="dilate"
         radius="4"
         result="result3" />
      <feComposite
         id="feComposite4385-9-5-7-0-8-0"
         in2="result3"
         in="SourceGraphic"
         operator="over"
         result="composite2" />
    </filter>
  </defs>
  <sodipodi:namedview
     pagecolor="#ffffff"
     bordercolor="#666666"
     borderopacity="1"
     objecttolerance="10"
     gridtolerance="10"
     guidetolerance="10"
     inkscape:pageopacity="0"
     inkscape:pageshadow="2"
     inkscape:window-width="1280"
     inkscape:window-height="761"
     id="namedview4"
     showgrid="false"
     inkscape:zoom="0.42773946"
     inkscape:cx="1349.7647"
     inkscape:cy="1338.3744"
     inkscape:window-x="0"
     inkscape:window-y="39"
     inkscape:window-maximized="0"
     inkscape:current-layer="layer1"
     inkscape:snap-global="false" />
  <g
     inkscape:groupmode="layer"
     id="layer2"
     inkscape:label="artwork"
     sodipodi:insensitive="true">
    <image
       sodipodi:absref="/home/xhire/projects/peppercarrot/webcomics/new-ep27_Coriander-s-Invention/lang/cs/../gfx_Pepper-and-Carrot_by-David-Revoy_E27P03.png"
       xlink:href="../gfx_Pepper-and-Carrot_by-David-Revoy_E27P03.png"
       y="0"
       x="0"
       id="image10"
       height="3503"
       width="2481" />
  </g>
  <g
     inkscape:groupmode="layer"
     id="layer3"
     inkscape:label="speechbubbles">
    <path
       style="fill:#ffffff;fill-rule:evenodd;stroke:none;stroke-width:0.97822887px;stroke-linecap:butt;stroke-linejoin:miter;stroke-opacity:1"
       d="m 1182.0547,1575.3738 c 2.5819,-55.8541 0.9676,-94.0323 21.6329,-107.5615 20.6656,-13.529 177.6763,-13.9309 190.3424,-12.9046 12.6661,1.0264 39.5262,7.3205 50.6645,4.1053 11.1382,-3.2151 43.4008,-4.2434 60.3584,-0.4937 16.9577,3.7496 90.2021,4.2495 98.9521,15.4109 8.7498,11.1616 30.6091,41.8742 30.2073,76.2082 -0.402,34.3339 -10.4452,52.3394 -21.1247,71.2705 -10.6797,18.931 -49.0545,46.1505 -71.5396,45.4371 -22.4851,-0.7134 -97.5174,2.3795 -110.1418,2.7819 -12.6245,0.4024 -91.0513,7.1922 -117.703,8.0417 -26.6515,0.8494 -67.2878,-12.5504 -94.5233,-31.7029 -27.2354,-19.1526 -37.1252,-70.5929 -37.1252,-70.5929 z"
       id="path263"
       inkscape:connector-curvature="0"
       sodipodi:nodetypes="ccccccccssccc" />
    <path
       style="fill:#ffffff;fill-rule:evenodd;stroke:none;stroke-width:1px;stroke-linecap:butt;stroke-linejoin:miter;stroke-opacity:1"
       d="m 1252.6692,1467.8179 c 0,0 -14.7372,-14.1832 -28.1318,-24.3459 -13.1591,-9.9839 -23.1743,-37.0399 -19.4243,-57.7963 -18.1089,29.447 -5.815,53.6299 11.889,81.0614 15.1315,24.8588 35.6671,1.0808 35.6671,1.0808 z"
       id="path265"
       inkscape:connector-curvature="0"
       sodipodi:nodetypes="csccc" />
    <path
       style="fill:#ffffff;fill-rule:evenodd;stroke:none;stroke-width:0.96740055px;stroke-linecap:butt;stroke-linejoin:miter;stroke-opacity:1"
       d="m 1946.4158,1849.4773 c 25.8337,-33.5165 82.7642,-51.0494 127.3861,-51.9804 44.6218,-0.931 162.0477,9.3101 200.7982,25.1374 38.7505,15.8271 74.5863,34.2911 71.0636,79.9105 -3.5228,45.6197 -14.0912,93.1011 -21.1367,109.8595 -7.0455,16.7581 -29.3564,42.8265 -51.6673,57.7226 -22.311,14.8962 -98.6377,18.6203 -125.6456,18.6203 -27.008,0 -120.9487,-11.1722 -140.9111,-25.1374 -19.9623,-13.9651 -61.0614,-37.2404 -68.1069,-79.1359 -7.0456,-41.8955 -3.5229,-109.8593 8.2197,-134.9966 z"
       id="path267"
       inkscape:connector-curvature="0"
       sodipodi:nodetypes="csccccscsc" />
    <path
       style="fill:#ffffff;fill-rule:evenodd;stroke:none;stroke-width:1px;stroke-linecap:butt;stroke-linejoin:miter;stroke-opacity:1"
       d="m 1825.1743,1897.7489 c 53.571,-19.7367 111.3904,-9.3727 131.1271,16.0031 19.7367,25.3757 16.4282,45.0866 16.4282,45.0866 l -21.6164,9.3985 c 0,14.3171 5.8835,-17.1392 -7.2743,-30.7446 -12.9359,-13.376 -35.6882,-34.1046 -57.3046,-37.8639 -21.6164,-3.7594 -50.0819,-2.8196 -61.36,-1.8797 z"
       id="path269"
       inkscape:connector-curvature="0"
       sodipodi:nodetypes="ccccscc" />
    <path
       style="fill:#ffffff;fill-rule:evenodd;stroke:none;stroke-width:1.04743946px;stroke-linecap:butt;stroke-linejoin:miter;stroke-opacity:1"
       d="m 254.12615,2431.1147 c 23.71597,-20.0819 78.2627,-25.9883 101.97867,-33.076 23.71597,-7.0877 55.73252,-1.1813 71.1479,-2.3626 15.41538,-1.1813 58.10412,-7.0877 69.9621,-5.9064 11.85798,1.1813 87.74909,7.0877 103.16446,8.269 15.41538,1.1812 81.82009,7.0877 88.93489,29.5322 7.11479,22.4443 28.45916,66.1519 17.78697,87.4151 -10.67218,21.2631 -23.71597,57.883 -54.54672,70.8772 -30.83077,12.9941 -78.2627,34.2573 -133.99522,36.6199 -55.73253,2.3625 -132.80943,-7.0878 -144.66741,-7.0878 -11.85799,0 -74.7053,1.1813 -99.60707,-28.3509 -24.90176,-29.532 -42.68874,-62.6081 -39.13135,-92.1402 3.5574,-29.5322 18.97278,-63.7895 18.97278,-63.7895 z"
       id="path271"
       inkscape:connector-curvature="0" />
    <path
       style="fill:#ffffff;fill-rule:evenodd;stroke:none;stroke-width:1px;stroke-linecap:butt;stroke-linejoin:miter;stroke-opacity:1"
       d="m 519.64933,2604.2367 c 0,0 -6.17962,40.1675 -4.9437,48.819 1.23593,8.6515 12.35924,48.201 19.77478,58.0884 -19.15682,-22.2466 -31.51605,-51.2908 -33.9879,-61.1782 -2.47184,-9.8874 -1.23592,-50.0549 -1.23592,-50.0549 z"
       id="path273"
       inkscape:connector-curvature="0" />
    <path
       style="fill:#ffffff;fill-rule:evenodd;stroke:none;stroke-width:0.99999994px;stroke-linecap:butt;stroke-linejoin:miter;stroke-opacity:1"
       d="m 1327.3521,2751.2587 c 32.6788,-36.3054 55.3539,-80.3905 55.3539,-94.0051 8.6697,12.9662 8.0028,10.373 8.0028,10.373 0,0 14.6721,-38.8987 14.0051,-62.8862 -0.6667,-23.9875 26.6766,-24.6358 30.0111,-19.4493 3.3345,5.1864 9.47,23.9875 9.47,23.9875 l -4.1347,13.6145 -4.0015,-3.2415 c 0,0 -15.3389,40.1952 -17.3397,44.7334 -2.0008,4.5382 -10.6705,23.9876 -10.6705,23.9876 l -2.6677,-11.6696 -14.6721,10.373 0.6669,16.2077 -8.003,-7.1314 c 0,0 -0.6667,9.7247 -4.0014,14.9112 -3.3346,5.1864 -24.0089,27.8774 -26.6765,31.1189 -2.6676,3.2415 -25.3427,9.0763 -25.3427,9.0763 z"
       id="path279"
       inkscape:connector-curvature="0" />
    <path
       style="fill:#ffffff;fill-rule:evenodd;stroke:none;stroke-width:0.99999994px;stroke-linecap:butt;stroke-linejoin:miter;stroke-opacity:1"
       d="m 1910.7122,2817.9761 c -13.1433,-30.6118 9.2927,-109.1953 20.1114,-126.6745 0,-10.6243 -4.641,-22.8831 -4.641,-22.8831 0,0 -11.6028,4.9035 -14.6968,10.6243 -3.0941,5.7208 13.1497,-34.3247 22.4319,-40.8627 9.2823,-6.538 -6.9616,-37.5937 -6.9616,-37.5937 0,0 -31.7143,26.1521 -33.2613,37.5937 -1.547,11.4416 -10.0557,70.2839 -6.1881,80.9082 3.8676,10.6243 6.1881,4.9035 9.2821,0.8172 3.0942,-4.0862 11.6029,-12.2588 16.244,-15.5278 -7.7353,19.6141 -20.1115,84.1772 -2.3206,113.5984 z"
       id="path285"
       inkscape:connector-curvature="0"
       sodipodi:nodetypes="ccccccssccc" />
    <path
       style="fill:#ffffff;fill-rule:evenodd;stroke:none;stroke-width:1.10747373px;stroke-linecap:butt;stroke-linejoin:miter;stroke-opacity:1"
       d="m 811.88905,2399.4407 c 45.32416,-5.6852 34.86473,7.8173 74.08755,7.1066 39.22283,-0.7106 119.4117,-7.8172 138.5874,-14.2131 10.4593,-3.5533 11.331,2.132 11.331,2.132 0,0 32.2498,1.4213 38.3511,2.8426 6.1012,1.4213 29.635,10.6598 38.3511,8.5279 8.7163,-2.132 23.5337,-5.6853 23.5337,-5.6853 0,0 -0.8715,47.614 -1.7432,51.1672 -0.8716,3.5533 -6.9729,30.5582 -6.9729,39.7968 0,9.2385 5.2297,23.4516 4.358,27.7156 -0.8715,4.2639 11.3311,14.9237 11.3311,14.9237 l -33.1216,0.7107 -22.662,2.132 -9.5877,-2.132 -40.9661,2.8426 -23.5336,0.7107 1.7432,-4.264 -101.10771,4.264 4.35809,-6.3959 -34.86473,1.4213 -13.07427,6.3959 -4.35809,-5.6853 -29.63503,0.7107 -15.68913,6.3959 8.71618,-13.5025 -13.07427,-7.8172 -2.61484,-104.4664 7.84455,-4.264 z"
       id="path275"
       inkscape:connector-curvature="0" />
    <path
       style="fill:#ffffff;fill-rule:evenodd;stroke:none;stroke-width:1px;stroke-linecap:butt;stroke-linejoin:miter;stroke-opacity:1"
       d="m 1106.3564,2437.2375 c 32.7805,-4.9746 54.6342,9.2385 62.6473,7.8172 8.0131,-1.4213 34.2376,-10.6598 42.979,-9.9492 8.7415,0.7107 64.1044,8.5279 80.8588,5.6853 16.7545,-2.8427 53.9059,0 59.7336,-0.7107 5.8275,-0.7106 29.1382,-14.2131 35.6944,-14.2131 6.5561,0 17.4829,6.3959 41.5221,-9.2385 -10.1985,18.477 -16.0261,31.2688 -16.0261,31.2688 0,0 25.496,-7.1065 35.6943,-7.1065 10.1985,0 18.2116,3.5532 23.3107,1.4213 5.0992,-2.132 32.7806,-2.8426 37.1514,-2.8426 4.3708,0 15.2975,-3.5533 20.3968,-3.5533 5.0992,0 51.7205,4.2639 58.2766,4.2639 6.5561,0 67.7465,-7.1066 74.3026,-7.1066 6.5561,0 36.4229,2.132 48.8068,-2.8426 1.4568,14.2131 -2.9139,48.3246 -2.9139,56.1418 0,7.8173 0.7284,17.7664 0.7284,24.1624 -10.9268,7.1065 -18.94,21.3196 -18.94,21.3196 0,0 18.2116,3.5533 23.3107,0.7107 5.0992,-2.8426 2.1854,52.5885 2.9139,63.2484 0.7285,10.6598 -8.7415,0.7106 -8.7415,0.7106 0,0 -1.4569,7.8172 -7.2846,9.2386 -5.8276,1.4213 -108.5401,-0.7107 -120.1954,-0.7107 -11.6554,0 -15.2977,3.5533 -15.2977,3.5533 h -50.2636 l -1.4569,-6.3959 -22.5821,4.2639 -30.5953,4.9746 -18.2114,3.5533 -10.1983,-2.8426 -50.2637,0.7106 -43.7074,1.4213 10.9268,-10.6598 -113.6393,7.8172 -52.449,1.4213 -48.0782,6.3959 -9.4699,-22.741 -5.0993,-49.0352 c 0,0 -2.9138,-13.5026 5.0993,-15.6345 8.013,-2.1319 -5.8277,-4.2639 -7.2846,-17.0557 -1.457,-12.7918 -5.8276,-45.482 -5.8276,-45.482 l 9.4699,-2.8426 -11.6553,-7.1066 z"
       id="path277"
       inkscape:connector-curvature="0" />
    <path
       style="fill:#ffffff;fill-rule:evenodd;stroke:none;stroke-width:1.05119979px;stroke-linecap:butt;stroke-linejoin:miter;stroke-opacity:1"
       d="m 1840.451,2412.5678 8.0002,7.358 40.6428,-4.3215 8.1277,-8.3665 c 0,0 18.0618,8.3665 23.4802,5.5777 5.4186,-2.7889 27.0925,-4.6481 27.0925,-4.6481 l 8.1278,7.4369 19.8678,-2.7888 c 0,0 46.0573,7.4369 56.8942,6.5072 10.8371,-0.9295 29.8018,-10.2256 29.8018,-10.2256 0,0 37.0264,10.2256 42.445,8.3664 5.4184,-1.8592 15.3523,-2.7887 15.3523,-2.7887 l 11.7401,20.4515 c 0,0 23.4802,-19.522 23.4802,-28.8181 15.3524,-0.9297 36.1233,0 39.7357,-1.8593 3.6123,-1.8592 5.4185,11.1554 5.4185,11.1554 l 10.8369,6.5073 c 0,0 27.0925,-20.4515 29.8018,-24.1699 2.7093,-3.7185 20.771,-2.789 20.771,-2.789 0,0 25.2862,0.9297 28.8986,0 3.6123,-0.9295 18.9647,0.9297 32.511,1.8592 13.5462,0.9298 27.0925,0.9298 37.0264,-2.7887 2.7093,15.8034 0,72.51 -0.9032,79.0173 -9.9339,15.8034 -19.8678,45.5512 -27.9954,51.1289 21.674,-11.1555 21.674,-14.8739 29.8016,-22.3108 -0.903,23.2405 -8.1276,72.51 -9.0308,78.0878 14.4494,-12.085 12.6433,-9.2962 10.8371,-4.6481 -1.8063,4.6481 -7.2248,18.5923 -9.0309,29.7476 -1.8062,11.1554 0,25.0997 -1.8062,32.5366 -1.8061,7.437 -3.6123,17.6628 -3.6123,17.6628 0,0 -36.1233,11.1553 -42.445,13.0146 -6.3216,1.8592 -62.3126,1.8592 -76.762,1.8592 -14.4493,0 -36.1233,2.7888 -46.0572,1.8592 5.4185,-10.2257 9.0308,-17.6627 9.0308,-17.6627 0,0 -45.1542,4.6481 -55.9912,6.5074 -10.837,1.8592 -55.9912,-8.3666 -65.9251,-7.4369 -9.9339,0.9295 -65.0219,2.7887 -79.4713,3.7184 -14.4492,0.9295 -50.5726,2.7888 -64.1189,5.5777 -13.5462,2.7888 -54.185,4.648 -63.2158,4.648 -9.0308,0 -26.1895,0.9297 -26.1895,0.9297 0,0 -1.806,-33.4661 -1.806,-45.5512 0,-12.085 -4.5155,-71.5804 -0.9032,-78.0877 3.6123,-6.5074 6.3216,-52.0586 6.3216,-56.7066 0,-4.6481 -8.5207,-40.4078 -8.5207,-40.4078 z"
       id="path283"
       inkscape:connector-curvature="0"
       sodipodi:nodetypes="ccccscccccsccccccccccccccccccccscccccsscssscc" />
  </g>
  <g
     inkscape:groupmode="layer"
     id="layer1"
     inkscape:label="txt">
    <text
       xml:space="preserve"
       style="font-style:normal;font-variant:normal;font-weight:normal;font-stretch:normal;line-height:0%;font-family:Lavi;-inkscape-font-specification:Lavi;text-align:center;letter-spacing:0px;word-spacing:0px;text-anchor:middle;fill:#000000;fill-opacity:1;stroke:none"
       x="1407.3555"
       y="1522.687"
       id="text4246"><tspan
         sodipodi:role="line"
         style="font-size:45px;line-height:1.20000005"
         x="1407.3555"
         y="1522.687"
         id="tspan18">Brzy pochopíte,</tspan><tspan
         sodipodi:role="line"
         style="font-size:45px;line-height:1.20000005"
         x="1407.3555"
         y="1576.687"
         id="tspan3418">proč jsem si ho</tspan><tspan
         sodipodi:role="line"
         style="font-size:45px;line-height:1.20000005"
         x="1407.3555"
         y="1630.687"
         id="tspan794">chtěla postavit.</tspan></text>
    <text
       xml:space="preserve"
       style="font-style:normal;font-variant:normal;font-weight:normal;font-stretch:normal;line-height:0%;font-family:Lavi;-inkscape-font-specification:Lavi;text-align:center;letter-spacing:0px;word-spacing:0px;text-anchor:middle;fill:#000000;fill-opacity:1;stroke:none"
       x="2135.2803"
       y="1878.3798"
       id="text4246-3"><tspan
         sodipodi:role="line"
         style="font-size:45px;line-height:1.20000005"
         x="2135.2803"
         y="1878.3798"
         id="tspan20-5">Šlo hlavně</tspan><tspan
         sodipodi:role="line"
         style="font-size:45px;line-height:1.20000005"
         x="2135.2803"
         y="1932.3798"
         id="tspan3426">o všechny ty moje</tspan><tspan
         sodipodi:role="line"
         style="font-size:45px;line-height:1.20000005"
         x="2135.2803"
         y="1986.3798"
         id="tspan66">starosti kolem</tspan><tspan
         sodipodi:role="line"
         style="font-size:45px;line-height:1.20000005"
         x="2135.2803"
         y="2040.3798"
         id="tspan3438">korunovace.</tspan></text>
    <text
       xml:space="preserve"
       style="font-style:normal;font-variant:normal;font-weight:normal;font-stretch:normal;line-height:0%;font-family:Lavi;-inkscape-font-specification:Lavi;text-align:center;letter-spacing:0px;word-spacing:0px;text-anchor:middle;fill:#000000;fill-opacity:1;stroke:none"
       x="470.53574"
       y="2466.1379"
       id="text4246-3-3"><tspan
         sodipodi:role="line"
         style="font-size:45px;line-height:1.20000005"
         x="470.53574"
         y="2466.1379"
         id="tspan65-1">Dovolte mi vám</tspan><tspan
         sodipodi:role="line"
         style="font-size:45px;line-height:1.20000005"
         x="470.53574"
         y="2520.1379"
         id="tspan3392">představit svůj</tspan><tspan
         sodipodi:role="line"
         style="font-size:45px;line-height:1.20000005"
         x="470.53574"
         y="2574.1379"
         id="tspan113">nový vynález…</tspan></text>
    <text
       xml:space="preserve"
       style="font-style:normal;font-variant:normal;font-weight:normal;font-stretch:normal;line-height:0%;font-family:Lavi;-inkscape-font-specification:Lavi;text-align:center;letter-spacing:0px;word-spacing:0px;text-anchor:middle;fill:#000000;fill-opacity:1;stroke:none"
       x="984.21759"
       y="2464.406"
       id="text4246-3-3-2"><tspan
         sodipodi:role="line"
         style="font-style:normal;font-variant:normal;font-weight:normal;font-stretch:normal;font-size:32px;line-height:1.39999998;font-family:'Press Start 2P';-inkscape-font-specification:'Press Start 2P'"
         x="984.21759"
         y="2464.406"
         id="tspan113-9">Ahoj</tspan><tspan
         sodipodi:role="line"
         style="font-style:normal;font-variant:normal;font-weight:normal;font-stretch:normal;font-size:32px;line-height:1.39999998;font-family:'Press Start 2P';-inkscape-font-specification:'Press Start 2P'"
         x="984.21759"
         y="2509.2061"
         id="tspan144">světe.</tspan></text>
    <text
       xml:space="preserve"
       style="font-style:normal;font-variant:normal;font-weight:normal;font-stretch:normal;line-height:0%;font-family:Lavi;-inkscape-font-specification:Lavi;text-align:center;letter-spacing:0px;word-spacing:0px;text-anchor:middle;fill:#000000;fill-opacity:1;stroke:none"
       x="1421.948"
       y="2493.7439"
       id="text4246-3-3-2-2"><tspan
         sodipodi:role="line"
         style="font-style:normal;font-variant:normal;font-weight:normal;font-stretch:normal;font-size:32px;line-height:1.39999998;font-family:'Press Start 2P';-inkscape-font-specification:'Press Start 2P'"
         x="1437.948"
         y="2493.7439"
         id="tspan171">Jsem </tspan><tspan
         sodipodi:role="line"
         style="font-style:normal;font-variant:normal;font-weight:normal;font-stretch:normal;font-size:32px;line-height:1.39999998;font-family:'Press Start 2P';-inkscape-font-specification:'Press Start 2P'"
         x="1421.948"
         y="2538.5439"
         id="tspan3406">ROBOT PSYCHOLOG,</tspan><tspan
         sodipodi:role="line"
         style="font-style:normal;font-variant:normal;font-weight:normal;font-stretch:normal;font-size:32px;line-height:1.39999998;font-family:'Press Start 2P';-inkscape-font-specification:'Press Start 2P'"
         x="1421.948"
         y="2583.344"
         id="tspan3404">píp, píííp!</tspan></text>
    <text
       xml:space="preserve"
       style="font-style:normal;font-variant:normal;font-weight:normal;font-stretch:normal;line-height:0%;font-family:Lavi;-inkscape-font-specification:Lavi;text-align:center;letter-spacing:0px;word-spacing:0px;text-anchor:middle;fill:#000000;fill-opacity:1;stroke:none"
       x="2098.2356"
       y="2489.2405"
       id="text4246-3-3-2-2-7"><tspan
         sodipodi:role="line"
         style="font-style:normal;font-variant:normal;font-weight:normal;font-stretch:normal;font-size:32px;line-height:1.29999995;font-family:'Press Start 2P';-inkscape-font-specification:'Press Start 2P'"
         x="2098.2356"
         y="2489.2405"
         id="tspan208">Pro bezplatnou</tspan><tspan
         sodipodi:role="line"
         style="font-style:normal;font-variant:normal;font-weight:normal;font-stretch:normal;font-size:32px;line-height:1.29999995;font-family:'Press Start 2P';-inkscape-font-specification:'Press Start 2P'"
         x="2098.2356"
         y="2530.8406"
         id="tspan5001">prohlídku si</tspan><tspan
         sodipodi:role="line"
         style="font-style:normal;font-variant:normal;font-weight:normal;font-stretch:normal;font-size:32px;line-height:1.29999995;font-family:'Press Start 2P';-inkscape-font-specification:'Press Start 2P'"
         x="2098.2356"
         y="2572.4404"
         id="tspan5007">prosím lehněte</tspan><tspan
         sodipodi:role="line"
         style="font-style:normal;font-variant:normal;font-weight:normal;font-stretch:normal;font-size:32px;line-height:1.29999995;font-family:'Press Start 2P';-inkscape-font-specification:'Press Start 2P'"
         x="2098.2356"
         y="2614.0405"
         id="tspan5011">na můj gauč.</tspan></text>
    <text
       xml:space="preserve"
       style="font-style:normal;font-variant:normal;font-weight:normal;font-stretch:normal;line-height:0%;font-family:Lavi;-inkscape-font-specification:Lavi;letter-spacing:0px;word-spacing:0px;fill:#000000;fill-opacity:1;stroke:#000000;stroke-width:2.15795588;stroke-miterlimit:4;stroke-dasharray:none;stroke-opacity:1;filter:url(#filter4375-4-1-1-1-9)"
       x="787.65729"
       y="1584.5073"
       id="text4580"
       transform="matrix(0.46879428,-0.12606586,-0.08654633,0.61214652,623.13411,2085.4411)"><tspan
         sodipodi:role="line"
         id="tspan4582"
         x="787.65729"
         y="1584.5073"
         style="font-style:normal;font-variant:normal;font-weight:bold;font-stretch:normal;font-size:80.40014648px;line-height:1.25;font-family:Lavi;-inkscape-font-specification:'Lavi Bold';fill:#ffffff;stroke-width:2.15795588">Klik!</tspan></text>
    <text
       xml:space="preserve"
       style="font-style:normal;font-variant:normal;font-weight:normal;font-stretch:normal;line-height:0%;font-family:Lavi;-inkscape-font-specification:Lavi;letter-spacing:0px;word-spacing:0px;fill:#000000;fill-opacity:1;stroke:#000000;stroke-width:2.15795588;stroke-miterlimit:4;stroke-dasharray:none;stroke-opacity:1;filter:url(#filter4375-4-1-1-1-9-5)"
       x="787.65729"
       y="1584.5073"
       id="text4580-4"
       transform="matrix(0.46879428,-0.12606586,-0.08654633,0.61214652,2019.5227,1975.6976)"><tspan
         sodipodi:role="line"
         id="tspan4582-7"
         x="787.65729"
         y="1584.5073"
         style="font-style:normal;font-variant:normal;font-weight:bold;font-stretch:normal;font-size:80.40014648px;line-height:1.25;font-family:Lavi;-inkscape-font-specification:'Lavi Bold';fill:#ffffff;stroke-width:2.15795588">Klep!</tspan></text>
  </g>
</svg>
