<?xml version="1.0" encoding="UTF-8" standalone="no"?>
<!-- Created with Inkscape (http://www.inkscape.org/) -->

<svg
   xmlns:dc="http://purl.org/dc/elements/1.1/"
   xmlns:cc="http://creativecommons.org/ns#"
   xmlns:rdf="http://www.w3.org/1999/02/22-rdf-syntax-ns#"
   xmlns:svg="http://www.w3.org/2000/svg"
   xmlns="http://www.w3.org/2000/svg"
   xmlns:xlink="http://www.w3.org/1999/xlink"
   xmlns:sodipodi="http://sodipodi.sourceforge.net/DTD/sodipodi-0.dtd"
   xmlns:inkscape="http://www.inkscape.org/namespaces/inkscape"
   id="svg2"
   version="1.1"
   inkscape:version="0.92.1 r15371"
   width="2646.3999"
   height="4803.2002"
   sodipodi:docname="Pepper-and-Carrot_by-David-Revoy_E13P07.svg">
  <metadata
     id="metadata8">
    <rdf:RDF>
      <cc:Work
         rdf:about="">
        <dc:format>image/svg+xml</dc:format>
        <dc:type
           rdf:resource="http://purl.org/dc/dcmitype/StillImage" />
        <dc:title />
      </cc:Work>
    </rdf:RDF>
  </metadata>
  <defs
     id="defs6" />
  <sodipodi:namedview
     pagecolor="#ffffff"
     bordercolor="#666666"
     borderopacity="1"
     objecttolerance="10"
     gridtolerance="10"
     guidetolerance="10"
     inkscape:pageopacity="0"
     inkscape:pageshadow="2"
     inkscape:window-width="1305"
     inkscape:window-height="744"
     id="namedview4"
     showgrid="false"
     inkscape:zoom="0.29755788"
     inkscape:cx="1001.799"
     inkscape:cy="825.7806"
     inkscape:window-x="61"
     inkscape:window-y="24"
     inkscape:window-maximized="1"
     inkscape:current-layer="layer2"
     inkscape:object-nodes="true"
     showguides="true"
     inkscape:guide-bbox="true">
    <sodipodi:guide
       position="3897.1056,4709.6935"
       orientation="0,1"
       id="guide4214"
       inkscape:locked="false" />
  </sodipodi:namedview>
  <g
     inkscape:groupmode="layer"
     id="layer1"
     inkscape:label="artwork"
     style="display:inline"
     transform="translate(0,1092.2667)"
     sodipodi:insensitive="true">
    <image
       sodipodi:absref="/home/emmiline/Documents/git/peppercarrot/peppercarrot_ep13_translation/da/../gfx_Pepper-and-Carrot_by-David-Revoy_E13P07.png"
       xlink:href="../gfx_Pepper-and-Carrot_by-David-Revoy_E13P07.png"
       width="2646.8735"
       height="4804.8418"
       preserveAspectRatio="none"
       style="image-rendering:optimizeQuality"
       id="image4223"
       x="0.58355081"
       y="-1091.6022" />
  </g>
  <g
     inkscape:groupmode="layer"
     id="layer3"
     inkscape:label="speechbubbles"
     style="display:inline"
     transform="translate(0,1092.2667)">
    <path
       style="fill:#ffffff;stroke:none;stroke-width:1.06666672"
       d="m -2156.6811,689.27911 c 1.1337,-54.41685 28.3421,-109.96738 181.3895,-120.17053 153.0473,-10.20316 216.5337,52.14948 221.0685,96.36316 4.5347,44.21369 -88.4275,103.16527 -173.4538,104.29896 -85.0262,1.13367 -229.0042,-12.47053 -229.0042,-80.49159 z"
       id="path4279"
       inkscape:connector-curvature="0" />
    <path
       style="fill:#ffffff;stroke:none;stroke-width:1.06666672"
       d="m -1907.2705,957.96228 c 74.8231,-47.61474 94.0958,-132.64105 48.7484,-202.92948 -45.3474,-70.28843 -88.4274,-57.8179 -88.4274,-57.8179 l 37.4116,44.21369 c 0,0 104.299,104.29895 2.2674,216.53369 z"
       id="path4281"
       inkscape:connector-curvature="0"
       sodipodi:nodetypes="csccc" />
  </g>
  <g
     inkscape:groupmode="layer"
     id="layer2"
     inkscape:label="text"
     style="display:inline;opacity:0.85500004"
     transform="translate(0,1092.2667)">
    <text
       xml:space="preserve"
       style="font-style:normal;font-variant:normal;font-weight:normal;font-stretch:normal;font-size:12.80000019px;line-height:0%;font-family:Arial;-inkscape-font-specification:Arial;text-align:center;letter-spacing:0px;word-spacing:0px;text-anchor:middle;display:inline;fill:#a72f14;fill-opacity:1;stroke:none;stroke-width:1.06666672"
       x="1516.6207"
       y="3180.606"
       id="text4225"><tspan
         sodipodi:role="line"
         id="tspan4227"
         x="1516.6207"
         y="3180.606"
         style="font-style:normal;font-variant:normal;font-weight:normal;font-stretch:normal;font-size:64px;line-height:1.25;font-family:Lavi;-inkscape-font-specification:Lavi;stroke-width:1.06666672">https://www.patreon.com/davidrevoy</tspan></text>
    <flowRoot
       xml:space="preserve"
       id="flowRoot3027-6"
       style="font-style:normal;font-variant:normal;font-weight:normal;font-stretch:normal;line-height:0.01%;font-family:Arial;-inkscape-font-specification:Arial;text-align:center;letter-spacing:0px;word-spacing:0px;text-anchor:middle;display:inline;opacity:0.85500004;fill:#000000;fill-opacity:1;stroke:none"
       transform="matrix(1.1943374,0,0,1.2444729,-316.8445,-1249.8047)"><flowRegion
         id="flowRegion3029-6"><rect
           id="rect3031-3"
           width="2475.8752"
           height="241.27675"
           x="135.21135"
           y="219.33444"
           style="text-align:center;text-anchor:middle" /></flowRegion><flowPara
         id="flowPara3033-2"
         style="font-size:12px;line-height:1.25"> </flowPara><flowPara
         style="font-style:normal;font-variant:normal;font-weight:normal;font-stretch:normal;font-size:48px;line-height:1.25;font-family:Lavi;-inkscape-font-specification:Lavi;text-align:center;text-anchor:middle"
         id="flowPara4192">Pepper&amp;Carrot er helt gratis, open-source,</flowPara><flowPara
         style="font-style:normal;font-variant:normal;font-weight:normal;font-stretch:normal;font-size:48px;line-height:1.25;font-family:Lavi;-inkscape-font-specification:Lavi;text-align:center;text-anchor:middle"
         id="flowPara39">og sponsoreret af læsere. Denne episode kunne ikke</flowPara><flowPara
         style="font-style:normal;font-variant:normal;font-weight:normal;font-stretch:normal;font-size:48px;line-height:1.25;font-family:Lavi;-inkscape-font-specification:Lavi;text-align:center;text-anchor:middle"
         id="flowPara41">være blevet til uden støtte fra de 602 tilhængere:</flowPara></flowRoot>    <flowRoot
       xml:space="preserve"
       id="flowRoot3027-8-8-2"
       style="font-style:normal;font-variant:normal;font-weight:normal;font-stretch:normal;line-height:0.01%;font-family:Arial;-inkscape-font-specification:Arial;text-align:center;letter-spacing:0px;word-spacing:0px;text-anchor:middle;display:inline;opacity:0.85500004;fill:#000000;fill-opacity:1;stroke:none"
       transform="matrix(1.0757475,0,0,1.1099734,218.8898,2799.8457)"><flowRegion
         id="flowRegion3029-9-3-5"><rect
           id="rect3031-9-1-6"
           width="2230.314"
           height="376.21677"
           x="135.21135"
           y="219.33444"
           style="text-align:center;text-anchor:middle" /></flowRegion><flowPara
         style="font-style:normal;font-variant:normal;font-weight:normal;font-stretch:normal;font-size:48px;line-height:1.25;font-family:Lavi;-inkscape-font-specification:Lavi;text-align:center;text-anchor:middle"
         id="flowPara3055">Støt næste episode af Pepper&amp;Carrot; hver en krone gør en forskel</flowPara></flowRoot>    <flowRoot
       xml:space="preserve"
       id="flowRoot3027-8-8-2-8-6-3"
       style="font-style:normal;font-variant:normal;font-weight:normal;font-stretch:normal;line-height:0.01%;font-family:Arial;-inkscape-font-specification:Arial;text-align:center;letter-spacing:0px;word-spacing:0px;text-anchor:middle;display:inline;opacity:0.85500004;fill:#000000;fill-opacity:1;stroke:none"
       transform="matrix(0.84096166,0,0,0.88909938,234.83919,3129.3427)"><flowRegion
         id="flowRegion3029-9-3-5-1-2-8"><rect
           id="rect3031-9-1-6-8-7-4"
           width="2230.314"
           height="376.21677"
           x="135.21135"
           y="219.33444"
           style="text-align:center;text-anchor:middle" /></flowRegion><flowPara
         id="flowPara3033-3-0-2-4-3-2"
         style="font-size:12px;line-height:1.25"> </flowPara><flowPara
         style="font-style:normal;font-variant:normal;font-weight:normal;font-stretch:normal;font-size:48px;line-height:1.25;font-family:Lavi;-inkscape-font-specification:Lavi;text-align:center;text-anchor:middle"
         id="flowPara4904">Licens: Creative Commons Kreditering 4.0</flowPara><flowPara
         style="font-style:normal;font-variant:normal;font-weight:normal;font-stretch:normal;font-size:48px;line-height:1.25;font-family:Lavi;-inkscape-font-specification:Lavi;text-align:center;text-anchor:middle"
         id="flowPara4207">Kildematerialet: tilgængelige på www.peppercarrot.com</flowPara><flowPara
         style="font-style:normal;font-variant:normal;font-weight:normal;font-stretch:normal;font-size:48px;line-height:1.25;font-family:Lavi;-inkscape-font-specification:Lavi;text-align:center;text-anchor:middle"
         id="flowPara4209">Værktøj: denne episode er 100% designet med fri software:</flowPara><flowPara
         style="font-style:normal;font-variant:normal;font-weight:normal;font-stretch:normal;font-size:48px;line-height:1.25;font-family:Lavi;-inkscape-font-specification:Lavi;text-align:center;text-anchor:middle"
         id="flowPara4908">Krita 2.9.9, Inkscape 0.91 på Linux Mint 17 </flowPara></flowRoot>  </g>
</svg>
