<?xml version="1.0" encoding="UTF-8" standalone="no"?>
<svg
   xmlns:dc="http://purl.org/dc/elements/1.1/"
   xmlns:cc="http://creativecommons.org/ns#"
   xmlns:rdf="http://www.w3.org/1999/02/22-rdf-syntax-ns#"
   xmlns:svg="http://www.w3.org/2000/svg"
   xmlns="http://www.w3.org/2000/svg"
   xmlns:xlink="http://www.w3.org/1999/xlink"
   xmlns:sodipodi="http://sodipodi.sourceforge.net/DTD/sodipodi-0.dtd"
   xmlns:inkscape="http://www.inkscape.org/namespaces/inkscape"
   id="svg2"
   version="1.1"
   inkscape:version="1.0.2-2 (e86c870879, 2021-01-15)"
   width="2481"
   height="3503"
   sodipodi:docname="E26P01.svg">
  <metadata
     id="metadata8">
    <rdf:RDF>
      <cc:Work
         rdf:about="">
        <dc:format>image/svg+xml</dc:format>
        <dc:type
           rdf:resource="http://purl.org/dc/dcmitype/StillImage" />
        <dc:title />
      </cc:Work>
    </rdf:RDF>
  </metadata>
  <defs
     id="defs6" />
  <sodipodi:namedview
     pagecolor="#ffffff"
     bordercolor="#666666"
     borderopacity="1"
     objecttolerance="10"
     gridtolerance="10"
     guidetolerance="10"
     inkscape:pageopacity="0"
     inkscape:pageshadow="2"
     inkscape:window-width="1350"
     inkscape:window-height="729"
     id="namedview4"
     showgrid="false"
     inkscape:zoom="0.48912286"
     inkscape:cx="1588.1757"
     inkscape:cy="2848.2042"
     inkscape:window-x="0"
     inkscape:window-y="0"
     inkscape:window-maximized="0"
     inkscape:current-layer="layer1"
     inkscape:snap-global="false"
     inkscape:document-rotation="0" />
  <g
     inkscape:groupmode="layer"
     id="layer2"
     inkscape:label="artwork"
     sodipodi:insensitive="true">
    <image
       sodipodi:absref="C:\Users\quentinlipeck\Downloads\webcomics-master-ec7d62e6553c2c63bb1cf2e799ee31f9cb9ce5e2\webcomics-master-ec7d62e6553c2c63bb1cf2e799ee31f9cb9ce5e2\ep26_Books-Are-Great\lang\gfx_Pepper-and-Carrot_by-David-Revoy_E26P01.png"
       xlink:href="../gfx_Pepper-and-Carrot_by-David-Revoy_E26P01.png"
       y="0"
       x="0"
       id="image10"
       height="3503"
       width="2481" />
  </g>
  <g
     inkscape:groupmode="layer"
     id="layer3"
     inkscape:label="speechbubbles"
     style="display:inline;opacity:1">
    <path
       style="fill:#ffffff;fill-opacity:1;stroke:none;stroke-width:1.43189"
       d="m 253.91294,1886.1767 c -74.45161,0.4487 -109.46021,-10.9212 -126.96064,-20.9853 -29.038187,-16.6992 -34.717283,-117.1421 23.79406,-137.1557 58.81927,-20.1188 173.52491,-15.6448 220.60243,23.0443 47.07733,38.689 13.50165,89.6295 2.67705,100.0983 -10.82478,10.4687 -39.56698,34.5968 -120.1129,34.9984 z"
       id="path3659-8"
       inkscape:connector-curvature="0"
       sodipodi:nodetypes="cssssc" />
    <path
       style="color:#000000;display:inline;overflow:visible;visibility:visible;fill:#ffffff;fill-opacity:1;fill-rule:nonzero;stroke:none;stroke-width:0.770015px;marker:none;enable-background:accumulate"
       d="m 274.67689,1855.3732 c 11.17842,15.8247 25.32183,43.4204 25.79652,49.4209 -6.73911,-0.5556 -13.09406,0.387 -18.03883,1.0204 1.81058,10.7946 32.21158,51.6223 41.64451,56.3046 -23.83945,-10.0592 -58.27989,-45.5693 -59.88737,-63.8703 6.68489,-2.1454 10.75049,-2.4727 14.26692,-3.6967 -0.36416,-9.3034 -20.80365,-30.8908 -20.80365,-30.8908 z"
       id="path5066"
       inkscape:connector-curvature="0"
       sodipodi:nodetypes="cccccccc" />
    <path
       style="color:#000000;display:inline;overflow:visible;visibility:visible;fill:#ffffff;fill-opacity:1;fill-rule:nonzero;stroke:none;stroke-width:0.944442px;marker:none;enable-background:accumulate"
       d="m 1789.6598,1974.5023 c -37.6204,-37.2095 -36.2972,-115.6832 -25.5483,-132.4274 16.8093,-31.308 57.0818,-36.8956 108.1383,-36.8956 51.0563,0 413.4565,-19.0114 465.8564,20.0587 52.3999,39.07 35.9052,111.8319 -9.7768,157.4136 -45.6821,45.5817 -299.3062,36.2792 -299.3062,36.2792 0,0 -181.5889,3.0136 -239.3634,-44.4285 z"
       id="path3992"
       inkscape:connector-curvature="0"
       sodipodi:nodetypes="ccscccc" />
    <path
       style="color:#000000;display:inline;overflow:visible;visibility:visible;fill:#ffffff;fill-opacity:1;fill-rule:nonzero;stroke:none;stroke-width:1px;marker:none;enable-background:accumulate"
       d="m 1984.9695,2224.8076 c 97.5172,-13.4683 140.8945,-73.5032 173.5649,-113.8088 15.274,-18.8437 -32.2063,-50.3843 -32.2063,-50.3843 l -20.4844,64.3961 c 4.4776,5.3732 -31.2523,71.0033 -120.8742,99.797 z"
       id="path4000"
       inkscape:connector-curvature="0"
       sodipodi:nodetypes="csccc" />
    <path
       style="color:#000000;display:inline;overflow:visible;visibility:visible;fill:#ffffff;fill-opacity:1;fill-rule:nonzero;stroke:none;stroke-width:0.709008px;marker:none;enable-background:accumulate"
       d="m 2026.961,2045.8133 c 11.7317,-23.0063 20.4432,-67.3113 106.8473,-51.7323 46.2827,8.3448 98.9035,7.6994 93.4468,88.2216 -5.4567,80.5222 -82.0748,70.1622 -97.763,71.1095 -15.6882,0.9474 -89.6939,0.012 -103.2536,-28.3054 -8.488,-17.7262 -10.9854,-57.9183 0.7225,-79.2934 z"
       id="path4546-6"
       inkscape:connector-curvature="0"
       sodipodi:nodetypes="cssssc" />
    <path
       style="color:#000000;display:inline;overflow:visible;visibility:visible;opacity:1;vector-effect:none;fill:#ffffff;fill-opacity:1;fill-rule:nonzero;stroke:none;stroke-width:0.95112;stroke-linecap:butt;stroke-linejoin:miter;stroke-miterlimit:4;stroke-dasharray:none;stroke-dashoffset:0;stroke-opacity:1;marker:none;paint-order:stroke fill markers;enable-background:accumulate"
       d="m 892.15013,2705.3793 c -38.71503,-38.1049 -34.56706,-112.4094 -23.50553,-129.5566 -6.48685,-25.6207 17.8463,-46.9359 78.81276,-42.868 52.33566,3.4921 428.44094,-22.237 482.36544,17.7731 53.9243,40.0102 51.6137,117.4232 4.6026,164.1017 -47.0112,46.6785 -308.6025,33.4177 -308.6025,33.4177 -0.247,0.2651 -182.98149,15.1199 -233.67277,-42.8679 z"
       id="path3992-0"
       inkscape:connector-curvature="0"
       sodipodi:nodetypes="ccscscc" />
    <path
       style="color:#000000;display:inline;overflow:visible;visibility:visible;fill:#ffffff;fill-opacity:1;fill-rule:nonzero;stroke:none;stroke-width:1.14715px;marker:none;enable-background:accumulate"
       d="m 1107.7917,2663.674 c -41.0805,41.3971 -74.3212,126.4523 -32.6058,262.3106 -64.481,-107.4324 -40.7404,-218.5665 -31.5488,-251.0486 9.1915,-32.4819 64.1546,-11.262 64.1546,-11.262 z"
       id="path4008"
       inkscape:connector-curvature="0" />
    <path
       style="color:#000000;display:inline;overflow:visible;visibility:visible;fill:#ffffff;fill-opacity:1;fill-rule:nonzero;stroke:none;stroke-width:1.14715px;marker:none;enable-background:accumulate"
       d="m 1891.9827,2656.832 c -40.4116,58.3597 -53.3089,167.7072 24.2468,263.2149 -108.4132,-99.3198 -82.2954,-214.0613 -72.6196,-244.9782 2.0322,-33.6961 48.3728,-18.2367 48.3728,-18.2367 z"
       id="path4008-0"
       inkscape:connector-curvature="0"
       sodipodi:nodetypes="cccc" />
    <path
       style="color:#000000;display:inline;overflow:visible;visibility:visible;opacity:1;fill:#ffffff;fill-opacity:1;fill-rule:nonzero;stroke:none;stroke-width:1.27107px;marker:none;enable-background:accumulate"
       d="m 1845.3514,2693.9388 c -85.6293,-9.5004 -99.8946,-27.627 -120.3181,-71.3405 -20.4236,-43.7135 17.7873,-166.1895 35.6615,-176.1415 11.3819,-3.7996 198.495,-1.3936 272.5373,8.6541 74.0423,10.048 107.6533,3.4433 131.9719,71.8307 21.0739,59.2621 -25.7194,148.6243 -123.6327,162.5347 -97.9134,13.9104 -196.2199,4.4625 -196.2199,4.4625 z"
       id="path3970"
       inkscape:connector-curvature="0"
       sodipodi:nodetypes="csccssc" />
  </g>
  <g
     inkscape:groupmode="layer"
     id="layer1"
     inkscape:label="txt">
    <text
       xml:space="preserve"
       style="font-style:normal;font-variant:normal;font-weight:normal;font-stretch:normal;line-height:0%;font-family:Lavi;-inkscape-font-specification:Lavi;text-align:center;letter-spacing:0px;word-spacing:0px;text-anchor:middle;fill:#000000;fill-opacity:1;stroke:none"
       x="253.58946"
       y="1792.8776"
       id="text4246"><tspan
         sodipodi:role="line"
         style="font-size:45px;line-height:1.25"
         x="253.58946"
         y="1792.8776"
         id="tspan48">lipu li pona </tspan><tspan
         sodipodi:role="line"
         style="font-size:45px;line-height:1.25"
         x="253.58946"
         y="1849.1276"
         id="tspan52">mute a!</tspan></text>
    <text
       xml:space="preserve"
       style="font-style:normal;font-variant:normal;font-weight:normal;font-stretch:normal;line-height:0%;font-family:Lavi;-inkscape-font-specification:Lavi;text-align:center;letter-spacing:0px;word-spacing:0px;text-anchor:middle;fill:#000000;fill-opacity:1;stroke:none"
       x="2120.7769"
       y="2060.2957"
       id="text4246-3-5-9"><tspan
         sodipodi:role="line"
         style="font-size:45px;line-height:1.25"
         x="2120.7769"
         y="2060.2957"
         id="tspan958">ni li </tspan><tspan
         sodipodi:role="line"
         style="font-size:45px;line-height:1.25"
         x="2120.7769"
         y="2116.5457"
         id="tspan77">suli a!</tspan></text>
    <text
       xml:space="preserve"
       style="font-style:normal;font-variant:normal;font-weight:normal;font-stretch:normal;line-height:0%;font-family:Lavi;-inkscape-font-specification:Lavi;text-align:center;letter-spacing:0px;word-spacing:0px;text-anchor:middle;fill:#000000;fill-opacity:1;stroke:none"
       x="2062.4443"
       y="1865.9629"
       id="text4246-3-3"><tspan
         sodipodi:role="line"
         style="font-size:45px;line-height:1.25"
         x="2062.4443"
         y="1865.9629"
         id="tspan63">jan wawa pi alasa musi li </tspan><tspan
         sodipodi:role="line"
         style="font-size:45px;line-height:1.25"
         x="2062.4443"
         y="1922.2129"
         id="tspan69">sitelen lon lipu ni, li toki e </tspan><tspan
         sodipodi:role="line"
         style="font-size:45px;line-height:1.25"
         x="2062.4443"
         y="1978.4629"
         id="tspan73">ale pi tomo alasa.</tspan></text>
    <text
       xml:space="preserve"
       style="font-style:normal;font-variant:normal;font-weight:normal;font-stretch:normal;line-height:0%;font-family:Lavi;-inkscape-font-specification:Lavi;text-align:center;letter-spacing:0px;word-spacing:0px;text-anchor:middle;fill:#000000;fill-opacity:1;stroke:none"
       x="1171.4302"
       y="2598.7097"
       id="text4246-3-3-1"><tspan
         sodipodi:role="line"
         style="font-size:45px;line-height:1.25"
         x="1171.4302"
         y="2598.7097"
         id="tspan88">nanpa wan la, oko ike ni </tspan><tspan
         sodipodi:role="line"
         style="font-size:45px;line-height:1.25"
         x="1171.4302"
         y="2654.9597"
         id="tspan102">li pana e seli moli tawa jan </tspan><tspan
         sodipodi:role="line"
         style="font-size:45px;line-height:1.25"
         x="1171.4302"
         y="2711.2097"
         id="tspan106">pi wile ala ona.</tspan></text>
    <text
       xml:space="preserve"
       style="font-style:normal;font-variant:normal;font-weight:normal;font-stretch:normal;line-height:0%;font-family:Lavi;-inkscape-font-specification:Lavi;text-align:center;letter-spacing:0px;word-spacing:0px;text-anchor:middle;fill:#000000;fill-opacity:1;stroke:none"
       x="1943.1216"
       y="2538.2783"
       id="text4246-3-3-1-2"><tspan
         sodipodi:role="line"
         style="font-size:45px;line-height:1.25"
         x="1943.1216"
         y="2538.2783"
         id="tspan41">taso sina kama </tspan><tspan
         sodipodi:role="line"
         style="font-size:45px;line-height:1.25"
         x="1943.1216"
         y="2594.5283"
         id="tspan121">tan poka la, oko li </tspan><tspan
         sodipodi:role="line"
         style="font-size:45px;line-height:1.25"
         x="1943.1216"
         y="2650.7783"
         id="tspan127">lukin ala la...</tspan><tspan
         sodipodi:role="line"
         x="1943.1216"
         y="2669.2854"
         id="tspan1230" /></text>
  </g>
</svg>
