<?xml version="1.0" encoding="UTF-8" standalone="no"?>
<svg
   xmlns:dc="http://purl.org/dc/elements/1.1/"
   xmlns:cc="http://creativecommons.org/ns#"
   xmlns:rdf="http://www.w3.org/1999/02/22-rdf-syntax-ns#"
   xmlns:svg="http://www.w3.org/2000/svg"
   xmlns="http://www.w3.org/2000/svg"
   xmlns:xlink="http://www.w3.org/1999/xlink"
   xmlns:sodipodi="http://sodipodi.sourceforge.net/DTD/sodipodi-0.dtd"
   xmlns:inkscape="http://www.inkscape.org/namespaces/inkscape"
   id="svg2"
   version="1.1"
   inkscape:version="0.92.2 (5c3e80d, 2017-08-06)"
   width="2481"
   height="3503"
   sodipodi:docname="E35P06.svg">
  <metadata
     id="metadata8">
    <rdf:RDF>
      <cc:Work
         rdf:about="">
        <dc:format>image/svg+xml</dc:format>
        <dc:type
           rdf:resource="http://purl.org/dc/dcmitype/StillImage" />
        <dc:title />
      </cc:Work>
    </rdf:RDF>
  </metadata>
  <defs
     id="defs6" />
  <sodipodi:namedview
     pagecolor="#ffffff"
     bordercolor="#666666"
     borderopacity="1"
     objecttolerance="10"
     gridtolerance="10"
     guidetolerance="10"
     inkscape:pageopacity="0"
     inkscape:pageshadow="2"
     inkscape:window-width="1269"
     inkscape:window-height="1040"
     id="namedview4"
     showgrid="false"
     inkscape:zoom="0.37194737"
     inkscape:cx="1378.5392"
     inkscape:cy="566.30372"
     inkscape:window-x="615"
     inkscape:window-y="-3"
     inkscape:window-maximized="0"
     inkscape:current-layer="layer1"
     inkscape:document-rotation="0"
     inkscape:snap-global="false"
     inkscape:pagecheckerboard="0" />
  <g
     inkscape:groupmode="layer"
     id="layer2"
     inkscape:label="artwork"
     sodipodi:insensitive="true">
    <image
       sodipodi:absref="C:\Users\Kari\Documents\Pepper and Carrot\Episode 35\fi\../lang/de/./../gfx_Pepper-and-Carrot_by-David-Revoy_E35P06.png"
       xlink:href="../gfx_Pepper-and-Carrot_by-David-Revoy_E35P06.png"
       width="2481"
       height="3503"
       id="image10"
       x="0"
       y="0" />
  </g>
  <g
     inkscape:groupmode="layer"
     id="layer3"
     inkscape:label="speechbubbles"
     style="display:inline">
    <path
       style="fill:#ffffff;stroke:none;stroke-width:0.91230178"
       d="m 598.31018,150.09323 c -15.31467,0.34749 -30.59967,1.53224 -45.82456,3.08685 -23.5108,2.59464 -47.01676,6.88808 -69.06693,15.23706 -26.18039,10.80085 -45.7155,34.2871 -51.93464,60.69431 -9.90189,31.52703 -10.71533,66.13086 0.62924,97.47001 7.45434,19.3271 24.1153,34.51244 43.32463,43.40187 31.10441,14.84175 65.86986,22.78757 100.65552,22.39077 21.12258,0.0711 42.25801,-0.68679 63.29528,-2.45613 25.77987,-2.43398 51.72058,-8.55156 73.84605,-21.75194 14.7079,-8.84352 26.62428,-22.1125 32.51276,-37.79104 5.21572,-13.23331 6.1863,-27.57599 5.58774,-41.59565 -0.40204,-23.78444 -1.36992,-48.01137 -9.26767,-70.80753 -5.30862,-14.7281 -16.79818,-26.85895 -30.20853,-35.46877 -9.21762,-5.9176 -19.50969,-10.06034 -29.68427,-14.21456 -24.23406,-9.45823 -49.91105,-15.79303 -76.02397,-17.84813 -2.60944,-0.1885 -5.2246,-0.30107 -7.84065,-0.34712 z"
       id="path3286-6"
       inkscape:connector-curvature="0"
       sodipodi:nodetypes="csssssssc" />
    <path
       style="display:inline;fill:#ffffff;fill-rule:evenodd;stroke:none;stroke-width:1.38751817px;stroke-linecap:butt;stroke-linejoin:miter;stroke-opacity:1"
       d="m -11.698607,1502.9614 c 49.039719,0.9709 42.542409,18.9206 24.882029,40.2832 13.585917,-1.4369 45.36048,-21.2257 26.519536,10.0555 41.139226,-11.3646 58.514238,15.5887 55.17133,27.1509 20.207342,-3.9803 40.929702,-0.6376 19.846632,40.2724 20.36673,-9.167 38.20851,-36.8642 35.88909,7.2244 16.4881,-5.4725 38.15139,-26.5581 40.90075,9.4172 21.79549,-17.7601 43.44931,-32.9121 62.92313,-7.9194 20.25477,-36.1747 40.70125,-23.3546 54.55396,12.4772 6.50851,-43.4296 45.14138,-25.9104 69.38958,19.5777 -7.69918,-37.6335 -40.39186,-89.6447 56.69946,-13.5228 -41.2026,-55.9177 -46.26066,-77.4348 75.17772,-15.7856 -15.49662,-22.6503 -40.6534,-77.1061 58.41177,-18.4508 -67.2363,-67.3048 -27.56647,-74.4012 20.78185,-86.5626 -58.71159,-1.7957 -76.01884,-19.4105 -13.3587,-26.8793 -96.01304,-8.7403 -72.76724,-30.4201 -42.20594,-66.7128 -49.13213,27.6916 -42.08405,11.5769 -30.30505,-3.1512 -87.32475,29.1003 -50.90435,-16.958 -42.84096,-34.9119 -42.89164,19.0141 -56.18436,16.8415 -52.15467,-11.8494 -23.8098,24.5753 -48.9958,23.9494 -46.72864,14.2836 l -60.0072,-8.2257 -285.518278,5.4155 -12.511584,88.2476 c 75.318519,-4.1891 29.521475,14.6958 -15.515815,19.5663 z"
       id="path961"
       sodipodi:nodetypes="cccccccccccccccccccccccc"
       inkscape:connector-curvature="0" />
    <path
       style="color:#000000;display:inline;overflow:visible;visibility:visible;fill:#ffffff;fill-opacity:1;fill-rule:nonzero;stroke:none;stroke-width:0.91038132px;marker:none;enable-background:accumulate"
       d="m 653.05364,2285.3556 c -6.20112,-35.9524 10.33549,-131.4529 137.46065,-123.5877 127.12516,7.8642 147.79597,52.8058 150.89653,66.2874 3.10055,13.4827 29.97257,89.8831 -69.24701,110.1061 -99.21977,20.2239 -188.10396,-1.1239 -219.11017,-52.8058 z"
       id="path3525-0"
       inkscape:connector-curvature="0" />
    <path
       style="color:#000000;display:inline;overflow:visible;visibility:visible;fill:#ffffff;fill-opacity:1;fill-rule:nonzero;stroke:none;stroke-width:1px;marker:none;enable-background:accumulate"
       d="m 777.45911,2075.5812 c 24.221,32.672 31.0089,45.658 8.1243,87.146 -22.8847,41.487 -7.3195,49.577 -7.3195,49.577 l 28.2503,-15.376 c 0,0 42.659,-91.848 -29.0551,-121.347 z"
       id="path3072-56"
       inkscape:connector-curvature="0" />
    <path
       style="color:#000000;display:inline;overflow:visible;visibility:visible;fill:#ffffff;fill-opacity:1;fill-rule:nonzero;stroke:none;stroke-width:1px;marker:none;enable-background:accumulate"
       d="m 787.3973,441.92617 c -47.0829,-20.24287 -67.22496,-54.55991 -84.15983,-115.70701 -17.59681,-45.717 -36.07245,-33.52653 -36.07245,-33.52653 l 6.37734,17.91035 c 0,0 -3.04742,117.01808 113.85494,131.32319 z"
       id="path3072-5-5"
       inkscape:connector-curvature="0"
       sodipodi:nodetypes="ccccc" />
    <path
       style="display:inline;fill:#ffffff;fill-opacity:1;stroke:none;stroke-width:1.10947"
       d="m 393.56677,1606.3671 c 21.51156,33.7205 38.79051,39.1501 50.26035,53.0664 11.46981,13.9172 -2.88402,43.4737 0.19353,53.5399 3.70439,9.4958 0.69509,16.2497 29.83986,39.4536 -46.26,-20.9908 -40.86354,-33.0957 -44.26871,-41.9175 -4.68096,-12.128 3.84885,-26.4644 -8.51834,-37.4754 -11.9791,-10.667 -55.59571,-40.8524 -64.07404,-63.4543 -8.47865,-22.6019 -12.84256,-23.9886 -12.84256,-23.9886 z"
       id="path3282-7"
       inkscape:connector-curvature="0"
       sodipodi:nodetypes="csccssscc" />
  </g>
  <g
     inkscape:groupmode="layer"
     id="layer1"
     inkscape:label="txt">
    <text
       xml:space="preserve"
       style="font-style:normal;font-variant:normal;font-weight:normal;font-stretch:normal;font-size:45px;line-height:1.25;font-family:Lavi;-inkscape-font-specification:Lavi;text-align:center;letter-spacing:0px;word-spacing:0px;text-anchor:middle;fill:#000000;fill-opacity:1;stroke:none"
       x="583.06763"
       y="238.04738"
       id="text4246-3-2-2"><tspan
         style="font-size:45px"
         sodipodi:role="line"
         x="583.06763"
         y="238.04738"
         id="tspan915">Tuolla on</tspan><tspan
         style="font-size:45px"
         sodipodi:role="line"
         x="583.06763"
         y="294.29736"
         id="tspan868">Sarvijärven</tspan><tspan
         style="font-size:45px"
         sodipodi:role="line"
         x="583.06763"
         y="350.54736"
         id="tspan3737">luola!</tspan><tspan
         style="font-size:45px"
         sodipodi:role="line"
         x="583.06763"
         y="406.79736"
         id="tspan905" /></text>
    <text
       xml:space="preserve"
       style="font-style:normal;font-variant:normal;font-weight:normal;font-stretch:normal;font-size:45px;line-height:1.25;font-family:Lavi;-inkscape-font-specification:Lavi;text-align:center;letter-spacing:0px;word-spacing:0px;text-anchor:middle;fill:#000000;fill-opacity:1;stroke:none"
       x="312.00537"
       y="1511.3002"
       id="text4246-3-2-2-3"><tspan
         style="font-size:45px"
         sodipodi:role="line"
         x="312.00537"
         y="1511.3002"
         id="tspan905-3">Carrot, tässä on</tspan><tspan
         style="font-size:45px"
         sodipodi:role="line"
         x="312.00537"
         y="1567.5502"
         id="tspan916">mahdollisuutemme!</tspan></text>
    <text
       xml:space="preserve"
       style="font-style:normal;font-variant:normal;font-weight:normal;font-stretch:normal;font-size:45px;line-height:1.25;font-family:Lavi;-inkscape-font-specification:Lavi;text-align:center;letter-spacing:0px;word-spacing:0px;text-anchor:middle;fill:#000000;fill-opacity:1;stroke:none"
       x="807.18762"
       y="2241.9109"
       id="text4246-3-2-2-3-5"><tspan
         style="font-size:45px"
         sodipodi:role="line"
         x="807.18762"
         y="2241.9109"
         id="tspan916-2">Tunnen tä-</tspan><tspan
         style="font-size:45px"
         sodipodi:role="line"
         x="807.18762"
         y="2298.1609"
         id="tspan958">män luolan.</tspan></text>
    <text
       xml:space="preserve"
       style="font-style:normal;font-variant:normal;font-weight:normal;font-stretch:normal;font-size:45px;line-height:1.25;font-family:Lavi;-inkscape-font-specification:Lavi;text-align:center;letter-spacing:0px;word-spacing:0px;text-anchor:middle;fill:#ffffff;fill-opacity:1;stroke:none"
       x="201.94211"
       y="2549.3845"
       id="text4246-3-2-2-3-5-9"><tspan
         style="font-size:45px;text-align:start;text-anchor:start;fill:#ffffff"
         sodipodi:role="line"
         x="201.94211"
         y="2549.3845"
         id="tspan917">Siinä on pitkä, mutkitteleva käytävä,</tspan><tspan
         style="font-size:45px;text-align:start;text-anchor:start;fill:#ffffff"
         sodipodi:role="line"
         x="201.94211"
         y="2605.6345"
         id="tspan924">joka päättyy romahtaneeseen osaan,</tspan></text>
    <text
       xml:space="preserve"
       style="font-style:normal;font-variant:normal;font-weight:normal;font-stretch:normal;font-size:45px;line-height:1.25;font-family:Lavi;-inkscape-font-specification:Lavi;text-align:center;letter-spacing:0px;word-spacing:0px;text-anchor:middle;fill:#ffffff;fill-opacity:1;stroke:none"
       x="1335.3069"
       y="3059.7258"
       id="text4246-3-2-2-3-5-9-7"><tspan
         style="font-size:45px;text-align:end;text-anchor:end;fill:#ffffff"
         sodipodi:role="line"
         x="1335.3069"
         y="3059.7258"
         id="tspan879">jonka tippukivet muodostavat</tspan><tspan
         style="font-size:45px;text-align:end;text-anchor:end;fill:#ffffff"
         sodipodi:role="line"
         x="1335.3069"
         y="3115.9758"
         id="tspan3761">piikkiseinän. Se on kuolemanloukko!</tspan></text>
    <text
       xml:space="preserve"
       style="font-style:normal;font-variant:normal;font-weight:normal;font-stretch:normal;font-size:45px;line-height:1.25;font-family:Lavi;-inkscape-font-specification:Lavi;text-align:center;letter-spacing:0px;word-spacing:0px;text-anchor:middle;fill:#000000;fill-opacity:1;stroke:none"
       x="1482.9749"
       y="2753.425"
       id="text4246-3-2-2-3-5-9-7-3"><tspan
         style="font-size:45px;text-align:start;text-anchor:start;fill:#ffffff"
         sodipodi:role="line"
         x="1482.9749"
         y="2753.425"
         id="tspan904">Siellä on pieni aukko, joka on</tspan><tspan
         style="font-size:45px;text-align:start;text-anchor:start;fill:#ffffff"
         sodipodi:role="line"
         x="1482.9749"
         y="2809.675"
         id="tspan3763">juuri niin leveä, että mahdumme</tspan><tspan
         style="font-size:45px;text-align:start;text-anchor:start;fill:#ffffff"
         sodipodi:role="line"
         x="1482.9749"
         y="2865.925"
         id="tspan888">puikahtamaan siitä ulos,</tspan></text>
    <text
       xml:space="preserve"
       style="font-style:normal;font-variant:normal;font-weight:normal;font-stretch:normal;font-size:45px;line-height:1.25;font-family:Lavi;-inkscape-font-specification:Lavi;text-align:center;letter-spacing:0px;word-spacing:0px;text-anchor:middle;fill:#000000;fill-opacity:1;stroke:none;stroke-width:1.25014997"
       x="2301.0408"
       y="3223.4587"
       id="text4246-3-2-2-3-5-9-7-3-3"><tspan
         style="font-size:45px;text-align:end;text-anchor:end;fill:#ffffff;stroke-width:1.25014997"
         sodipodi:role="line"
         x="2301.0408"
         y="3223.4587"
         id="tspan897">mutta lohikäärme ei pysty kääntymään</tspan><tspan
         style="font-size:45px;text-align:end;text-anchor:end;fill:#ffffff;stroke-width:1.25014997"
         sodipodi:role="line"
         x="2301.0408"
         y="3279.7087"
         id="tspan898">niin nopeasti, vaan osuu seinään</tspan><tspan
         style="font-size:45px;text-align:end;text-anchor:end;fill:#ffffff;stroke-width:1.25014997"
         sodipodi:role="line"
         x="2301.0408"
         y="3335.9587"
         id="tspan3782">täydellä nopeudella! Hahhahhaa!</tspan></text>
  </g>
</svg>
