<?xml version="1.0" encoding="UTF-8" standalone="no"?>
<!-- Created with Inkscape (http://www.inkscape.org/) -->

<svg
   xmlns:dc="http://purl.org/dc/elements/1.1/"
   xmlns:cc="http://creativecommons.org/ns#"
   xmlns:rdf="http://www.w3.org/1999/02/22-rdf-syntax-ns#"
   xmlns:svg="http://www.w3.org/2000/svg"
   xmlns="http://www.w3.org/2000/svg"
   xmlns:xlink="http://www.w3.org/1999/xlink"
   xmlns:sodipodi="http://sodipodi.sourceforge.net/DTD/sodipodi-0.dtd"
   xmlns:inkscape="http://www.inkscape.org/namespaces/inkscape"
   id="svg2"
   version="1.1"
   inkscape:version="0.91 r13725"
   width="2481"
   height="3503"
   sodipodi:docname="E24P06.svg">
  <metadata
     id="metadata8">
    <rdf:RDF>
      <cc:Work
         rdf:about="">
        <dc:format>image/svg+xml</dc:format>
        <dc:type
           rdf:resource="http://purl.org/dc/dcmitype/StillImage" />
        <dc:title />
      </cc:Work>
    </rdf:RDF>
  </metadata>
  <defs
     id="defs6">
    <filter
       style="color-interpolation-filters:sRGB"
       id="filter4375-4-1-1-1-9"
       inkscape:label="deevad outline effect">
      <feFlood
         id="feFlood4377-7-9-0-8-1"
         flood-opacity="1"
         flood-color="rgb(0,0,0)"
         result="flood" />
      <feComposite
         id="feComposite4379-3-8-8-2-77"
         in2="SourceGraphic"
         in="flood"
         operator="in"
         result="composite1" />
      <feMorphology
         id="feMorphology4393-1-0-49-8-9"
         operator="dilate"
         radius="4"
         result="result3" />
      <feComposite
         id="feComposite4385-9-5-7-0-8"
         in2="result3"
         in="SourceGraphic"
         operator="over"
         result="composite2" />
    </filter>
    <filter
       inkscape:label="deevad trembling effect"
       inkscape:menu="Distort"
       inkscape:menu-tooltip="Paint objects with a transparent turbulence which wraps around color edges"
       height="1.4"
       y="-0.2"
       width="1.4"
       x="-0.2"
       style="color-interpolation-filters:sRGB;"
       id="filter1125">
      <feGaussianBlur
         stdDeviation="0.01"
         result="result10"
         id="feGaussianBlur1107"
         baseFrequency="0.019" />
      <feBlend
         in2="result10"
         mode="normal"
         in="result10"
         result="fbSourceGraphic"
         id="feBlend1109" />
      <feGaussianBlur
         stdDeviation="0.01"
         result="result8"
         in="fbSourceGraphic"
         id="feGaussianBlur1111" />
      <feTurbulence
         seed="0"
         result="result7"
         type="fractalNoise"
         numOctaves="1"
         baseFrequency="0.0040000000000000001"
         id="feTurbulence1113" />
      <feComposite
         in2="result8"
         result="result6"
         operator="in"
         in="result8"
         id="feComposite1115"
         baseFrequency="0.0089999999999999993" />
      <feDisplacementMap
         in2="result6"
         in="result7"
         xChannelSelector="R"
         yChannelSelector="G"
         scale="41.013071895424837"
         result="result4"
         id="feDisplacementMap1117" />
      <feComposite
         in2="result4"
         result="result2"
         operator="arithmetic"
         in="result8"
         k1="1"
         k3="1"
         id="feComposite1119"
         scale="41" />
      <feComposite
         in2="result2"
         result="fbSourceGraphic"
         in="fbSourceGraphic"
         operator="in"
         id="feComposite1121" />
      <feDisplacementMap
         in2="result4"
         yChannelSelector="G"
         scale="49.700000000000003"
         xChannelSelector="R"
         id="feDisplacementMap1123" />
    </filter>
    <filter
       style="color-interpolation-filters:sRGB"
       id="filter4375-4-1-1-1-9-5-8"
       inkscape:label="Drop Shadow">
      <feFlood
         id="feFlood4377-7-9-0-8-1-7-3"
         flood-opacity="1"
         flood-color="rgb(200,55,55)"
         result="flood" />
      <feComposite
         id="feComposite4379-3-8-8-2-77-4-1"
         in2="SourceGraphic"
         in="flood"
         operator="in"
         result="composite1" />
      <feMorphology
         id="feMorphology4393-1-0-49-8-9-3-0"
         operator="dilate"
         radius="6.2000000000000002"
         result="result3" />
      <feComposite
         id="feComposite4385-9-5-7-0-8-8-7"
         in2="result3"
         in="SourceGraphic"
         operator="over"
         result="fbSourceGraphic" />
      <feColorMatrix
         result="fbSourceGraphicAlpha"
         in="fbSourceGraphic"
         values="0 0 0 -1 0 0 0 0 -1 0 0 0 0 -1 0 0 0 0 1 0"
         id="feColorMatrix4544" />
      <feTurbulence
         id="feTurbulence4546"
         type="fractalNoise"
         numOctaves="3"
         seed="37"
         baseFrequency="0.129 0.0050000000000000001"
         result="turbulence" />
      <feDisplacementMap
         id="feDisplacementMap4548"
         in2="turbulence"
         in="fbSourceGraphic"
         scale="6.6"
         yChannelSelector="G"
         xChannelSelector="R"
         result="fbSourceGraphic" />
      <feColorMatrix
         result="fbSourceGraphicAlpha"
         in="fbSourceGraphic"
         values="0 0 0 -1 0 0 0 0 -1 0 0 0 0 -1 0 0 0 0 1 0"
         id="feColorMatrix4670" />
      <feFlood
         id="feFlood4672"
         flood-opacity="1"
         flood-color="rgb(80,22,22)"
         result="flood"
         in="fbSourceGraphic" />
      <feComposite
         id="feComposite4674"
         in2="fbSourceGraphic"
         in="flood"
         operator="in"
         result="composite1" />
      <feGaussianBlur
         id="feGaussianBlur4676"
         in="composite1"
         stdDeviation="0"
         result="blur" />
      <feOffset
         id="feOffset4678"
         dx="6"
         dy="6"
         result="offset" />
      <feComposite
         id="feComposite4680"
         in2="offset"
         in="fbSourceGraphic"
         operator="over"
         result="composite2" />
    </filter>
    <filter
       inkscape:label="deevad trembling effect"
       inkscape:menu="Distort"
       inkscape:menu-tooltip="Paint objects with a transparent turbulence which wraps around color edges"
       height="1.4"
       y="-0.2"
       width="1.4"
       x="-0.2"
       style="color-interpolation-filters:sRGB"
       id="filter1125-2">
      <feGaussianBlur
         stdDeviation="0.01"
         result="result10"
         id="feGaussianBlur1107-0"
         baseFrequency="0.019" />
      <feBlend
         in2="result10"
         mode="normal"
         in="result10"
         result="fbSourceGraphic"
         id="feBlend1109-2" />
      <feGaussianBlur
         stdDeviation="0.01"
         result="result8"
         in="fbSourceGraphic"
         id="feGaussianBlur1111-3" />
      <feTurbulence
         seed="0"
         result="result7"
         type="fractalNoise"
         numOctaves="1"
         baseFrequency="0.0040000000000000001"
         id="feTurbulence1113-7" />
      <feComposite
         in2="result8"
         result="result6"
         operator="in"
         in="result8"
         id="feComposite1115-5"
         baseFrequency="0.0089999999999999993" />
      <feDisplacementMap
         in2="result6"
         in="result7"
         xChannelSelector="R"
         yChannelSelector="G"
         scale="41.013072"
         result="result4"
         id="feDisplacementMap1117-9" />
      <feComposite
         k4="0"
         k2="0"
         in2="result4"
         result="result2"
         operator="arithmetic"
         in="result8"
         k1="1"
         k3="1"
         id="feComposite1119-2"
         scale="41" />
      <feComposite
         in2="result2"
         result="fbSourceGraphic"
         in="fbSourceGraphic"
         operator="in"
         id="feComposite1121-2" />
      <feDisplacementMap
         in2="result4"
         yChannelSelector="G"
         scale="49.7"
         xChannelSelector="R"
         id="feDisplacementMap1123-8" />
    </filter>
    <filter
       inkscape:label="deevad trembling effect"
       inkscape:menu="Distort"
       inkscape:menu-tooltip="Paint objects with a transparent turbulence which wraps around color edges"
       height="1.4"
       y="-0.2"
       width="1.4"
       x="-0.2"
       style="color-interpolation-filters:sRGB"
       id="filter1125-1">
      <feGaussianBlur
         stdDeviation="0.01"
         result="result10"
         id="feGaussianBlur1107-2"
         baseFrequency="0.019" />
      <feBlend
         in2="result10"
         mode="normal"
         in="result10"
         result="fbSourceGraphic"
         id="feBlend1109-9" />
      <feGaussianBlur
         stdDeviation="0.01"
         result="result8"
         in="fbSourceGraphic"
         id="feGaussianBlur1111-31" />
      <feTurbulence
         seed="0"
         result="result7"
         type="fractalNoise"
         numOctaves="1"
         baseFrequency="0.0040000000000000001"
         id="feTurbulence1113-9" />
      <feComposite
         in2="result8"
         result="result6"
         operator="in"
         in="result8"
         id="feComposite1115-4"
         baseFrequency="0.0089999999999999993" />
      <feDisplacementMap
         in2="result6"
         in="result7"
         xChannelSelector="R"
         yChannelSelector="G"
         scale="41.013072"
         result="result4"
         id="feDisplacementMap1117-7" />
      <feComposite
         k4="0"
         k2="0"
         in2="result4"
         result="result2"
         operator="arithmetic"
         in="result8"
         k1="1"
         k3="1"
         id="feComposite1119-8"
         scale="41" />
      <feComposite
         in2="result2"
         result="fbSourceGraphic"
         in="fbSourceGraphic"
         operator="in"
         id="feComposite1121-4" />
      <feDisplacementMap
         in2="result4"
         yChannelSelector="G"
         scale="49.7"
         xChannelSelector="R"
         id="feDisplacementMap1123-5" />
    </filter>
    <filter
       inkscape:label="deevad trembling effect"
       inkscape:menu="Distort"
       inkscape:menu-tooltip="Paint objects with a transparent turbulence which wraps around color edges"
       height="1.4"
       y="-0.2"
       width="1.4"
       x="-0.2"
       style="color-interpolation-filters:sRGB"
       id="filter1125-1-1">
      <feGaussianBlur
         stdDeviation="0.01"
         result="result10"
         id="feGaussianBlur1107-2-0"
         baseFrequency="0.019" />
      <feBlend
         in2="result10"
         mode="normal"
         in="result10"
         result="fbSourceGraphic"
         id="feBlend1109-9-6" />
      <feGaussianBlur
         stdDeviation="0.01"
         result="result8"
         in="fbSourceGraphic"
         id="feGaussianBlur1111-31-3" />
      <feTurbulence
         seed="0"
         result="result7"
         type="fractalNoise"
         numOctaves="1"
         baseFrequency="0.0040000000000000001"
         id="feTurbulence1113-9-2" />
      <feComposite
         in2="result8"
         result="result6"
         operator="in"
         in="result8"
         id="feComposite1115-4-0"
         baseFrequency="0.0089999999999999993" />
      <feDisplacementMap
         in2="result6"
         in="result7"
         xChannelSelector="R"
         yChannelSelector="G"
         scale="41.013072"
         result="result4"
         id="feDisplacementMap1117-7-6" />
      <feComposite
         k4="0"
         k2="0"
         in2="result4"
         result="result2"
         operator="arithmetic"
         in="result8"
         k1="1"
         k3="1"
         id="feComposite1119-8-1"
         scale="41" />
      <feComposite
         in2="result2"
         result="fbSourceGraphic"
         in="fbSourceGraphic"
         operator="in"
         id="feComposite1121-4-5" />
      <feDisplacementMap
         in2="result4"
         yChannelSelector="G"
         scale="49.7"
         xChannelSelector="R"
         id="feDisplacementMap1123-5-5" />
    </filter>
  </defs>
  <sodipodi:namedview
     pagecolor="#ffffff"
     bordercolor="#666666"
     borderopacity="1"
     objecttolerance="10"
     gridtolerance="10"
     guidetolerance="10"
     inkscape:pageopacity="0"
     inkscape:pageshadow="2"
     inkscape:window-width="960"
     inkscape:window-height="1017"
     id="namedview4"
     showgrid="false"
     inkscape:zoom="0.74389472"
     inkscape:cx="1445.792"
     inkscape:cy="2830.981"
     inkscape:window-x="0"
     inkscape:window-y="30"
     inkscape:window-maximized="0"
     inkscape:current-layer="layer3" />
  <g
     inkscape:groupmode="layer"
     id="layer2"
     inkscape:label="artwork"
     sodipodi:insensitive="true">
    <image
       sodipodi:absref="/home/nightlock/peppercarrot/webcomics/ep24_The-Unity-Tree/lang/en/../gfx_Pepper-and-Carrot_by-David-Revoy_E24P06.png"
       xlink:href="../gfx_Pepper-and-Carrot_by-David-Revoy_E24P06.png"
       width="2481"
       height="3503"
       id="image10"
       x="0"
       y="0" />
  </g>
  <g
     inkscape:groupmode="layer"
     id="layer3"
     inkscape:label="speechbubbles"
     style="display:inline">
    <path
       style="color:#000000;display:inline;overflow:visible;visibility:visible;fill:#ffffff;fill-opacity:1;fill-rule:nonzero;stroke:none;stroke-width:1px;marker:none;enable-background:accumulate"
       d="m 1134.5445,477.17654 c -97.1673,0.72382 -241.40239,-12.72838 -274.57708,-60.06598 -33.17453,-47.33763 -36.30174,-125.30543 16.55503,-157.94282 52.85659,-32.63738 148.45415,-49.57752 232.91555,-48.10241 84.4613,1.4751 197.4748,25.00257 228.6836,69.43602 31.2089,44.43334 18.9937,146.34631 -86.1364,175.57163 -105.1303,29.22545 -117.4407,21.10356 -117.4407,21.10356 z"
       id="path3970"
       inkscape:connector-curvature="0"
       sodipodi:nodetypes="cccscsc" />
    <path
       style="color:#000000;display:inline;overflow:visible;visibility:visible;fill:#ffffff;fill-opacity:1;fill-rule:nonzero;stroke:none;stroke-width:0.99999994px;marker:none;enable-background:accumulate"
       d="m 1073.2808,604.85204 c -1.7188,-74.36595 16.2722,-163.97241 192.2022,-173.10608 121.4361,-6.30453 234.9889,64.25156 218.1201,150.02691 -14.9847,76.19493 -72.4615,151.29644 -173.871,153.86077 -101.4094,2.56433 -226.1385,-17.95051 -236.4513,-130.7816 z"
       id="path3565"
       inkscape:connector-curvature="0"
       sodipodi:nodetypes="csssc" />
    <path
       style="fill:#ffffff;fill-rule:evenodd;stroke:none;stroke-width:1px;stroke-linecap:butt;stroke-linejoin:miter;stroke-opacity:1"
       d="m 1029.5807,224.52905 c -23.9368,-1.88303 -58.6486,11.5448 -38.51557,50.296 -43.95773,-25.39403 -105.64823,-34.5111 -120.16288,7.79105 -2.44271,-51.73967 -31.90547,-37.69039 -56.22286,-25.2315 23.14311,-21.24192 -19.41933,-31.70774 -42.20562,-32.16467 47.21977,-45.85796 21.63894,-59.20123 2.31506,-75.339 47.58054,10.92223 35.60999,-13.7893 40.96469,-28.13373 41.26798,30.86852 70.62972,22.34544 93.32604,-8.22912 12.53889,15.86671 17.07206,49.31402 60.95721,-3.65542 -15.60126,45.04669 5.97529,39.70893 40.60633,16.67968 -5.1814,15.33945 -37.38406,39.40883 17.6225,35.30341 -34.0874,15.47391 -40.88918,35.23169 1.3151,62.6833 z"
       id="path4584"
       inkscape:connector-curvature="0"
       sodipodi:nodetypes="cccccccccccc" />
    <path
       style="fill:#ffffff;fill-rule:evenodd;stroke:none;stroke-width:1px;stroke-linecap:butt;stroke-linejoin:miter;stroke-opacity:1"
       d="m 1491.36,702.68693 c 0,0 -18.7783,34.21336 -32.6212,27.91452 -13.843,-6.29892 -20.1572,-51.27318 -20.1572,-51.27318 0,0 -32.4046,35.857 -65.1595,12.26987 -32.7549,-23.58713 -32.8885,-75.08869 -12.3448,-56.25529 20.5438,18.83335 46.1365,71.22989 89.4202,2.96484 3.1607,69.22326 7.7961,64.32775 13.5666,66.07787 5.7706,1.75017 32.6213,-27.91444 40.3036,-37.66207 0.7828,49.71 2.2491,82.99287 66.864,59.24511 -31.5265,23.16855 -74.9291,26.8574 -79.8717,-23.28167 z"
       id="path4394"
       inkscape:connector-curvature="0"
       sodipodi:nodetypes="cscsscsccc" />
    <path
       style="color:#000000;display:inline;overflow:visible;visibility:visible;fill:#ffffff;fill-opacity:1;fill-rule:nonzero;stroke:none;stroke-width:1px;marker:none;enable-background:accumulate"
       d="m 341.74632,2315.3388 c 4.92393,-50.7187 46.22368,-86.0866 150.18057,-71.7058 55.6849,7.7031 118.99544,13.9914 112.43021,88.3206 -6.56529,74.3291 -97.65834,68.2079 -116.53351,69.0823 -18.87517,0.8746 -116.63238,-11.4619 -132.94668,-37.6019 -10.21238,-16.3628 -13.95123,-32.3549 -13.13059,-48.0952 z"
       id="path4546-6"
       inkscape:connector-curvature="0"
       sodipodi:nodetypes="cssssc" />
    <path
       style="color:#000000;display:inline;overflow:visible;visibility:visible;fill:#ffffff;fill-opacity:1;fill-rule:nonzero;stroke:none;stroke-width:1px;marker:none;enable-background:accumulate"
       d="m 534.38829,2463.1918 c -5.60468,-24.2441 -12.05036,-25.1738 -25.83978,-29.9145 -13.78934,-4.7407 -29.4176,-13.271 -41.18387,-37.0527 -10.53976,-33.3197 -47.6517,-107.184 10.02392,-71.238 21.72968,10.3487 11.80541,52.372 17.48145,69.9483 5.67608,17.5761 30.50929,21.843 37.76565,34.8227 7.25638,12.9796 5.56819,19.9435 1.75263,33.4342 z"
       id="path4538"
       inkscape:connector-curvature="0"
       sodipodi:nodetypes="ccccccc" />
    <text
       xml:space="preserve"
       style="font-style:normal;font-variant:normal;font-weight:normal;font-stretch:normal;font-size:25.60841782px;line-height:0%;font-family:'Nanum Pen Script OTF';-inkscape-font-specification:'Nanum Pen Script OTF';text-align:center;letter-spacing:0px;word-spacing:0px;text-anchor:middle;fill:#d16044;fill-opacity:1;stroke:none;stroke-width:1;filter:url(#filter1125);"
       x="410.73367"
       y="1900.4603"
       id="text4246-3-7-9-5-1-6-2-1"
       transform="matrix(1.6620552,-1.2111617,0.6635682,1.8101092,-937.76333,-1423.2974)"
       sodipodi:linespacing="0%"><tspan
         sodipodi:role="line"
         style="font-style:normal;font-variant:normal;font-weight:normal;font-stretch:normal;font-size:25.60841782px;line-height:1.25;font-family:'Nanum Pen Script OTF';-inkscape-font-specification:'Nanum Pen Script OTF';fill:#d16044;fill-opacity:1;stroke-width:0.82425153;"
         x="410.73367"
         y="1900.4603"
         id="tspan1222-5">푸르르</tspan></text>
    <text
       xml:space="preserve"
       style="font-style:normal;font-variant:normal;font-weight:normal;font-stretch:normal;font-size:50.00000021px;line-height:0%;font-family:'Nanum Pen Script OTF';-inkscape-font-specification:'Nanum Pen Script OTF';text-align:center;letter-spacing:0px;word-spacing:0px;text-anchor:middle;fill:#d16044;fill-opacity:1;stroke:none;stroke-width:1;filter:url(#filter1125);"
       x="1985.7361"
       y="1448.5387"
       id="text4246-3-7-9-5-1-6-2-1-2"
       transform="matrix(1.0442184,0.1379611,-0.3933369,0.90568678,0,0)"
       sodipodi:linespacing="0%"><tspan
         sodipodi:role="line"
         style="font-size:50.00000021px;line-height:1.25;fill:#d16044;fill-opacity:1;stroke-width:0.82425153;-inkscape-font-specification:'Nanum Pen Script OTF';font-family:'Nanum Pen Script OTF';font-weight:normal;font-style:normal;font-stretch:normal;font-variant:normal;"
         x="1985.7361"
         y="1448.5387"
         id="tspan1222-5-7">푸르르</tspan></text>
    <text
       xml:space="preserve"
       style="font-style:normal;font-variant:normal;font-weight:normal;font-stretch:normal;font-size:49.99999989px;line-height:0%;font-family:'Nanum Pen Script OTF';-inkscape-font-specification:'Nanum Pen Script OTF';text-align:center;letter-spacing:0px;word-spacing:0px;text-anchor:middle;fill:#d16044;fill-opacity:1;stroke:none;stroke-width:1;filter:url(#filter1125);"
       x="655.12885"
       y="1771.0082"
       id="text4246-3-7-9-5-1-6-2-1-2-0"
       transform="matrix(0.87668998,-0.58381506,0.30040284,0.94060651,1.8903591,-5.6710774)"
       sodipodi:linespacing="0%"><tspan
         sodipodi:role="line"
         style="font-size:49.99999989px;line-height:1.25;fill:#d16044;fill-opacity:1;stroke-width:0.82425153;-inkscape-font-specification:'Nanum Pen Script OTF';font-family:'Nanum Pen Script OTF';font-weight:normal;font-style:normal;font-stretch:normal;font-variant:normal;"
         x="655.12885"
         y="1771.0082"
         id="tspan1222-5-7-9">푸르르</tspan></text>
    <text
       xml:space="preserve"
       style="font-style:normal;font-variant:normal;font-weight:normal;font-stretch:normal;font-size:24.89186486px;line-height:0%;font-family:'Nanum Pen Script OTF';-inkscape-font-specification:'Nanum Pen Script OTF';text-align:center;letter-spacing:0px;word-spacing:0px;text-anchor:middle;fill:#d16044;fill-opacity:1;stroke:none;stroke-width:1;filter:url(#filter1125);"
       x="777.14801"
       y="1966.9062"
       id="text4246-3-7-9-5-1-6-2-1-2-0-3"
       transform="matrix(1.9715284,-0.76773534,0.18416003,1.9748348,-935.47994,-1647.229)"
       sodipodi:linespacing="0%"><tspan
         sodipodi:role="line"
         style="font-style:normal;font-variant:normal;font-weight:normal;font-stretch:normal;font-size:24.89186486px;line-height:1.25;font-family:'Nanum Pen Script OTF';-inkscape-font-specification:'Nanum Pen Script OTF';fill:#d16044;fill-opacity:1;stroke-width:0.82425153;"
         x="777.14801"
         y="1966.9062"
         id="tspan1222-5-7-9-6">푸르르</tspan></text>
    <text
       xml:space="preserve"
       style="font-style:normal;font-variant:normal;font-weight:normal;font-stretch:normal;font-size:49.99999992px;line-height:0%;font-family:'Nanum Pen Script OTF';-inkscape-font-specification:'Nanum Pen Script OTF';text-align:center;letter-spacing:0px;word-spacing:0px;text-anchor:middle;fill:#d16044;fill-opacity:1;stroke:none;stroke-width:1;filter:url(#filter1125);"
       x="1923.7697"
       y="875.89478"
       id="text4246-3-7-9-5-1-6-2-1-2-06"
       transform="matrix(0.99644593,0.34135151,-0.56436057,0.8102343,1.8903591,-1.8903591)"
       sodipodi:linespacing="0%"><tspan
         sodipodi:role="line"
         style="font-size:49.99999992px;line-height:1.25;fill:#d16044;fill-opacity:1;stroke-width:0.82425153;-inkscape-font-specification:'Nanum Pen Script OTF';font-family:'Nanum Pen Script OTF';font-weight:normal;font-style:normal;font-stretch:normal;font-variant:normal;"
         x="1923.7697"
         y="875.89478"
         id="tspan1222-5-7-2">푸르르</tspan></text>
    <text
       xml:space="preserve"
       style="font-style:normal;font-variant:normal;font-weight:normal;font-stretch:normal;font-size:50.00000021px;line-height:0%;font-family:'Nanum Pen Script OTF';-inkscape-font-specification:'Nanum Pen Script OTF';text-align:center;letter-spacing:0px;word-spacing:0px;text-anchor:middle;fill:#d16044;fill-opacity:1;stroke:none;stroke-width:1;filter:url(#filter1125);"
       x="2065.241"
       y="1539.2544"
       id="text4246-3-7-9-5-1-6-2-1-2-06-6"
       transform="matrix(1.0442184,0.1379611,-0.3933369,0.90568678,0,0)"
       sodipodi:linespacing="0%"><tspan
         sodipodi:role="line"
         style="font-size:50.00000021px;line-height:1.25;fill:#d16044;fill-opacity:1;stroke-width:0.82425153;-inkscape-font-specification:'Nanum Pen Script OTF';font-family:'Nanum Pen Script OTF';font-weight:normal;font-style:normal;font-stretch:normal;font-variant:normal;"
         x="2065.241"
         y="1539.2544"
         id="tspan1222-5-7-2-1">푸르르</tspan></text>
    <text
       xml:space="preserve"
       style="font-style:normal;font-variant:normal;font-weight:normal;font-stretch:normal;font-size:70.00000023px;line-height:0%;font-family:'Nanum Pen Script OTF';-inkscape-font-specification:'Nanum Pen Script OTF';text-align:center;letter-spacing:0px;word-spacing:0px;text-anchor:middle;fill:#ebe9e2;fill-opacity:1;stroke:none;stroke-width:1;"
       x="1686.5544"
       y="2585.2935"
       id="text4246-3-7-9-5-1-6-2-1-8"
       transform="matrix(1.0600479,-0.23035956,-0.08957656,0.96281952,0,0)"><tspan
         sodipodi:role="line"
         style="font-size:70.00000023px;line-height:1.25;fill:#ebe9e2;fill-opacity:1;stroke-width:0.82425153;-inkscape-font-specification:'Nanum Pen Script OTF';font-family:'Nanum Pen Script OTF';font-weight:normal;font-style:normal;font-stretch:normal;font-variant:normal;"
         x="1686.5544"
         y="2585.2935"
         id="tspan1222-5-79">?</tspan></text>
    <text
       xml:space="preserve"
       style="font-style:normal;font-variant:normal;font-weight:normal;font-stretch:normal;font-size:70.00000023px;line-height:0%;font-family:'Nanum Pen Script OTF';-inkscape-font-specification:'Nanum Pen Script OTF';text-align:center;letter-spacing:0px;word-spacing:0px;text-anchor:middle;fill:#ebe9e2;fill-opacity:1;stroke:none;stroke-width:1;"
       x="2356.5422"
       y="2734.1533"
       id="text4246-3-7-9-5-1-6-2-1-8-3"
       transform="matrix(1.0600479,-0.23035956,-0.08957656,0.96281952,0,0)"><tspan
         sodipodi:role="line"
         style="font-size:70.00000023px;line-height:1.25;fill:#ebe9e2;fill-opacity:1;stroke-width:0.82425153;-inkscape-font-specification:'Nanum Pen Script OTF';font-family:'Nanum Pen Script OTF';font-weight:normal;font-style:normal;font-stretch:normal;font-variant:normal;"
         x="2356.5422"
         y="2734.1533"
         id="tspan1222-5-79-6">!!</tspan></text>
    <text
       xml:space="preserve"
       style="font-style:normal;font-variant:normal;font-weight:normal;font-stretch:normal;font-size:42.80536903px;line-height:0%;font-family:'Nanum Pen Script OTF';-inkscape-font-specification:'Nanum Pen Script OTF';text-align:center;letter-spacing:0px;word-spacing:0px;text-anchor:middle;opacity:0.62599996;fill:#d0be4d;fill-opacity:1;stroke:none;stroke-width:0.61150527;filter:url(#filter1125-1);"
       x="1985.7361"
       y="1448.5387"
       id="text4246-3-7-9-5-1-6-2-1-2-03"
       transform="matrix(1.652839,0.44181846,-0.82392782,1.3977215,-1562.5452,-302.4474)"
       sodipodi:linespacing="0%"><tspan
         sodipodi:role="line"
         style="font-size:42.80536903px;line-height:1.25;fill:#d0be4d;fill-opacity:1;stroke-width:0.5040341;-inkscape-font-specification:'Nanum Pen Script OTF';font-family:'Nanum Pen Script OTF';font-weight:normal;font-style:normal;font-stretch:normal;font-variant:normal;"
         x="1985.7361"
         y="1448.5387"
         id="tspan1222-5-7-6">푸르르</tspan></text>
    <text
       xml:space="preserve"
       style="font-style:normal;font-variant:normal;font-weight:normal;font-stretch:normal;font-size:38.37899876px;line-height:0%;font-family:'Nanum Pen Script OTF';-inkscape-font-specification:'Nanum Pen Script OTF';text-align:center;letter-spacing:0px;word-spacing:0px;text-anchor:middle;opacity:0.75199998;fill:#d0be4d;fill-opacity:1;stroke:none;stroke-width:0.63964999;filter:url(#filter1125-1-1);"
       x="1985.7361"
       y="1448.5387"
       id="text4246-3-7-9-5-1-6-2-1-2-03-4"
       transform="matrix(1.5358218,0.41629511,-0.77005201,1.3826539,-1269.5728,-224.41367)"
       sodipodi:linespacing="0%"><tspan
         sodipodi:role="line"
         style="font-size:38.37899876px;line-height:1.25;fill:#d0be4d;fill-opacity:1;stroke-width:0.52723247;-inkscape-font-specification:'Nanum Pen Script OTF';font-family:'Nanum Pen Script OTF';font-weight:normal;font-style:normal;font-stretch:normal;font-variant:normal;"
         x="1985.7361"
         y="1448.5387"
         id="tspan1222-5-7-6-7">푸르르르</tspan></text>
    <text
       xml:space="preserve"
       style="font-style:normal;font-variant:normal;font-weight:normal;font-stretch:normal;font-size:59.99999945px;line-height:0%;font-family:'Nanum Pen Script OTF';-inkscape-font-specification:'Nanum Pen Script OTF';text-align:center;letter-spacing:0px;word-spacing:0px;text-anchor:middle;fill:#d5b179;fill-opacity:1;stroke:none;stroke-width:1;"
       x="1044.0333"
       y="3546.3018"
       id="text4246-3-7-9-5-1-6-2-1-8-3-6"
       transform="matrix(1.2153283,-0.20092692,-0.10269811,0.83980175,0,0)"><tspan
         sodipodi:role="line"
         style="font-size:59.99999945px;line-height:1.25;fill:#d5b179;fill-opacity:1;stroke-width:0.82425153;-inkscape-font-specification:'Nanum Pen Script OTF';font-family:'Nanum Pen Script OTF';font-weight:normal;font-style:normal;font-stretch:normal;font-variant:normal;"
         x="1044.0333"
         y="3546.3018"
         id="tspan1222-5-79-6-5">!!</tspan></text>
    <path
       style="fill:#ffffff;stroke:none;stroke-width:0.99999988"
       d="m 1584.5951,2649.117 c -1.991,-34.1047 2.0654,-108.2179 218.9296,-105.5757 218.416,2.6613 236.0808,54.4024 248.52,114.5368 22.0945,106.8083 -133.1513,104.0887 -264.9432,103.6825 -180.1097,-0.5549 -204.6111,-51.0218 -202.5064,-112.6436 z"
       id="path3280-8"
       inkscape:connector-curvature="0"
       sodipodi:nodetypes="csssc" />
    <path
       style="color:#000000;display:inline;overflow:visible;visibility:visible;fill:#ffffff;fill-opacity:1;fill-rule:nonzero;stroke:none;stroke-width:0.99999994px;marker:none;enable-background:accumulate"
       d="m 1595.8004,2804.315 c 8.3375,-70.0133 78.2694,-118.8359 254.2968,-98.9843 94.2898,10.6336 201.4919,19.314 190.3752,121.9196 -11.1168,102.6056 -165.3624,94.1558 -197.3231,95.3629 -31.9609,1.2072 -197.4907,-15.8224 -225.1152,-51.9065 -17.2923,-22.5877 -23.6233,-44.6635 -22.2337,-66.3917 z"
       id="path4546"
       inkscape:connector-curvature="0"
       sodipodi:nodetypes="cssssc" />
    <path
       style="color:#000000;display:inline;overflow:visible;visibility:visible;fill:#ffffff;fill-opacity:1;fill-rule:nonzero;stroke:none;stroke-width:1px;marker:none;enable-background:accumulate"
       d="m 1483.1527,2737.5559 c 27.2189,10.6931 31.1073,9.721 39.8563,-1.9442 8.7489,-11.6652 17.4978,-31.1073 43.7446,-34.9957 26.2468,-3.8884 38.8841,5.8326 47.633,11.6652 1.9442,-18.4699 21.8114,-47.3326 13.0625,-58.0257 -8.7489,-10.6932 23.8774,9.4206 23.8774,9.4206 0,0 8.749,47.633 -7.7768,65.1309 -16.5257,17.4978 -53.4656,-4.8605 -71.9356,-4.8605 -18.4699,0 -32.0794,26.2467 -46.6609,29.163 -14.5816,2.9163 -30.1352,-7.7768 -41.8005,-15.5536 z"
       id="path4538-7"
       inkscape:connector-curvature="0"
       sodipodi:nodetypes="ccscccsscc" />
  </g>
  <g
     inkscape:groupmode="layer"
     id="layer1"
     inkscape:label="txt"
     style="display:inline">
    <text
       xml:space="preserve"
       style="font-style:normal;font-variant:normal;font-weight:normal;font-stretch:normal;font-size:88.58802795px;line-height:0%;font-family:'Nanum Pen Script OTF';-inkscape-font-specification:'Nanum Pen Script OTF';text-align:center;letter-spacing:0px;word-spacing:0px;text-anchor:middle;fill:#000000;fill-opacity:1;stroke:#000000;stroke-width:1.99323058;stroke-miterlimit:4;stroke-dasharray:none;stroke-opacity:1"
       x="1005.2173"
       y="210.55745"
       id="text4246-3-7-9-5-1-6-2"
       transform="matrix(0.92840736,0,-0.16338778,1.0771134,0,0)"
       sodipodi:linespacing="0%"><tspan
         sodipodi:role="line"
         style="font-style:normal;font-variant:normal;font-weight:normal;font-stretch:normal;font-size:88.58802795px;line-height:1.25;font-family:'Nanum Pen Script OTF';-inkscape-font-specification:'Nanum Pen Script OTF';stroke:#000000;stroke-width:1.99323058;stroke-miterlimit:4;stroke-dasharray:none;stroke-opacity:1"
         x="1005.2173"
         y="210.55745"
         id="tspan1222">당근!</tspan></text>
    <text
       xml:space="preserve"
       style="font-style:normal;font-variant:normal;font-weight:normal;font-stretch:normal;line-height:100%;font-family:'Nanum Pen Script OTF';-inkscape-font-specification:'Nanum Pen Script OTF';text-align:center;letter-spacing:0px;word-spacing:0px;text-anchor:middle;fill:#000000;fill-opacity:1;stroke:none;font-size:60px;"
       x="1093.1595"
       y="302.54266"
       id="text4246-7-6-1-7-6"
       sodipodi:linespacing="100%"><tspan
         sodipodi:role="line"
         style="font-size:60px;line-height:100%;-inkscape-font-specification:'Nanum Pen Script OTF';font-family:'Nanum Pen Script OTF';font-weight:normal;font-style:normal;font-stretch:normal;font-variant:normal;"
         x="1093.1595"
         y="302.54266"
         id="tspan852">조금 있다가 백리향이랑,</tspan><tspan
         sodipodi:role="line"
         style="font-size:60px;line-height:100%;-inkscape-font-specification:'Nanum Pen Script OTF';font-family:'Nanum Pen Script OTF';font-weight:normal;font-style:normal;font-stretch:normal;font-variant:normal;"
         x="1093.1595"
         y="362.07614"
         id="tspan3462">카옌이랑 커민 대모님들</tspan><tspan
         sodipodi:role="line"
         style="font-size:60px;line-height:100%;-inkscape-font-specification:'Nanum Pen Script OTF';font-family:'Nanum Pen Script OTF';font-weight:normal;font-style:normal;font-stretch:normal;font-variant:normal;"
         x="1093.1595"
         y="421.60965"
         id="tspan3464">모시고 돌아올 거야.</tspan></text>
    <text
       xml:space="preserve"
       style="font-style:normal;font-variant:normal;font-weight:normal;font-stretch:normal;line-height:100%;font-family:'Nanum Pen Script OTF';-inkscape-font-specification:'Nanum Pen Script OTF';text-align:center;letter-spacing:0px;word-spacing:0px;text-anchor:middle;fill:#000000;fill-opacity:1;stroke:none;font-size:60px;"
       x="1275.0027"
       y="516.82874"
       id="text4246-7-6-1-7-6-3"
       sodipodi:linespacing="100%"><tspan
         sodipodi:role="line"
         style="font-size:60px;line-height:100%;-inkscape-font-specification:'Nanum Pen Script OTF';font-family:'Nanum Pen Script OTF';font-weight:normal;font-style:normal;font-stretch:normal;font-variant:normal;"
         x="1275.0027"
         y="516.82874"
         id="tspan894">내가 올 때까지</tspan><tspan
         sodipodi:role="line"
         style="font-size:60px;line-height:100%;-inkscape-font-specification:'Nanum Pen Script OTF';font-family:'Nanum Pen Script OTF';font-weight:normal;font-style:normal;font-stretch:normal;font-variant:normal;"
         x="1275.0027"
         y="576.36224"
         id="tspan3483">저 나무에다</tspan><tspan
         sodipodi:role="line"
         style="font-size:60px;line-height:100%;-inkscape-font-specification:'Nanum Pen Script OTF';font-family:'Nanum Pen Script OTF';font-weight:normal;font-style:normal;font-stretch:normal;font-variant:normal;"
         x="1275.0027"
         y="635.89569"
         id="tspan3479">아무 짓도 하지 마,</tspan><tspan
         sodipodi:role="line"
         style="font-size:60px;line-height:100%;-inkscape-font-specification:'Nanum Pen Script OTF';font-family:'Nanum Pen Script OTF';font-weight:normal;font-style:normal;font-stretch:normal;font-variant:normal;"
         x="1275.0027"
         y="695.4292"
         id="tspan3481">알겠지?</tspan></text>
    <text
       xml:space="preserve"
       style="font-style:normal;font-variant:normal;font-weight:normal;font-stretch:normal;line-height:100%;font-family:'Nanum Pen Script OTF';-inkscape-font-specification:'Nanum Pen Script OTF';text-align:center;letter-spacing:0px;word-spacing:0px;text-anchor:middle;fill:#000000;fill-opacity:1;stroke:none;font-size:60px;"
       x="473.20154"
       y="2303.4502"
       id="text4246-7-6-1-7-6-3-5"
       sodipodi:linespacing="100%"><tspan
         sodipodi:role="line"
         style="font-size:60px;line-height:100%;-inkscape-font-specification:'Nanum Pen Script OTF';font-family:'Nanum Pen Script OTF';font-weight:normal;font-style:normal;font-stretch:normal;font-variant:normal;"
         x="473.20154"
         y="2303.4502"
         id="tspan980">그래, 금방</tspan><tspan
         sodipodi:role="line"
         style="font-size:60px;line-height:100%;-inkscape-font-specification:'Nanum Pen Script OTF';font-family:'Nanum Pen Script OTF';font-weight:normal;font-style:normal;font-stretch:normal;font-variant:normal;"
         x="481.11169"
         y="2362.9836"
         id="tspan3495">갔다 올게! </tspan></text>
    <text
       xml:space="preserve"
       style="font-style:normal;font-variant:normal;font-weight:normal;font-stretch:normal;line-height:100%;font-family:'Nanum Pen Script OTF';-inkscape-font-specification:'Nanum Pen Script OTF';text-align:center;letter-spacing:0px;word-spacing:0px;text-anchor:middle;fill:#000000;fill-opacity:1;stroke:none;font-size:60px;"
       x="1817.5999"
       y="2620.9868"
       id="text4246-7-6-1-7-6-3-5-6"
       sodipodi:linespacing="100%"><tspan
         sodipodi:role="line"
         style="font-size:60px;line-height:100%;-inkscape-font-specification:'Nanum Pen Script OTF';font-family:'Nanum Pen Script OTF';font-weight:normal;font-style:normal;font-stretch:normal;font-variant:normal;"
         x="1817.5999"
         y="2620.9868"
         id="tspan783">놀랄 준비들 하세요!</tspan><tspan
         sodipodi:role="line"
         style="font-size:60px;line-height:100%;-inkscape-font-specification:'Nanum Pen Script OTF';font-family:'Nanum Pen Script OTF';font-weight:normal;font-style:normal;font-stretch:normal;font-variant:normal;"
         x="1817.5999"
         y="2680.5203"
         id="tspan775">날이면 날마다 오는 게</tspan><tspan
         sodipodi:role="line"
         style="font-size:60px;line-height:100%;-inkscape-font-specification:'Nanum Pen Script OTF';font-family:'Nanum Pen Script OTF';font-weight:normal;font-style:normal;font-stretch:normal;font-variant:normal;"
         x="1817.5999"
         y="2740.0537"
         id="tspan3510">아니에요.</tspan></text>
    <text
       xml:space="preserve"
       style="font-style:normal;font-variant:normal;font-weight:normal;font-stretch:normal;line-height:100%;font-family:Lavi;-inkscape-font-specification:Lavi;text-align:center;letter-spacing:0px;word-spacing:0px;text-anchor:middle;fill:#000000;fill-opacity:1;stroke:none"
       x="1824.8314"
       y="2810.2251"
       id="text4246-7-6-1-7-6-3-5-6-4"
       sodipodi:linespacing="100%"><tspan
         sodipodi:role="line"
         style="font-style:normal;font-variant:normal;font-weight:normal;font-stretch:normal;font-size:60px;line-height:100%;font-family:'Nanum Pen Script OTF';-inkscape-font-specification:'Nanum Pen Script OTF'"
         x="1833.2103"
         y="2810.2251"
         id="tspan1458-4">절 따라 </tspan><tspan
         sodipodi:role="line"
         style="font-style:normal;font-variant:normal;font-weight:normal;font-stretch:normal;font-size:60px;line-height:100%;font-family:'Nanum Pen Script OTF';-inkscape-font-specification:'Nanum Pen Script OTF'"
         x="1824.8314"
         y="2870.2251"
         id="tspan1454-4">위층으로 올라오시면...</tspan></text>
    <text
       xml:space="preserve"
       style="font-style:normal;font-variant:normal;font-weight:normal;font-stretch:normal;font-size:59.05511093px;line-height:0%;font-family:'Nanum Pen Script OTF';-inkscape-font-specification:'Nanum Pen Script OTF';text-align:center;letter-spacing:0px;word-spacing:0px;text-anchor:middle;fill:#653b1f;fill-opacity:1;stroke:none;stroke-width:0.32808393;stroke-miterlimit:4;stroke-dasharray:none;stroke-opacity:1;filter:url(#filter1125-2)"
       x="1985.7361"
       y="1448.5387"
       id="text4246-3-7-9-5-1-6-2-1-2-9"
       transform="matrix(2.2681941,-0.50718946,-0.11737257,2.1936407,-2300.5173,-691.48534)"
       inkscape:transform-center-x="-20.213916"
       inkscape:transform-center-y="27.993219"
       sodipodi:linespacing="0%"><tspan
         sodipodi:role="line"
         style="font-style:normal;font-variant:normal;font-weight:normal;font-stretch:normal;font-size:59.05511093px;line-height:1.25;font-family:'Nanum Pen Script OTF';-inkscape-font-specification:'Nanum Pen Script OTF';fill:#653b1f;fill-opacity:1;stroke:none;stroke-width:0.32808393;stroke-miterlimit:4;stroke-dasharray:none;stroke-opacity:1"
         x="1985.7361"
         y="1448.5387"
         id="tspan1222-5-7-7">슈우욱!!</tspan></text>
  </g>
</svg>
