<?xml version="1.0" encoding="UTF-8" standalone="no"?>
<svg
   xmlns:dc="http://purl.org/dc/elements/1.1/"
   xmlns:cc="http://creativecommons.org/ns#"
   xmlns:rdf="http://www.w3.org/1999/02/22-rdf-syntax-ns#"
   xmlns:svg="http://www.w3.org/2000/svg"
   xmlns="http://www.w3.org/2000/svg"
   xmlns:xlink="http://www.w3.org/1999/xlink"
   xmlns:sodipodi="http://sodipodi.sourceforge.net/DTD/sodipodi-0.dtd"
   xmlns:inkscape="http://www.inkscape.org/namespaces/inkscape"
   sodipodi:docname="E29P04.svg"
   height="3503"
   width="2481"
   inkscape:version="1.0 (4035a4fb49, 2020-05-01)"
   version="1.1"
   id="svg2">
  <metadata
     id="metadata8">
    <rdf:RDF>
      <cc:Work
         rdf:about="">
        <dc:format>image/svg+xml</dc:format>
        <dc:type
           rdf:resource="http://purl.org/dc/dcmitype/StillImage" />
        <dc:title />
      </cc:Work>
    </rdf:RDF>
  </metadata>
  <defs
     id="defs6">
    <filter
       inkscape:label="deevad outline effect"
       id="filter4375-4-1-1-1-9"
       style="color-interpolation-filters:sRGB">
      <feFlood
         result="flood"
         flood-color="rgb(0,0,0)"
         flood-opacity="1"
         id="feFlood4377-7-9-0-8-1" />
      <feComposite
         result="composite1"
         operator="in"
         in="flood"
         in2="SourceGraphic"
         id="feComposite4379-3-8-8-2-77" />
      <feMorphology
         result="result3"
         radius="3.5"
         operator="dilate"
         id="feMorphology4393-1-0-49-8-9" />
      <feComposite
         result="composite2"
         operator="over"
         in="SourceGraphic"
         in2="result3"
         id="feComposite4385-9-5-7-0-8" />
    </filter>
  </defs>
  <sodipodi:namedview
     inkscape:document-rotation="0"
     inkscape:snap-global="false"
     inkscape:current-layer="layer3"
     inkscape:window-maximized="1"
     inkscape:window-y="-8"
     inkscape:window-x="-8"
     inkscape:cy="901.34994"
     inkscape:cx="1777.3629"
     inkscape:zoom="0.33895692"
     showgrid="false"
     id="namedview4"
     inkscape:window-height="715"
     inkscape:window-width="1366"
     inkscape:pageshadow="2"
     inkscape:pageopacity="0"
     guidetolerance="10"
     gridtolerance="10"
     objecttolerance="10"
     borderopacity="1"
     bordercolor="#666666"
     pagecolor="#ffffff" />
  <g
     sodipodi:insensitive="true"
     inkscape:label="artwork"
     id="layer2"
     inkscape:groupmode="layer">
    <image
       sodipodi:absref="E:\Aslan's Works\2. Personal Projects\1. Pepper&amp;Carrot Translation\Episode 29\lang\gfx_Pepper-and-Carrot_by-David-Revoy_E29P04.png"
       xlink:href="../gfx_Pepper-and-Carrot_by-David-Revoy_E29P04.png"
       width="2481"
       height="3503"
       id="image10"
       x="0"
       y="0" />
  </g>
  <g
     inkscape:label="speechbubbles"
     id="layer3"
     inkscape:groupmode="layer">
    <path
       sodipodi:nodetypes="zssssz"
       inkscape:connector-curvature="0"
       id="path4040-4-0"
       d="m 1747.0092,129.9164 c 33.7996,-18.8721 474.1459,-30.509914 535.2312,10.2865 38.7625,25.88785 23.5955,123.78943 -25.8983,142.54889 -58.249,22.0779 -383.8083,16.09462 -465.6866,3.78839 -77.8988,-11.70814 -80.7765,-51.8108 -84.7052,-90.76835 -1.6034,-15.90016 7.2592,-46.98327 41.0589,-65.85543 z"
       style="color:#000000;display:inline;overflow:visible;visibility:visible;fill:#ffffff;fill-opacity:1;fill-rule:nonzero;stroke:none;stroke-width:0.99999994px;marker:none;enable-background:accumulate" />
    <path
       sodipodi:nodetypes="cscccc"
       inkscape:connector-curvature="0"
       id="path3063"
       d="m 2131.7915,445.1527 c 52.0797,-62.97217 40.5599,-106.89763 -10.3849,-161.57773 -30.8676,-33.13074 -53.0957,-49.56362 -53.0957,-49.56362 l 44.4365,-11.17106 49.9606,31.26438 c 0,0 89.2487,110.10775 -30.9165,191.04803 z"
       style="fill:#ffffff;stroke:none" />
    <path
       sodipodi:nodetypes="csccssc"
       inkscape:connector-curvature="0"
       id="path4546-6"
       d="m 1652.25,970.18403 c 1.5608,-28.03525 -4.2978,-61.11181 37.2797,-104.65775 29.6012,-31.00266 63.4981,-31.09877 187.9702,-33.22158 114.834,-4.42675 214.5898,55.05462 182.3091,156.37916 -3.5417,82.08904 -146.5433,74.32644 -176.4264,77.69654 -29.8831,3.3702 -173.1697,2.3888 -201.4881,-24.0982 -17.7267,-16.58 -29.4902,-37.8236 -29.6445,-72.09817 z"
       style="color:#000000;display:inline;overflow:visible;visibility:visible;fill:#ffffff;fill-opacity:1;fill-rule:nonzero;stroke:none;stroke-width:1px;marker:none;enable-background:accumulate" />
    <path
       inkscape:connector-curvature="0"
       id="path3072"
       d="m 2058.949,780.54364 c 9.1284,42.15323 9.9229,57.84514 -32.0252,91.28724 -41.9482,33.44204 -30.1382,47.46229 -30.1382,47.46229 l 35.2785,-4.99268 c 0,0 84.878,-77.03313 26.8849,-133.75685 z"
       style="color:#000000;display:inline;overflow:visible;visibility:visible;fill:#ffffff;fill-opacity:1;fill-rule:nonzero;stroke:none;stroke-width:1px;marker:none;enable-background:accumulate" />
    <path
       sodipodi:nodetypes="zssssz"
       inkscape:connector-curvature="0"
       id="path4040"
       d="m 740.40042,180.77898 c 23.04773,-35.34082 217.59699,-73.70115 285.97408,-0.87112 68.3771,72.83004 26.9024,160.22615 -12.3304,188.03391 -39.23269,27.80788 -154.68902,58.26407 -207.37291,34.42878 -52.684,-23.83529 -93.72146,-59.46442 -96.40046,-132.41826 -1.09339,-29.77538 7.08185,-53.83237 30.12969,-89.17331 z"
       style="color:#000000;display:inline;overflow:visible;visibility:visible;fill:#ffffff;fill-opacity:1;fill-rule:nonzero;stroke:none;stroke-width:0.97763973px;marker:none;enable-background:accumulate" />
    <path
       sodipodi:nodetypes="ccccc"
       inkscape:connector-curvature="0"
       id="path3072-1"
       d="m 927.43282,520.21555 c 19.56717,-37.91334 24.33095,-91.92051 -16.62461,-116.94423 -32.00795,-36.20829 -9.67863,-17.32971 -9.67863,-17.32971 l 32.39871,9.54307 c 0,0 63.63839,61.67926 -6.09547,124.73087 z"
       style="color:#000000;display:inline;overflow:visible;visibility:visible;fill:#ffffff;fill-opacity:1;fill-rule:nonzero;stroke:none;stroke-width:1px;marker:none;enable-background:accumulate" />
    <path
       sodipodi:nodetypes="ccccccccccccccccccccccccccccccc"
       inkscape:connector-curvature="0"
       id="path4367"
       d="m 486.03269,429.00909 c -11.78237,3.45864 -26.01828,-0.74899 -34.57607,-8.15263 -7.08075,-6.68721 -17.01074,-13.3491 -17.7254,-21.98808 -0.78596,-9.91947 5.94499,-20.77271 -3.71288,-30.02739 -13.46238,-8.53432 -21.51604,-13.91901 -21.93366,-27.44905 -0.49458,-11.53162 5.57886,-22.67415 13.3064,-30.91503 6.46417,-5.69346 3.23184,-13.76292 -2.09911,-19.92549 -5.60383,-9.86661 -9.69639,-22.86862 0.75239,-30.68782 6.77543,-3.72535 14.18016,-5.01355 14.81032,-12.81183 1.74931,-10.85262 -6.17753,-20.78415 -7.49577,-31.53175 -6.3628,-10.72007 -2.8158,-39.81777 3.97176,-48.54931 5.04743,-6.06044 9.4892,-13.78623 21.16176,-13.93988 19.78178,-4.26035 47.13873,-2.23397 58.0381,-14.54687 7.12631,-6.99684 11.66176,-17.02823 25.03867,-18.85348 15.57743,-2.47843 30.87547,10.42367 45.07772,15.18682 13.85078,-10.36049 38.82264,-8.81162 46.36526,1.57953 4.18125,5.86329 23.50859,31.58085 24.60387,38.10889 4.07654,13.01954 -8.46305,35.1769 3.00617,46.49479 12.21903,8.19818 7.02444,27.91799 4.47032,38.44049 -3.66397,8.3406 2.16895,17.01373 3.53145,25.64816 2.3945,9.20505 -5.21523,19.20189 -3.36057,28.40299 5.23226,13.78778 11.10413,26.16521 6.10877,40.43019 -1.94079,12.46165 -3.38695,17.57342 -16.19914,24.41239 -4.18961,3.06174 -6.5178,8.81564 -7.63289,13.5487 -3.89219,11.6257 -7.1651,17.31781 -17.10219,27.30395 -8.57523,7.39843 -24.28097,9.1082 -37.41406,5.25094 -10.18808,-1.82229 -21.37158,-8.10109 -31.26965,-5.67643 -12.7847,5.27537 -16.21615,22.49725 -32.82987,20.94606 -8.87349,-0.86603 -15.42343,-6.38555 -24.05201,-7.97123 -4.21484,-1.11979 -8.51324,-2.00888 -12.83953,-2.72723 z"
       style="fill:#ffffff;fill-opacity:1;fill-rule:evenodd;stroke:none;stroke-width:1px;stroke-linecap:butt;stroke-linejoin:miter;stroke-opacity:1" />
    <path
       inkscape:transform-center-y="102.37524"
       inkscape:transform-center-x="-13.368944"
       sodipodi:nodetypes="csssscssssssc"
       inkscape:connector-curvature="0"
       id="path3023"
       d="m 481.33413,569.27983 c -26.16799,-11.86997 -29.23382,-39.59074 -20.73941,-48.80022 8.49436,-9.2095 12.7305,-19.1347 12.40759,-27.59531 -0.32293,-8.46061 -5.50646,-17.21425 -10.12026,-24.21281 -4.61385,-6.99861 0.88784,-16.71803 5.41776,-24.19003 4.52995,-7.47208 25.74725,-46.21168 25.74725,-46.21168 0,0 -33.81232,12.14437 -40.8764,20.86652 -7.0641,8.72215 -8.88284,16.10827 -10.78771,20.43039 -1.90487,4.32223 -5.43175,20.28888 -2.44001,28.74234 2.99167,8.45347 10.76629,15.12526 14.36709,20.98686 3.60084,5.86151 2.03948,12.29665 -2.9751,20.77153 -5.01458,8.47491 -9.53561,29.71668 2.24235,44.7525 6.98238,8.91376 16.67122,13.76389 27.75685,14.45991 z"
       style="fill:#ffffff;stroke:none;stroke-width:1" />
    <path
       sodipodi:nodetypes="ccccccccccccccccccccccc"
       inkscape:connector-curvature="0"
       id="path4367-3"
       d="m 150.66487,254.89791 c -5.79206,-8.3218 1.39884,-18.7638 7.13211,-22.4599 6.42753,-6.8744 14.68565,-6.8194 22.40363,-6.3027 7.67766,1.352 13.30603,-5.27 18.29141,-12.1154 7.89065,-8.8817 19.3479,-11.9296 28.65929,-5.4527 6.92028,4.415 14.92276,9.8428 22.50809,4.778 9.04582,-5.1258 20.56004,-9.611 29.29148,-1.1515 6.21125,9.8244 16.52363,5.6471 24.12218,1.7701 9.75981,-4.5481 20.44142,-7.3093 30.52218,-2.8986 6.68399,2.5816 14.9733,3.8416 18.27081,13.568 3.98009,10.6522 8.26193,23.368 17.58319,26.5604 6.59787,2.7568 16.08895,4.4272 17.74994,15.516 -0.19334,9.8954 -3.68675,19.6529 -6.86389,28.2714 -9.39343,11.1665 -23.80101,2.5793 -35.73026,5.6713 -7.8,1.9912 -14.19832,13.88684 -27.23653,15.42663 -18.05433,2.57938 -21.72666,-7.09909 -32.68569,-2.35549 -12.92394,4.4331 -16.45515,-0.91191 -28.70038,7.06989 -13.94377,7.417 -30.3487,5.0132 -42.5837,-6.9075 -5.25111,-5.9244 -17.54194,2.19307 -24.22848,3.32597 -8.93158,0.3998 -13.51391,2.3025 -20.11112,-7.8758 -5.28858,-7.2593 -3.86593,-4.964 -7.3887,-13.0375 -3.68296,-7.9711 -12.23691,-9.7059 -14.80815,-19.1363 -1.96953,-7.794 4.86047,-14.1129 3.80259,-22.2643 z"
       style="fill:#ffffff;fill-opacity:1;fill-rule:evenodd;stroke:none;stroke-width:1px;stroke-linecap:butt;stroke-linejoin:miter;stroke-opacity:1" />
    <path
       sodipodi:nodetypes="csssssssc"
       inkscape:connector-curvature="0"
       id="path4272"
       d="m 309.34922,457.71798 c -15.64979,-24.8542 8.77501,-47.91607 8.58626,-62.92677 -0.19481,-15.49635 -40.69805,-21.31418 -41.62679,-35.6781 -0.92874,-14.36402 24.25197,-42.90833 22.3945,-65.352 -1.85748,-22.44378 -33.11728,-22.62637 -30.33094,3.4084 2.78634,26.03475 -20.58525,41.20496 -15.67743,61.79602 8.18516,34.34048 37.35935,31.20382 47.00302,40.86297 6.38476,6.395 -4.2802,22.87728 -1.49386,38.139 2.78634,15.26172 11.14524,19.75048 11.14524,19.75048 z"
       style="opacity:1;fill:#ffffff;fill-rule:evenodd;stroke:none;stroke-width:0.99999994px;stroke-linecap:butt;stroke-linejoin:miter;stroke-opacity:1" />
    <path
       sodipodi:nodetypes="zsssssssz"
       inkscape:connector-curvature="0"
       id="path3373"
       d="m 2035.1564,976.92632 c -1.1672,-24.73089 16.6147,-61.85257 50.2071,-77.22508 49.8989,-22.8346 74.6672,-13.56392 116.8754,-12.51338 39.2085,0.97588 101.9598,8.77471 134.9028,36.28284 25.4856,21.28103 41.1629,54.54784 35.3263,80.5277 -5.8363,25.9797 -22.0937,60.9378 -65.7662,68.1046 -46.8391,7.6864 -124.9252,1.1782 -169.5721,2.5716 -39.9311,1.2462 -64.201,-7.6412 -85.2121,-25.9799 -21.3011,-18.5917 -15.5938,-47.0376 -16.7612,-71.76838 z"
       style="color:#000000;display:inline;overflow:visible;visibility:visible;fill:#ffffff;fill-opacity:1;fill-rule:nonzero;stroke:none;stroke-width:1.09947145px;marker:none;enable-background:accumulate" />
    <path
       sodipodi:nodetypes="cccccccccccc"
       inkscape:connector-curvature="0"
       id="path4584"
       d="m 899.94866,1223.5898 c 35.45272,3.4907 87.36719,-13.0192 58.70518,-65.5744 56.55256,26.313 102.88426,45.8066 191.74326,-27.7326 -7.5202,81.4659 32.927,73.8546 69.391,58.2141 -34.9953,27.4139 27.8226,43.1229 61.613,44.6628 -71.4804,59.2943 -32.9699,67.3435 -0.9035,76.7065 -64.3968,-3.5532 -58.1345,32.0871 -45.0701,52.0996 -60.2623,-42.8941 -145.0466,-17.5824 -135.7844,12.5816 -26.8851,-17.3709 -48.1726,-64.3702 -114.92732,4.554 24.54742,-59.5014 -7.62876,-53.2559 -59.72234,-23.9247 8.16419,-20.2671 56.68773,-51.086 -25.04478,-47.8499 51.0516,-19.2669 61.75739,-45.3663 0,-83.737 z"
       style="fill:#ffffff;fill-rule:evenodd;stroke:none;stroke-width:0.99999994px;stroke-linecap:butt;stroke-linejoin:miter;stroke-opacity:1" />
    <path
       sodipodi:nodetypes="cccccccc"
       inkscape:connector-curvature="0"
       id="path4456"
       d="m 1284.4552,1484.7539 c -74.0623,-16.7815 -162.4554,-85.4407 -173.3256,-102.2336 5.7646,-4.0191 72.5018,-4.3109 72.5018,-4.3109 -25.8476,-20.7242 -129.727,-70.2911 -122.0213,-64.8466 -4.5243,-14.4638 68.3453,-13.6441 68.3453,-13.6441 0,0 96.3576,81.9196 112.2383,92.2829 -16.3671,10.5299 -65.2194,8.0221 -73.0419,9.9521 2.0894,11.1694 89.3696,76.2156 115.3034,82.8002 z"
       style="color:#000000;display:inline;overflow:visible;visibility:visible;fill:#ffffff;fill-opacity:1;fill-rule:nonzero;stroke:none;stroke-width:1px;marker:none;enable-background:accumulate" />
  </g>
  <g
     inkscape:label="txt"
     id="layer1"
     inkscape:groupmode="layer">
    <text
       id="text4246"
       y="274.97723"
       x="261.90179"
       style="font-style:normal;font-variant:normal;font-weight:normal;font-stretch:normal;line-height:0%;font-family:Midan;-inkscape-font-specification:Midan;text-align:center;letter-spacing:0px;word-spacing:0px;text-anchor:middle;fill:#000000;fill-opacity:1;stroke:none"
       xml:space="preserve"><tspan
         id="tspan4252"
         y="274.97723"
         x="261.90179"
         style="font-style:normal;font-variant:normal;font-weight:normal;font-stretch:normal;font-size:56px;line-height:1.2;font-family:Midan;-inkscape-font-specification:Midan;direction:rtl"
         sodipodi:role="line">ایوای نه!</tspan></text>
    <text
       id="text4246-3"
       y="231.3374"
       x="545.52008"
       style="font-style:normal;font-variant:normal;font-weight:normal;font-stretch:normal;line-height:0%;font-family:Midan;-inkscape-font-specification:Midan;text-align:center;letter-spacing:0px;word-spacing:0px;text-anchor:middle;fill:#000000;fill-opacity:1;stroke:none"
       xml:space="preserve"><tspan
         id="tspan886"
         y="231.3374"
         x="545.52008"
         style="font-style:normal;font-variant:normal;font-weight:normal;font-stretch:normal;font-size:53.3333px;line-height:1;font-family:Midan;-inkscape-font-specification:Midan;direction:rtl"
         sodipodi:role="line">اَہ اَہ!</tspan><tspan
         id="tspan887"
         y="284.67075"
         x="545.52008"
         style="font-style:normal;font-variant:normal;font-weight:normal;font-stretch:normal;font-size:53.3333px;line-height:1;font-family:Midan;-inkscape-font-specification:Midan;direction:rtl"
         sodipodi:role="line">اون توی دهن</tspan><tspan
         id="tspan889"
         y="338.00406"
         x="545.52008"
         style="font-style:normal;font-variant:normal;font-weight:normal;font-stretch:normal;font-size:53.3333px;line-height:1;font-family:Midan;-inkscape-font-specification:Midan;direction:rtl"
         sodipodi:role="line">یکی بودہ! </tspan></text>
    <text
       id="text4246-9"
       y="223.5191"
       x="885.61047"
       style="font-style:normal;font-variant:normal;font-weight:normal;font-stretch:normal;font-size:64px;line-height:100%;font-family:Midan;-inkscape-font-specification:Midan;text-align:center;letter-spacing:0px;word-spacing:0px;text-anchor:middle;fill:#000000;fill-opacity:1;stroke:none"
       xml:space="preserve"><tspan
         id="tspan922"
         y="223.5191"
         x="885.61047"
         style="font-style:normal;font-variant:normal;font-weight:normal;font-stretch:normal;font-size:64px;font-family:Midan;-inkscape-font-specification:Midan;direction:rtl"
         sodipodi:role="line">ایول فلفل!</tspan><tspan
         id="tspan901"
         y="287.5191"
         x="885.61047"
         style="font-style:normal;font-variant:normal;font-weight:normal;font-stretch:normal;font-size:64px;font-family:Midan;-inkscape-font-specification:Midan;direction:rtl"
         sodipodi:role="line">مثل همیشه</tspan><tspan
         id="tspan59"
         y="351.5191"
         x="885.61047"
         style="font-style:normal;font-variant:normal;font-weight:normal;font-stretch:normal;font-size:64px;font-family:Midan;-inkscape-font-specification:Midan;direction:rtl"
         sodipodi:role="line">بی<tspan
   id="tspan61"
   style="font-size:64px;letter-spacing:-10px"> </tspan>نقص!</tspan></text>
    <text
       id="text4246-9-2"
       y="183.92598"
       x="2004.7734"
       style="font-style:normal;font-variant:normal;font-weight:normal;font-stretch:normal;line-height:0%;font-family:Midan;-inkscape-font-specification:Midan;text-align:center;letter-spacing:0px;word-spacing:0px;text-anchor:middle;fill:#000000;fill-opacity:1;stroke:none"
       xml:space="preserve"><tspan
         id="tspan926"
         y="183.92598"
         x="2004.7734"
         style="font-style:normal;font-variant:normal;font-weight:normal;font-stretch:normal;font-size:64px;line-height:1;font-family:Midan;-inkscape-font-specification:Midan;direction:rtl"
         sodipodi:role="line">خوب فلفل، خیلی ممنون</tspan><tspan
         id="tspan905"
         y="247.92598"
         x="2004.7734"
         style="font-style:normal;font-variant:normal;font-weight:normal;font-stretch:normal;font-size:64px;line-height:1;font-family:Midan;-inkscape-font-specification:Midan;direction:rtl"
         sodipodi:role="line">بابت این «توضیحاتت».</tspan></text>
    <text
       id="text4246-9-2-6"
       y="929.70392"
       x="1851.4974"
       style="font-style:normal;font-variant:normal;font-weight:normal;font-stretch:normal;line-height:0%;font-family:Midan;-inkscape-font-specification:Midan;text-align:center;letter-spacing:0px;word-spacing:0px;text-anchor:middle;fill:#000000;fill-opacity:1;stroke:none"
       xml:space="preserve"><tspan
         id="tspan913"
         y="929.70392"
         x="1851.4974"
         style="font-style:normal;font-variant:normal;font-weight:normal;font-stretch:normal;font-size:74.6667px;line-height:1;font-family:Midan;-inkscape-font-specification:Midan;direction:rtl"
         sodipodi:role="line">وقته خوابه،</tspan><tspan
         id="tspan912"
         y="1004.3706"
         x="1851.4974"
         style="font-style:normal;font-variant:normal;font-weight:normal;font-stretch:normal;font-size:74.6667px;line-height:1;font-family:Midan;-inkscape-font-specification:Midan;direction:rtl"
         sodipodi:role="line">مگه نه؟</tspan></text>
    <text
       id="text4246-3-2"
       y="965.13361"
       x="2203.3662"
       style="font-style:normal;font-variant:normal;font-weight:normal;font-stretch:normal;font-size:58.6667px;line-height:100%;font-family:Midan;-inkscape-font-specification:Midan;text-align:center;letter-spacing:0px;word-spacing:0px;text-anchor:middle;fill:#000000;fill-opacity:1;stroke:none;stroke-width:1"
       xml:space="preserve"><tspan
         id="tspan899"
         y="965.13361"
         x="2203.3662"
         style="font-style:normal;font-variant:normal;font-weight:normal;font-stretch:normal;font-size:58.6667px;font-family:Midan;-inkscape-font-specification:Midan;direction:rtl;stroke-width:1"
         sodipodi:role="line">یه نفر هم که باید</tspan><tspan
         id="tspan919"
         y="1023.8003"
         x="2203.3662"
         style="font-style:normal;font-variant:normal;font-weight:normal;font-stretch:normal;font-size:58.6667px;font-family:Midan;-inkscape-font-specification:Midan;direction:rtl;stroke-width:1"
         sodipodi:role="line">برہ دستاشو بشورہ!</tspan></text>
    <text
       id="text4246-9-2-6-2"
       y="1243.1737"
       x="1081.1226"
       style="font-style:normal;font-variant:normal;font-weight:normal;font-stretch:normal;font-size:64px;line-height:100%;font-family:Midan;-inkscape-font-specification:Midan;text-align:center;letter-spacing:0px;word-spacing:0px;text-anchor:middle;fill:#000000;fill-opacity:1;stroke:none"
       xml:space="preserve"><tspan
         id="tspan957"
         y="1243.1737"
         x="1081.1226"
         style="font-style:normal;font-variant:normal;font-weight:normal;font-stretch:normal;font-size:64px;font-family:Midan;-inkscape-font-specification:Midan;direction:rtl"
         sodipodi:role="line">هی! شما!</tspan><tspan
         id="tspan923"
         y="1307.1737"
         x="1081.1226"
         style="font-style:normal;font-variant:normal;font-weight:normal;font-stretch:normal;font-size:64px;font-family:Midan;-inkscape-font-specification:Midan;direction:rtl"
         sodipodi:role="line">صبر کنین!</tspan></text>
    <text
       transform="matrix(0.79017753,-0.5292546,0.38466968,1.0078897,0,0)"
       id="text4246-7"
       y="2172.8452"
       x="1401.2037"
       style="font-style:normal;font-variant:normal;font-weight:normal;font-stretch:normal;font-size:14.6235px;line-height:0%;font-family:Lavi;-inkscape-font-specification:Lavi;text-align:center;letter-spacing:0px;word-spacing:0px;text-anchor:middle;fill:#ffffff;fill-opacity:0.784314;stroke:none;stroke-width:1"
       xml:space="preserve"><tspan
         id="tspan4252-5"
         y="2172.8452"
         x="1401.2037"
         style="font-style:normal;font-variant:normal;font-weight:normal;font-stretch:normal;font-size:48px;line-height:1.2;font-family:'XP Vosta';-inkscape-font-specification:'XP Vosta';direction:rtl;fill:#ffffff;fill-opacity:0.784314;stroke-width:0.820599"
         sodipodi:role="line">پرتاب!</tspan></text>
    <text
       transform="matrix(0.80236382,-0.52121629,0.39060214,0.99258189,0,0)"
       id="text4246-7-9"
       y="2424.0427"
       x="-573.66565"
       style="font-style:normal;font-variant:normal;font-weight:normal;font-stretch:normal;font-size:11.7947px;line-height:0%;font-family:Lavi;-inkscape-font-specification:Lavi;text-align:center;letter-spacing:0px;word-spacing:0px;text-anchor:middle;fill:#ffffff;fill-opacity:0.784314;stroke:none;stroke-width:1"
       xml:space="preserve"><tspan
         id="tspan4252-5-2"
         y="2424.0427"
         x="-573.66565"
         style="font-style:normal;font-variant:normal;font-weight:normal;font-stretch:normal;font-size:42.6667px;line-height:1.2;font-family:'XP Vosta';-inkscape-font-specification:'XP Vosta';direction:rtl;fill:#ffffff;fill-opacity:0.784314;stroke-width:0.820599"
         sodipodi:role="line">تاک!</tspan></text>
    <text
       transform="matrix(1.0562812,-1.0457132,0.34852463,1.662996,-126.6695,745.02146)"
       id="text4580"
       y="1584.5073"
       x="787.65729"
       style="font-style:normal;font-variant:normal;font-weight:normal;font-stretch:normal;line-height:0%;font-family:Midan;-inkscape-font-specification:Midan;letter-spacing:0px;word-spacing:0px;fill:#000000;fill-opacity:1;stroke:none;stroke-width:0;stroke-miterlimit:4;stroke-dasharray:none;stroke-opacity:1;filter:url(#filter4375-4-1-1-1-9)"
       xml:space="preserve"><tspan
         style="font-style:normal;font-variant:normal;font-weight:normal;font-stretch:normal;font-size:51.2686px;line-height:1.25;font-family:'XP Vosta';-inkscape-font-specification:'XP Vosta';direction:rtl;fill:#ffffff;stroke:none;stroke-width:0;stroke-miterlimit:4;stroke-dasharray:none"
         y="1584.5073"
         x="787.65729"
         id="tspan4582"
         sodipodi:role="line">ترق!</tspan></text>
    <text
       transform="matrix(0.98943475,-0.09116349,0.01957156,1.0088748,0,0)"
       id="text4246-7-9-2-3"
       y="2512.405"
       x="1875.972"
       style="font-style:normal;font-variant:normal;font-weight:normal;font-stretch:normal;font-size:15.7523px;line-height:0%;font-family:Lavi;-inkscape-font-specification:Lavi;text-align:center;letter-spacing:0px;word-spacing:0px;text-anchor:middle;opacity:1;fill:#ffffff;fill-opacity:0.841808;stroke:none;stroke-width:1"
       xml:space="preserve"><tspan
         id="tspan4252-5-2-8-6"
         y="2512.405"
         x="1875.972"
         style="font-style:normal;font-variant:normal;font-weight:normal;font-stretch:normal;font-size:96px;line-height:1.2;font-family:Midan;-inkscape-font-specification:Midan;direction:rtl;fill:#ffffff;fill-opacity:0.841808;stroke-width:0.820599"
         sodipodi:role="line">?</tspan></text>
    <text
       transform="matrix(0.80236382,-0.52121629,0.39060214,0.99258189,0,0)"
       id="text4246-7-9-4"
       y="2548.2424"
       x="-329.15286"
       style="font-style:normal;font-variant:normal;font-weight:normal;font-stretch:normal;font-size:11.7947px;line-height:0%;font-family:Lavi;-inkscape-font-specification:Lavi;text-align:center;letter-spacing:0px;word-spacing:0px;text-anchor:middle;fill:#ffffff;fill-opacity:0.784314;stroke:none;stroke-width:1"
       xml:space="preserve"><tspan
         id="tspan4252-5-2-7"
         y="2548.2424"
         x="-329.15286"
         style="font-style:normal;font-variant:normal;font-weight:normal;font-stretch:normal;font-size:42.6667px;line-height:1.2;font-family:'XP Vosta';-inkscape-font-specification:'XP Vosta';direction:rtl;fill:#ffffff;fill-opacity:0.784314;stroke-width:0.820599"
         sodipodi:role="line">تاک!</tspan></text>
  </g>
</svg>
