<?xml version="1.0" encoding="UTF-8" standalone="no"?>
<svg
   xmlns:dc="http://purl.org/dc/elements/1.1/"
   xmlns:cc="http://creativecommons.org/ns#"
   xmlns:rdf="http://www.w3.org/1999/02/22-rdf-syntax-ns#"
   xmlns:svg="http://www.w3.org/2000/svg"
   xmlns="http://www.w3.org/2000/svg"
   xmlns:xlink="http://www.w3.org/1999/xlink"
   xmlns:sodipodi="http://sodipodi.sourceforge.net/DTD/sodipodi-0.dtd"
   xmlns:inkscape="http://www.inkscape.org/namespaces/inkscape"
   sodipodi:docname="E33P06.svg"
   height="3503"
   width="2481"
   inkscape:version="0.92.4 (5da689c313, 2019-01-14)"
   version="1.1"
   id="svg2">
  <metadata
     id="metadata8">
    <rdf:RDF>
      <cc:Work
         rdf:about="">
        <dc:format>image/svg+xml</dc:format>
        <dc:type
           rdf:resource="http://purl.org/dc/dcmitype/StillImage" />
        <dc:title />
      </cc:Work>
    </rdf:RDF>
  </metadata>
  <defs
     id="defs6">
    <filter
       x="-0.14"
       width="1.22"
       height="1.38"
       inkscape:label="magic-numbers_orange"
       id="filter4375-4-1-1-1-9-5-8-8-3-3-3-6-1"
       style="color-interpolation-filters:sRGB">
      <feFlood
         radius="5.0999999999999996"
         result="flood"
         flood-color="rgb(216,88,33)"
         flood-opacity="1"
         id="feFlood4377-7-9-0-8-1-7-3-1-6-61-6-2-0" />
      <feComposite
         baseFrequency="0.053999999999999999 0.053999999999999999"
         result="composite1"
         operator="in"
         in="flood"
         in2="SourceGraphic"
         id="feComposite4379-3-8-8-2-77-4-1-0-7-2-7-6-6" />
      <feMorphology
         result="result3"
         radius="0.96959439099754563"
         operator="dilate"
         id="feMorphology4393-1-0-49-8-9-3-0-1-5-9-5-1-3" />
      <feComposite
         numOctaves="4"
         result="fbSourceGraphic"
         operator="over"
         in="SourceGraphic"
         in2="result3"
         id="feComposite4385-9-5-7-0-8-8-7-5-3-3-3-8-2" />
      <feColorMatrix
         id="feColorMatrix4544-9-5-1-5-7-0"
         values="0 0 0 -1 0 0 0 0 -1 0 0 0 0 -1 0 0 0 0 1 0"
         in="fbSourceGraphic"
         result="fbSourceGraphicAlpha" />
      <feTurbulence
         result="turbulence"
         baseFrequency="0.062 0.054054054054054057"
         seed="172"
         numOctaves="4.4123222748815163"
         type="fractalNoise"
         id="feTurbulence4546-3-6-9-6-9-6" />
      <feDisplacementMap
         result="fbSourceGraphic"
         xChannelSelector="R"
         yChannelSelector="G"
         scale="11.642079"
         in="fbSourceGraphic"
         in2="turbulence"
         id="feDisplacementMap4548-8-2-4-2-2-1" />
      <feColorMatrix
         scale="10.800000000000001"
         id="feColorMatrix4670-7-9-7-9-0-5"
         values="0 0 0 -1 0 0 0 0 -1 0 0 0 0 -1 0 0 0 0 1 0"
         in="fbSourceGraphic"
         result="fbSourceGraphicAlpha" />
      <feComposite
         result="composite1"
         operator="in"
         in="flood"
         in2="fbSourceGraphic"
         id="feComposite4674-8-2-4-1-2-5" />
      <feGaussianBlur
         result="blur"
         stdDeviation="0.01"
         in="composite1"
         id="feGaussianBlur4676-3-7-50-2-3-4" />
      <feOffset
         result="offset"
         dy="5.2374444725016502"
         dx="-0.42771311737301687"
         id="feOffset4678-6-0-3-7-7-7" />
      <feComposite
         result="composite2"
         operator="over"
         in="fbSourceGraphic"
         in2="offset"
         id="feComposite4680-4-9-6-0-5-6" />
      <feGaussianBlur
         stdDeviation="0.01"
         id="feGaussianBlur58-9-9-5" />
      <feOffset
         dx="0"
         dy="0"
         id="feOffset60-3-2-6" />
    </filter>
    <filter
       style="color-interpolation-filters:sRGB"
       id="filter4375-4-1-1-1-9-5-8-8-3-3-3-6-1-3"
       inkscape:label="magic-numbers_orange"
       height="1.38"
       width="1.22"
       x="-0.14">
      <feFlood
         id="feFlood4377-7-9-0-8-1-7-3-1-6-61-6-2-0-6"
         flood-opacity="1"
         flood-color="rgb(216,88,33)"
         result="flood"
         radius="5.0999999999999996" />
      <feComposite
         id="feComposite4379-3-8-8-2-77-4-1-0-7-2-7-6-6-7"
         in2="SourceGraphic"
         in="flood"
         operator="in"
         result="composite1"
         baseFrequency="0.053999999999999999 0.053999999999999999" />
      <feMorphology
         id="feMorphology4393-1-0-49-8-9-3-0-1-5-9-5-1-3-5"
         operator="dilate"
         radius="0.96959439099754563"
         result="result3" />
      <feComposite
         id="feComposite4385-9-5-7-0-8-8-7-5-3-3-3-8-2-3"
         in2="result3"
         in="SourceGraphic"
         operator="over"
         result="fbSourceGraphic"
         numOctaves="4" />
      <feColorMatrix
         result="fbSourceGraphicAlpha"
         in="fbSourceGraphic"
         values="0 0 0 -1 0 0 0 0 -1 0 0 0 0 -1 0 0 0 0 1 0"
         id="feColorMatrix4544-9-5-1-5-7-0-5" />
      <feTurbulence
         id="feTurbulence4546-3-6-9-6-9-6-6"
         type="fractalNoise"
         numOctaves="4.4123222748815163"
         seed="172"
         baseFrequency="0.062 0.054054054054054057"
         result="turbulence" />
      <feDisplacementMap
         id="feDisplacementMap4548-8-2-4-2-2-1-2"
         in2="turbulence"
         in="fbSourceGraphic"
         scale="11.642079"
         yChannelSelector="G"
         xChannelSelector="R"
         result="fbSourceGraphic" />
      <feColorMatrix
         result="fbSourceGraphicAlpha"
         in="fbSourceGraphic"
         values="0 0 0 -1 0 0 0 0 -1 0 0 0 0 -1 0 0 0 0 1 0"
         id="feColorMatrix4670-7-9-7-9-0-5-9"
         scale="10.800000000000001" />
      <feComposite
         id="feComposite4674-8-2-4-1-2-5-1"
         in2="fbSourceGraphic"
         in="flood"
         operator="in"
         result="composite1" />
      <feGaussianBlur
         id="feGaussianBlur4676-3-7-50-2-3-4-2"
         in="composite1"
         stdDeviation="0.01"
         result="blur" />
      <feOffset
         id="feOffset4678-6-0-3-7-7-7-7"
         dx="-0.42771311737301687"
         dy="5.2374444725016502"
         result="offset" />
      <feComposite
         id="feComposite4680-4-9-6-0-5-6-0"
         in2="offset"
         in="fbSourceGraphic"
         operator="over"
         result="composite2" />
      <feGaussianBlur
         id="feGaussianBlur58-9-9-5-9"
         stdDeviation="0.01" />
      <feOffset
         id="feOffset60-3-2-6-3"
         dy="0"
         dx="0" />
    </filter>
    <filter
       style="color-interpolation-filters:sRGB"
       id="filter4375-4-1-1-1-9-5-8-8-3-3-3-6-1-6"
       inkscape:label="magic-numbers_orange"
       height="1.38"
       width="1.22"
       x="-0.14">
      <feFlood
         id="feFlood4377-7-9-0-8-1-7-3-1-6-61-6-2-0-2"
         flood-opacity="1"
         flood-color="rgb(216,88,33)"
         result="flood"
         radius="5.0999999999999996" />
      <feComposite
         id="feComposite4379-3-8-8-2-77-4-1-0-7-2-7-6-6-6"
         in2="SourceGraphic"
         in="flood"
         operator="in"
         result="composite1"
         baseFrequency="0.053999999999999999 0.053999999999999999" />
      <feMorphology
         id="feMorphology4393-1-0-49-8-9-3-0-1-5-9-5-1-3-1"
         operator="dilate"
         radius="0.96959439099754563"
         result="result3" />
      <feComposite
         id="feComposite4385-9-5-7-0-8-8-7-5-3-3-3-8-2-8"
         in2="result3"
         in="SourceGraphic"
         operator="over"
         result="fbSourceGraphic"
         numOctaves="4" />
      <feColorMatrix
         result="fbSourceGraphicAlpha"
         in="fbSourceGraphic"
         values="0 0 0 -1 0 0 0 0 -1 0 0 0 0 -1 0 0 0 0 1 0"
         id="feColorMatrix4544-9-5-1-5-7-0-7" />
      <feTurbulence
         id="feTurbulence4546-3-6-9-6-9-6-9"
         type="fractalNoise"
         numOctaves="4.4123222748815163"
         seed="172"
         baseFrequency="0.062 0.054054054054054057"
         result="turbulence" />
      <feDisplacementMap
         id="feDisplacementMap4548-8-2-4-2-2-1-20"
         in2="turbulence"
         in="fbSourceGraphic"
         scale="11.642079"
         yChannelSelector="G"
         xChannelSelector="R"
         result="fbSourceGraphic" />
      <feColorMatrix
         result="fbSourceGraphicAlpha"
         in="fbSourceGraphic"
         values="0 0 0 -1 0 0 0 0 -1 0 0 0 0 -1 0 0 0 0 1 0"
         id="feColorMatrix4670-7-9-7-9-0-5-2"
         scale="10.800000000000001" />
      <feComposite
         id="feComposite4674-8-2-4-1-2-5-3"
         in2="fbSourceGraphic"
         in="flood"
         operator="in"
         result="composite1" />
      <feGaussianBlur
         id="feGaussianBlur4676-3-7-50-2-3-4-7"
         in="composite1"
         stdDeviation="0.01"
         result="blur" />
      <feOffset
         id="feOffset4678-6-0-3-7-7-7-5"
         dx="-0.42771311737301687"
         dy="5.2374444725016502"
         result="offset" />
      <feComposite
         id="feComposite4680-4-9-6-0-5-6-9"
         in2="offset"
         in="fbSourceGraphic"
         operator="over"
         result="composite2" />
      <feGaussianBlur
         id="feGaussianBlur58-9-9-5-2"
         stdDeviation="0.01" />
      <feOffset
         id="feOffset60-3-2-6-2"
         dy="0"
         dx="0" />
    </filter>
    <filter
       style="color-interpolation-filters:sRGB"
       id="filter4375-4-1-1-1-9-5-8-8-3-3"
       inkscape:label="magic-numbers_cyan"
       height="1.38"
       width="1.22"
       x="-0.14">
      <feFlood
         id="feFlood4377-7-9-0-8-1-7-3-1-6-61"
         flood-opacity="1"
         flood-color="rgb(15,126,119)"
         result="flood"
         radius="5.0999999999999996" />
      <feComposite
         id="feComposite4379-3-8-8-2-77-4-1-0-7-2"
         in2="SourceGraphic"
         in="flood"
         operator="in"
         result="composite1"
         baseFrequency="0.053999999999999999 0.053999999999999999" />
      <feMorphology
         id="feMorphology4393-1-0-49-8-9-3-0-1-5-9"
         operator="dilate"
         radius="0.96959439099754563"
         result="result3" />
      <feComposite
         id="feComposite4385-9-5-7-0-8-8-7-5-3-3"
         in2="result3"
         in="SourceGraphic"
         operator="over"
         result="fbSourceGraphic"
         numOctaves="4" />
      <feColorMatrix
         result="fbSourceGraphicAlpha"
         in="fbSourceGraphic"
         values="0 0 0 -1 0 0 0 0 -1 0 0 0 0 -1 0 0 0 0 1 0"
         id="feColorMatrix4544-9-5-1" />
      <feTurbulence
         id="feTurbulence4546-3-6-9"
         type="fractalNoise"
         numOctaves="4.4123222748815163"
         seed="172"
         baseFrequency="0.062 0.054054054054054057"
         result="turbulence" />
      <feDisplacementMap
         id="feDisplacementMap4548-8-2-4"
         in2="turbulence"
         in="fbSourceGraphic"
         scale="11.642079"
         yChannelSelector="G"
         xChannelSelector="R"
         result="fbSourceGraphic" />
      <feColorMatrix
         result="fbSourceGraphicAlpha"
         in="fbSourceGraphic"
         values="0 0 0 -1 0 0 0 0 -1 0 0 0 0 -1 0 0 0 0 1 0"
         id="feColorMatrix4670-7-9-7"
         scale="10.800000000000001" />
      <feComposite
         id="feComposite4674-8-2-4"
         in2="fbSourceGraphic"
         in="flood"
         operator="in"
         result="composite1" />
      <feGaussianBlur
         id="feGaussianBlur4676-3-7-50"
         in="composite1"
         stdDeviation="1.5865199271065846"
         result="blur" />
      <feOffset
         id="feOffset4678-6-0-3"
         dx="-0.42771311737301687"
         dy="5.2374444725016502"
         result="offset" />
      <feComposite
         id="feComposite4680-4-9-6"
         in2="offset"
         in="fbSourceGraphic"
         operator="over"
         result="composite2" />
      <feGaussianBlur
         id="feGaussianBlur58"
         stdDeviation="0.01" />
      <feOffset
         id="feOffset60"
         dy="0"
         dx="0" />
    </filter>
    <filter
       x="-0.14"
       width="1.22"
       height="1.38"
       inkscape:label="magic-numbers_cyan"
       id="filter4375-4-1-1-1-9-5-8-8-3-3-7"
       style="color-interpolation-filters:sRGB">
      <feFlood
         radius="5.0999999999999996"
         result="flood"
         flood-color="rgb(15,126,119)"
         flood-opacity="1"
         id="feFlood4377-7-9-0-8-1-7-3-1-6-61-3" />
      <feComposite
         baseFrequency="0.053999999999999999 0.053999999999999999"
         result="composite1"
         operator="in"
         in="flood"
         in2="SourceGraphic"
         id="feComposite4379-3-8-8-2-77-4-1-0-7-2-6" />
      <feMorphology
         result="result3"
         radius="0.96959439099754563"
         operator="dilate"
         id="feMorphology4393-1-0-49-8-9-3-0-1-5-9-1" />
      <feComposite
         numOctaves="4"
         result="fbSourceGraphic"
         operator="over"
         in="SourceGraphic"
         in2="result3"
         id="feComposite4385-9-5-7-0-8-8-7-5-3-3-2" />
      <feColorMatrix
         id="feColorMatrix4544-9-5-1-9"
         values="0 0 0 -1 0 0 0 0 -1 0 0 0 0 -1 0 0 0 0 1 0"
         in="fbSourceGraphic"
         result="fbSourceGraphicAlpha" />
      <feTurbulence
         result="turbulence"
         baseFrequency="0.062 0.054054054054054057"
         seed="172"
         numOctaves="4.4123222748815163"
         type="fractalNoise"
         id="feTurbulence4546-3-6-9-3" />
      <feDisplacementMap
         result="fbSourceGraphic"
         xChannelSelector="R"
         yChannelSelector="G"
         scale="11.642079"
         in="fbSourceGraphic"
         in2="turbulence"
         id="feDisplacementMap4548-8-2-4-1" />
      <feColorMatrix
         scale="10.800000000000001"
         id="feColorMatrix4670-7-9-7-9"
         values="0 0 0 -1 0 0 0 0 -1 0 0 0 0 -1 0 0 0 0 1 0"
         in="fbSourceGraphic"
         result="fbSourceGraphicAlpha" />
      <feComposite
         result="composite1"
         operator="in"
         in="flood"
         in2="fbSourceGraphic"
         id="feComposite4674-8-2-4-4" />
      <feGaussianBlur
         result="blur"
         stdDeviation="1.5865199271065846"
         in="composite1"
         id="feGaussianBlur4676-3-7-50-7" />
      <feOffset
         result="offset"
         dy="5.2374444725016502"
         dx="-0.42771311737301687"
         id="feOffset4678-6-0-3-8" />
      <feComposite
         result="composite2"
         operator="over"
         in="fbSourceGraphic"
         in2="offset"
         id="feComposite4680-4-9-6-4" />
      <feGaussianBlur
         stdDeviation="0.01"
         id="feGaussianBlur58-5" />
      <feOffset
         dx="0"
         dy="0"
         id="feOffset60-0" />
    </filter>
    <filter
       x="-0.14"
       width="1.22"
       height="1.38"
       inkscape:label="magic-numbers_orange"
       id="filter4375-4-1-1-1-9-5-8-8-3-3-3-6-1-6-0"
       style="color-interpolation-filters:sRGB">
      <feFlood
         radius="5.0999999999999996"
         result="flood"
         flood-color="rgb(216,88,33)"
         flood-opacity="1"
         id="feFlood4377-7-9-0-8-1-7-3-1-6-61-6-2-0-2-6" />
      <feComposite
         baseFrequency="0.053999999999999999 0.053999999999999999"
         result="composite1"
         operator="in"
         in="flood"
         in2="SourceGraphic"
         id="feComposite4379-3-8-8-2-77-4-1-0-7-2-7-6-6-6-3" />
      <feMorphology
         result="result3"
         radius="0.96959439099754563"
         operator="dilate"
         id="feMorphology4393-1-0-49-8-9-3-0-1-5-9-5-1-3-1-2" />
      <feComposite
         numOctaves="4"
         result="fbSourceGraphic"
         operator="over"
         in="SourceGraphic"
         in2="result3"
         id="feComposite4385-9-5-7-0-8-8-7-5-3-3-3-8-2-8-0" />
      <feColorMatrix
         id="feColorMatrix4544-9-5-1-5-7-0-7-6"
         values="0 0 0 -1 0 0 0 0 -1 0 0 0 0 -1 0 0 0 0 1 0"
         in="fbSourceGraphic"
         result="fbSourceGraphicAlpha" />
      <feTurbulence
         result="turbulence"
         baseFrequency="0.062 0.054054054054054057"
         seed="172"
         numOctaves="4.4123222748815163"
         type="fractalNoise"
         id="feTurbulence4546-3-6-9-6-9-6-9-1" />
      <feDisplacementMap
         result="fbSourceGraphic"
         xChannelSelector="R"
         yChannelSelector="G"
         scale="11.642079"
         in="fbSourceGraphic"
         in2="turbulence"
         id="feDisplacementMap4548-8-2-4-2-2-1-20-5" />
      <feColorMatrix
         scale="10.800000000000001"
         id="feColorMatrix4670-7-9-7-9-0-5-2-5"
         values="0 0 0 -1 0 0 0 0 -1 0 0 0 0 -1 0 0 0 0 1 0"
         in="fbSourceGraphic"
         result="fbSourceGraphicAlpha" />
      <feComposite
         result="composite1"
         operator="in"
         in="flood"
         in2="fbSourceGraphic"
         id="feComposite4674-8-2-4-1-2-5-3-4" />
      <feGaussianBlur
         result="blur"
         stdDeviation="0.01"
         in="composite1"
         id="feGaussianBlur4676-3-7-50-2-3-4-7-7" />
      <feOffset
         result="offset"
         dy="5.2374444725016502"
         dx="-0.42771311737301687"
         id="feOffset4678-6-0-3-7-7-7-5-6" />
      <feComposite
         result="composite2"
         operator="over"
         in="fbSourceGraphic"
         in2="offset"
         id="feComposite4680-4-9-6-0-5-6-9-5" />
      <feGaussianBlur
         stdDeviation="0.01"
         id="feGaussianBlur58-9-9-5-2-6" />
      <feOffset
         dx="0"
         dy="0"
         id="feOffset60-3-2-6-2-9" />
    </filter>
    <filter
       style="color-interpolation-filters:sRGB"
       id="filter4375-4-1-1-1-9-5-8-8-3-3-7-4"
       inkscape:label="magic-numbers_cyan"
       height="1.38"
       width="1.22"
       x="-0.14">
      <feFlood
         id="feFlood4377-7-9-0-8-1-7-3-1-6-61-3-5"
         flood-opacity="1"
         flood-color="rgb(15,126,119)"
         result="flood"
         radius="5.0999999999999996" />
      <feComposite
         id="feComposite4379-3-8-8-2-77-4-1-0-7-2-6-2"
         in2="SourceGraphic"
         in="flood"
         operator="in"
         result="composite1"
         baseFrequency="0.053999999999999999 0.053999999999999999" />
      <feMorphology
         id="feMorphology4393-1-0-49-8-9-3-0-1-5-9-1-5"
         operator="dilate"
         radius="0.96959439099754563"
         result="result3" />
      <feComposite
         id="feComposite4385-9-5-7-0-8-8-7-5-3-3-2-4"
         in2="result3"
         in="SourceGraphic"
         operator="over"
         result="fbSourceGraphic"
         numOctaves="4" />
      <feColorMatrix
         result="fbSourceGraphicAlpha"
         in="fbSourceGraphic"
         values="0 0 0 -1 0 0 0 0 -1 0 0 0 0 -1 0 0 0 0 1 0"
         id="feColorMatrix4544-9-5-1-9-7" />
      <feTurbulence
         id="feTurbulence4546-3-6-9-3-4"
         type="fractalNoise"
         numOctaves="4.4123222748815163"
         seed="172"
         baseFrequency="0.062 0.054054054054054057"
         result="turbulence" />
      <feDisplacementMap
         id="feDisplacementMap4548-8-2-4-1-4"
         in2="turbulence"
         in="fbSourceGraphic"
         scale="11.642079"
         yChannelSelector="G"
         xChannelSelector="R"
         result="fbSourceGraphic" />
      <feColorMatrix
         result="fbSourceGraphicAlpha"
         in="fbSourceGraphic"
         values="0 0 0 -1 0 0 0 0 -1 0 0 0 0 -1 0 0 0 0 1 0"
         id="feColorMatrix4670-7-9-7-9-3"
         scale="10.800000000000001" />
      <feComposite
         id="feComposite4674-8-2-4-4-0"
         in2="fbSourceGraphic"
         in="flood"
         operator="in"
         result="composite1" />
      <feGaussianBlur
         id="feGaussianBlur4676-3-7-50-7-7"
         in="composite1"
         stdDeviation="1.5865199271065846"
         result="blur" />
      <feOffset
         id="feOffset4678-6-0-3-8-8"
         dx="-0.42771311737301687"
         dy="5.2374444725016502"
         result="offset" />
      <feComposite
         id="feComposite4680-4-9-6-4-6"
         in2="offset"
         in="fbSourceGraphic"
         operator="over"
         result="composite2" />
      <feGaussianBlur
         id="feGaussianBlur58-5-8"
         stdDeviation="0.01" />
      <feOffset
         id="feOffset60-0-8"
         dy="0"
         dx="0" />
    </filter>
    <filter
       x="-0.14"
       width="1.22"
       height="1.38"
       inkscape:label="magic-numbers_cyan"
       id="filter4375-4-1-1-1-9-5-8-8-3-3-7-4-1"
       style="color-interpolation-filters:sRGB">
      <feFlood
         radius="5.0999999999999996"
         result="flood"
         flood-color="rgb(15,126,119)"
         flood-opacity="1"
         id="feFlood4377-7-9-0-8-1-7-3-1-6-61-3-5-4" />
      <feComposite
         baseFrequency="0.053999999999999999 0.053999999999999999"
         result="composite1"
         operator="in"
         in="flood"
         in2="SourceGraphic"
         id="feComposite4379-3-8-8-2-77-4-1-0-7-2-6-2-9" />
      <feMorphology
         result="result3"
         radius="0.96959439099754563"
         operator="dilate"
         id="feMorphology4393-1-0-49-8-9-3-0-1-5-9-1-5-2" />
      <feComposite
         numOctaves="4"
         result="fbSourceGraphic"
         operator="over"
         in="SourceGraphic"
         in2="result3"
         id="feComposite4385-9-5-7-0-8-8-7-5-3-3-2-4-0" />
      <feColorMatrix
         id="feColorMatrix4544-9-5-1-9-7-6"
         values="0 0 0 -1 0 0 0 0 -1 0 0 0 0 -1 0 0 0 0 1 0"
         in="fbSourceGraphic"
         result="fbSourceGraphicAlpha" />
      <feTurbulence
         result="turbulence"
         baseFrequency="0.062 0.054054054054054057"
         seed="172"
         numOctaves="4.4123222748815163"
         type="fractalNoise"
         id="feTurbulence4546-3-6-9-3-4-8" />
      <feDisplacementMap
         result="fbSourceGraphic"
         xChannelSelector="R"
         yChannelSelector="G"
         scale="11.642079"
         in="fbSourceGraphic"
         in2="turbulence"
         id="feDisplacementMap4548-8-2-4-1-4-9" />
      <feColorMatrix
         scale="10.800000000000001"
         id="feColorMatrix4670-7-9-7-9-3-2"
         values="0 0 0 -1 0 0 0 0 -1 0 0 0 0 -1 0 0 0 0 1 0"
         in="fbSourceGraphic"
         result="fbSourceGraphicAlpha" />
      <feComposite
         result="composite1"
         operator="in"
         in="flood"
         in2="fbSourceGraphic"
         id="feComposite4674-8-2-4-4-0-6" />
      <feGaussianBlur
         result="blur"
         stdDeviation="1.5865199271065846"
         in="composite1"
         id="feGaussianBlur4676-3-7-50-7-7-6" />
      <feOffset
         result="offset"
         dy="5.2374444725016502"
         dx="-0.42771311737301687"
         id="feOffset4678-6-0-3-8-8-4" />
      <feComposite
         result="composite2"
         operator="over"
         in="fbSourceGraphic"
         in2="offset"
         id="feComposite4680-4-9-6-4-6-9" />
      <feGaussianBlur
         stdDeviation="0.01"
         id="feGaussianBlur58-5-8-5" />
      <feOffset
         dx="0"
         dy="0"
         id="feOffset60-0-8-0" />
    </filter>
    <filter
       x="-0.11"
       width="1.4"
       height="1.39"
       inkscape:label="magic-numbers-distant_cyan"
       id="filter4375-4-1-1-1-9-5-8-8-3-3-3"
       style="color-interpolation-filters:sRGB"
       y="-0.12869298">
      <feFlood
         radius="5.0999999999999996"
         result="flood"
         flood-color="rgb(15,126,119)"
         flood-opacity="1"
         id="feFlood4377-7-9-0-8-1-7-3-1-6-61-6" />
      <feComposite
         baseFrequency="0.053999999999999999 0.053999999999999999"
         result="composite1"
         operator="in"
         in="flood"
         in2="SourceGraphic"
         id="feComposite4379-3-8-8-2-77-4-1-0-7-2-7" />
      <feMorphology
         result="result3"
         radius="0.96959439099754563"
         operator="dilate"
         id="feMorphology4393-1-0-49-8-9-3-0-1-5-9-5" />
      <feComposite
         numOctaves="4"
         result="fbSourceGraphic"
         operator="over"
         in="SourceGraphic"
         in2="result3"
         id="feComposite4385-9-5-7-0-8-8-7-5-3-3-3" />
      <feColorMatrix
         id="feColorMatrix4544-9-5-1-5"
         values="0 0 0 -1 0 0 0 0 -1 0 0 0 0 -1 0 0 0 0 1 0"
         in="fbSourceGraphic"
         result="fbSourceGraphicAlpha" />
      <feTurbulence
         result="turbulence"
         baseFrequency="0.062 0.054054054054054057"
         seed="172"
         numOctaves="4.4123222748815163"
         type="fractalNoise"
         id="feTurbulence4546-3-6-9-6" />
      <feDisplacementMap
         result="fbSourceGraphic"
         xChannelSelector="R"
         yChannelSelector="G"
         scale="11.642079"
         in="fbSourceGraphic"
         in2="turbulence"
         id="feDisplacementMap4548-8-2-4-2" />
      <feColorMatrix
         scale="10.800000000000001"
         id="feColorMatrix4670-7-9-7-9-7"
         values="0 0 0 -1 0 0 0 0 -1 0 0 0 0 -1 0 0 0 0 1 0"
         in="fbSourceGraphic"
         result="fbSourceGraphicAlpha" />
      <feComposite
         result="composite1"
         operator="in"
         in="flood"
         in2="fbSourceGraphic"
         id="feComposite4674-8-2-4-1" />
      <feGaussianBlur
         result="blur"
         stdDeviation="2.8009584"
         in="composite1"
         id="feGaussianBlur4676-3-7-50-2" />
      <feOffset
         result="offset"
         dy="5.2374444725016502"
         dx="-0.42771311737301687"
         id="feOffset4678-6-0-3-7" />
      <feComposite
         result="composite2"
         operator="over"
         in="fbSourceGraphic"
         in2="offset"
         id="feComposite4680-4-9-6-0" />
      <feGaussianBlur
         stdDeviation="3.2907475062779015"
         id="feGaussianBlur58-9" />
      <feOffset
         dx="0"
         dy="0"
         id="feOffset60-3" />
    </filter>
    <filter
       y="-0.12869298"
       style="color-interpolation-filters:sRGB"
       id="filter4375-4-1-1-1-9-5-8-8-3-3-3-2"
       inkscape:label="magic-numbers-distant_cyan"
       height="1.39"
       width="1.4"
       x="-0.11">
      <feFlood
         id="feFlood4377-7-9-0-8-1-7-3-1-6-61-6-7"
         flood-opacity="1"
         flood-color="rgb(15,126,119)"
         result="flood"
         radius="5.0999999999999996" />
      <feComposite
         id="feComposite4379-3-8-8-2-77-4-1-0-7-2-7-2"
         in2="SourceGraphic"
         in="flood"
         operator="in"
         result="composite1"
         baseFrequency="0.053999999999999999 0.053999999999999999" />
      <feMorphology
         id="feMorphology4393-1-0-49-8-9-3-0-1-5-9-5-2"
         operator="dilate"
         radius="0.96959439099754563"
         result="result3" />
      <feComposite
         id="feComposite4385-9-5-7-0-8-8-7-5-3-3-3-6"
         in2="result3"
         in="SourceGraphic"
         operator="over"
         result="fbSourceGraphic"
         numOctaves="4" />
      <feColorMatrix
         result="fbSourceGraphicAlpha"
         in="fbSourceGraphic"
         values="0 0 0 -1 0 0 0 0 -1 0 0 0 0 -1 0 0 0 0 1 0"
         id="feColorMatrix4544-9-5-1-5-1" />
      <feTurbulence
         id="feTurbulence4546-3-6-9-6-0"
         type="fractalNoise"
         numOctaves="4.4123222748815163"
         seed="172"
         baseFrequency="0.062 0.054054054054054057"
         result="turbulence" />
      <feDisplacementMap
         id="feDisplacementMap4548-8-2-4-2-6"
         in2="turbulence"
         in="fbSourceGraphic"
         scale="11.642079"
         yChannelSelector="G"
         xChannelSelector="R"
         result="fbSourceGraphic" />
      <feColorMatrix
         result="fbSourceGraphicAlpha"
         in="fbSourceGraphic"
         values="0 0 0 -1 0 0 0 0 -1 0 0 0 0 -1 0 0 0 0 1 0"
         id="feColorMatrix4670-7-9-7-9-7-1"
         scale="10.800000000000001" />
      <feComposite
         id="feComposite4674-8-2-4-1-5"
         in2="fbSourceGraphic"
         in="flood"
         operator="in"
         result="composite1" />
      <feGaussianBlur
         id="feGaussianBlur4676-3-7-50-2-9"
         in="composite1"
         stdDeviation="2.8009584"
         result="blur" />
      <feOffset
         id="feOffset4678-6-0-3-7-4"
         dx="-0.42771311737301687"
         dy="5.2374444725016502"
         result="offset" />
      <feComposite
         id="feComposite4680-4-9-6-0-9"
         in2="offset"
         in="fbSourceGraphic"
         operator="over"
         result="composite2" />
      <feGaussianBlur
         id="feGaussianBlur58-9-0"
         stdDeviation="3.2907475062779015" />
      <feOffset
         id="feOffset60-3-9"
         dy="0"
         dx="0" />
    </filter>
    <filter
       style="color-interpolation-filters:sRGB"
       id="filter4375-4-1-1-1-9-5-8-8-3-3-3-0"
       inkscape:label="magic-numbers-distant_orange"
       height="1.49"
       width="1.4299999"
       x="-0.22"
       y="-0.23">
      <feFlood
         id="feFlood4377-7-9-0-8-1-7-3-1-6-61-6-6"
         flood-opacity="1"
         flood-color="rgb(195,47,14)"
         result="flood"
         radius="5.0999999999999996" />
      <feComposite
         id="feComposite4379-3-8-8-2-77-4-1-0-7-2-7-2-7"
         in2="SourceGraphic"
         in="flood"
         operator="in"
         result="composite1"
         baseFrequency="0.053999999999999999 0.053999999999999999" />
      <feMorphology
         id="feMorphology4393-1-0-49-8-9-3-0-1-5-9-5-6"
         operator="dilate"
         radius="0.96959439099754563"
         result="result3" />
      <feComposite
         id="feComposite4385-9-5-7-0-8-8-7-5-3-3-3-1"
         in2="result3"
         in="SourceGraphic"
         operator="over"
         result="fbSourceGraphic"
         numOctaves="4" />
      <feColorMatrix
         result="fbSourceGraphicAlpha"
         in="fbSourceGraphic"
         values="0 0 0 -1 0 0 0 0 -1 0 0 0 0 -1 0 0 0 0 1 0"
         id="feColorMatrix4544-9-5-1-5-8" />
      <feTurbulence
         id="feTurbulence4546-3-6-9-6-7"
         type="fractalNoise"
         numOctaves="4.4123222748815163"
         seed="172"
         baseFrequency="0.062 0.054054054054054057"
         result="turbulence" />
      <feDisplacementMap
         id="feDisplacementMap4548-8-2-4-2-9"
         in2="turbulence"
         in="fbSourceGraphic"
         scale="11.642079"
         yChannelSelector="G"
         xChannelSelector="R"
         result="fbSourceGraphic" />
      <feColorMatrix
         result="fbSourceGraphicAlpha"
         in="fbSourceGraphic"
         values="0 0 0 -1 0 0 0 0 -1 0 0 0 0 -1 0 0 0 0 1 0"
         id="feColorMatrix4670-7-9-7-9-2"
         scale="10.800000000000001" />
      <feComposite
         id="feComposite4674-8-2-4-1-0"
         in2="fbSourceGraphic"
         in="flood"
         operator="in"
         result="composite1" />
      <feGaussianBlur
         id="feGaussianBlur4676-3-7-50-2-2"
         in="composite1"
         stdDeviation="2.5512148821149552"
         result="blur" />
      <feOffset
         id="feOffset4678-6-0-3-7-3"
         dx="-0.42771311737301687"
         dy="5.2374444725016502"
         result="offset" />
      <feComposite
         id="feComposite4680-4-9-6-0-7"
         in2="offset"
         in="fbSourceGraphic"
         operator="over"
         result="composite2" />
      <feGaussianBlur
         id="feGaussianBlur58-9-5"
         stdDeviation="3.2907475062779015" />
      <feOffset
         id="feOffset60-3-9-1"
         dy="0"
         dx="0" />
    </filter>
    <filter
       y="-0.23"
       x="-0.22"
       width="1.4299999"
       height="1.49"
       inkscape:label="magic-numbers-distant_orange"
       id="filter4375-4-1-1-1-9-5-8-8-3-3-3-0-1"
       style="color-interpolation-filters:sRGB">
      <feFlood
         radius="5.0999999999999996"
         result="flood"
         flood-color="rgb(195,47,14)"
         flood-opacity="1"
         id="feFlood4377-7-9-0-8-1-7-3-1-6-61-6-6-5" />
      <feComposite
         baseFrequency="0.053999999999999999 0.053999999999999999"
         result="composite1"
         operator="in"
         in="flood"
         in2="SourceGraphic"
         id="feComposite4379-3-8-8-2-77-4-1-0-7-2-7-2-7-9" />
      <feMorphology
         result="result3"
         radius="0.96959439099754563"
         operator="dilate"
         id="feMorphology4393-1-0-49-8-9-3-0-1-5-9-5-6-7" />
      <feComposite
         numOctaves="4"
         result="fbSourceGraphic"
         operator="over"
         in="SourceGraphic"
         in2="result3"
         id="feComposite4385-9-5-7-0-8-8-7-5-3-3-3-1-7" />
      <feColorMatrix
         id="feColorMatrix4544-9-5-1-5-8-6"
         values="0 0 0 -1 0 0 0 0 -1 0 0 0 0 -1 0 0 0 0 1 0"
         in="fbSourceGraphic"
         result="fbSourceGraphicAlpha" />
      <feTurbulence
         result="turbulence"
         baseFrequency="0.062 0.054054054054054057"
         seed="172"
         numOctaves="4.4123222748815163"
         type="fractalNoise"
         id="feTurbulence4546-3-6-9-6-7-7" />
      <feDisplacementMap
         result="fbSourceGraphic"
         xChannelSelector="R"
         yChannelSelector="G"
         scale="11.642079"
         in="fbSourceGraphic"
         in2="turbulence"
         id="feDisplacementMap4548-8-2-4-2-9-3" />
      <feColorMatrix
         scale="10.800000000000001"
         id="feColorMatrix4670-7-9-7-9-2-6"
         values="0 0 0 -1 0 0 0 0 -1 0 0 0 0 -1 0 0 0 0 1 0"
         in="fbSourceGraphic"
         result="fbSourceGraphicAlpha" />
      <feComposite
         result="composite1"
         operator="in"
         in="flood"
         in2="fbSourceGraphic"
         id="feComposite4674-8-2-4-1-0-5" />
      <feGaussianBlur
         result="blur"
         stdDeviation="2.5512148821149552"
         in="composite1"
         id="feGaussianBlur4676-3-7-50-2-2-6" />
      <feOffset
         result="offset"
         dy="5.2374444725016502"
         dx="-0.42771311737301687"
         id="feOffset4678-6-0-3-7-3-3" />
      <feComposite
         result="composite2"
         operator="over"
         in="fbSourceGraphic"
         in2="offset"
         id="feComposite4680-4-9-6-0-7-9" />
      <feGaussianBlur
         stdDeviation="3.2907475062779015"
         id="feGaussianBlur58-9-5-4" />
      <feOffset
         dx="0"
         dy="0"
         id="feOffset60-3-9-1-8" />
    </filter>
    <filter
       y="-0.23"
       x="-0.22"
       width="1.4299999"
       height="1.49"
       inkscape:label="magic-numbers-distant_orange"
       id="filter4375-4-1-1-1-9-5-8-8-3-3-3-0-9"
       style="color-interpolation-filters:sRGB">
      <feFlood
         radius="5.0999999999999996"
         result="flood"
         flood-color="rgb(195,47,14)"
         flood-opacity="1"
         id="feFlood4377-7-9-0-8-1-7-3-1-6-61-6-6-3" />
      <feComposite
         baseFrequency="0.053999999999999999 0.053999999999999999"
         result="composite1"
         operator="in"
         in="flood"
         in2="SourceGraphic"
         id="feComposite4379-3-8-8-2-77-4-1-0-7-2-7-2-7-90" />
      <feMorphology
         result="result3"
         radius="0.96959439099754563"
         operator="dilate"
         id="feMorphology4393-1-0-49-8-9-3-0-1-5-9-5-6-8" />
      <feComposite
         numOctaves="4"
         result="fbSourceGraphic"
         operator="over"
         in="SourceGraphic"
         in2="result3"
         id="feComposite4385-9-5-7-0-8-8-7-5-3-3-3-1-8" />
      <feColorMatrix
         id="feColorMatrix4544-9-5-1-5-8-5"
         values="0 0 0 -1 0 0 0 0 -1 0 0 0 0 -1 0 0 0 0 1 0"
         in="fbSourceGraphic"
         result="fbSourceGraphicAlpha" />
      <feTurbulence
         result="turbulence"
         baseFrequency="0.062 0.054054054054054057"
         seed="172"
         numOctaves="4.4123222748815163"
         type="fractalNoise"
         id="feTurbulence4546-3-6-9-6-7-0" />
      <feDisplacementMap
         result="fbSourceGraphic"
         xChannelSelector="R"
         yChannelSelector="G"
         scale="11.642079"
         in="fbSourceGraphic"
         in2="turbulence"
         id="feDisplacementMap4548-8-2-4-2-9-9" />
      <feColorMatrix
         scale="10.800000000000001"
         id="feColorMatrix4670-7-9-7-9-2-63"
         values="0 0 0 -1 0 0 0 0 -1 0 0 0 0 -1 0 0 0 0 1 0"
         in="fbSourceGraphic"
         result="fbSourceGraphicAlpha" />
      <feComposite
         result="composite1"
         operator="in"
         in="flood"
         in2="fbSourceGraphic"
         id="feComposite4674-8-2-4-1-0-8" />
      <feGaussianBlur
         result="blur"
         stdDeviation="2.5512148821149552"
         in="composite1"
         id="feGaussianBlur4676-3-7-50-2-2-5" />
      <feOffset
         result="offset"
         dy="5.2374444725016502"
         dx="-0.42771311737301687"
         id="feOffset4678-6-0-3-7-3-6" />
      <feComposite
         result="composite2"
         operator="over"
         in="fbSourceGraphic"
         in2="offset"
         id="feComposite4680-4-9-6-0-7-1" />
      <feGaussianBlur
         stdDeviation="3.2907475062779015"
         id="feGaussianBlur58-9-5-1" />
      <feOffset
         dx="0"
         dy="0"
         id="feOffset60-3-9-1-5" />
    </filter>
    <filter
       width="1.1900001"
       style="color-interpolation-filters:sRGB"
       id="filter4375-4-1-1-1-9-5-8-6"
       inkscape:label="soundFX">
      <feFlood
         id="feFlood4377-7-9-0-8-1-7-3-7"
         flood-opacity="1"
         flood-color="rgb(46,52,54)"
         result="flood" />
      <feComposite
         id="feComposite4379-3-8-8-2-77-4-1-5"
         in2="SourceGraphic"
         in="flood"
         operator="in"
         result="composite1" />
      <feMorphology
         id="feMorphology4393-1-0-49-8-9-3-0-3"
         operator="dilate"
         radius="6.2000000000000002"
         result="result3" />
      <feComposite
         id="feComposite4385-9-5-7-0-8-8-7-56"
         in2="result3"
         in="SourceGraphic"
         operator="over"
         result="fbSourceGraphic" />
      <feColorMatrix
         result="fbSourceGraphicAlpha"
         in="fbSourceGraphic"
         values="0 0 0 -1 0 0 0 0 -1 0 0 0 0 -1 0 0 0 0 1 0"
         id="feColorMatrix4544-2" />
      <feTurbulence
         id="feTurbulence4546-9"
         type="fractalNoise"
         numOctaves="3"
         seed="37"
         baseFrequency="0.129 0.0050000000000000001"
         result="turbulence" />
      <feDisplacementMap
         id="feDisplacementMap4548-1"
         in2="turbulence"
         in="fbSourceGraphic"
         scale="10"
         yChannelSelector="A"
         xChannelSelector="B"
         result="fbSourceGraphic" />
      <feColorMatrix
         result="fbSourceGraphicAlpha"
         in="fbSourceGraphic"
         values="0 0 0 -1 0 0 0 0 -1 0 0 0 0 -1 0 0 0 0 1 0"
         id="feColorMatrix4670-2" />
      <feFlood
         id="feFlood4672-7"
         flood-opacity="1"
         flood-color="rgb(17,52,65)"
         result="flood"
         in="fbSourceGraphic" />
      <feComposite
         id="feComposite4674-0"
         in2="fbSourceGraphic"
         in="flood"
         operator="in"
         result="composite1" />
      <feComposite
         id="feComposite4680-6"
         in2="composite1"
         in="fbSourceGraphic"
         operator="over"
         result="composite2" />
    </filter>
  </defs>
  <sodipodi:namedview
     inkscape:snap-global="false"
     inkscape:document-rotation="0"
     inkscape:current-layer="layer3"
     inkscape:window-maximized="1"
     inkscape:window-y="-8"
     inkscape:window-x="-8"
     inkscape:cy="1283.8417"
     inkscape:cx="1119.0513"
     inkscape:zoom="0.52900002"
     showgrid="false"
     id="namedview4"
     inkscape:window-height="847"
     inkscape:window-width="1600"
     inkscape:pageshadow="2"
     inkscape:pageopacity="0"
     guidetolerance="10"
     gridtolerance="10"
     objecttolerance="10"
     borderopacity="1"
     bordercolor="#666666"
     pagecolor="#ffffff" />
  <g
     sodipodi:insensitive="true"
     inkscape:label="artwork"
     id="layer2"
     inkscape:groupmode="layer">
    <image
       sodipodi:absref="D:\Pepper&amp;Carrot\code\ep33_Spell-of-War\lang\ro\../gfx_Pepper-and-Carrot_by-David-Revoy_E33P06.png"
       xlink:href="../gfx_Pepper-and-Carrot_by-David-Revoy_E33P06.png"
       width="2481"
       height="3503"
       id="image10"
       x="0"
       y="0" />
  </g>
  <g
     inkscape:label="speechbubbles"
     id="layer3"
     inkscape:groupmode="layer">
    <path
       style="color:#000000;display:inline;overflow:visible;visibility:visible;fill:#ffffff;fill-opacity:1;fill-rule:nonzero;stroke:none;stroke-width:0.999999px;marker:none;enable-background:accumulate"
       d="m 1451.5768,2526.8953 c 60.8279,-19.4518 106.6169,-31.8488 153.8096,-47.1442 l -38.0347,-29.0944 c 14.7203,-6.7665 30.2017,-13.4537 46.5126,-19.275 l -24.8468,-19.9585 c 48.2103,-23.4381 99.3317,-48.7352 147.6201,-73.4371 l -42.0639,-20.0039 c -47.772,31.4698 -99.4996,64.5445 -150.6379,86.9218 l 27.4399,17.5966 c -17.623,9.3943 -27.8274,10.0119 -44.737,23.6066 l 31.0344,20.7572 z"
       id="path4032-7"
       inkscape:connector-curvature="0"
       sodipodi:nodetypes="cccccccccccc" />
    <path
       style="fill:#ffffff;fill-rule:evenodd;stroke:none;stroke-width:1px;stroke-linecap:butt;stroke-linejoin:miter;stroke-opacity:1"
       d="m 557.34412,410.89495 52.93792,-48.25456 -17.12587,-4.54264 35.30332,-34.02574 -13.83277,-6.9183 -38.69622,44.10121 19.34754,5.82267 z"
       id="path4667"
       inkscape:connector-curvature="0" />
    <path
       style="color:#000000;display:inline;overflow:visible;visibility:visible;fill:#ffffff;fill-opacity:1;fill-rule:nonzero;stroke:none;stroke-width:1px;marker:none;enable-background:accumulate"
       d="m 588.49137,350.82377 c 14.68395,-8.50038 37.43081,-9.78918 27.69224,13.89799 20.57011,-23.47085 31.22904,-22.48779 42.73388,-0.59363 -2.69715,-25.01153 14.99218,-39.69588 41.14991,-16.278 -20.63583,-33.91461 6.43418,-31.23087 19.93971,-33.65965 C 703.504,303.01096 701.1206,294.523 734.01972,292.76061 709.70949,286.87503 687.116,280.4695 718.61217,257.68344 c -8.9083,-2.56167 -32.61114,16.98887 -15.64888,-51.11622 -17.68887,19.25451 -35.39627,28.22779 -51.33754,-23.12197 -8.21021,17.26013 -18.95613,27.8331 -34.67815,-1.31366 -5.75369,17.63006 -27.94305,14.57526 -35.67719,9.14081 14.28017,24.029 12.43453,36.72733 -9.95995,34.10378 33.49596,44.9196 3.64058,32.99089 -3.30361,41.17201 27.94182,18.88912 13.26974,32.09585 6.47585,46.88921 33.53753,7.52838 25.71311,22.54634 14.00867,37.38637 z"
       id="path3549-3"
       inkscape:connector-curvature="0"
       sodipodi:nodetypes="ccccccccccccccc" />
    <path
       style="display:inline;fill:#ffffff;fill-rule:evenodd;stroke:none;stroke-width:0.9082275px;stroke-linecap:butt;stroke-linejoin:miter;stroke-opacity:1"
       d="m 1498.6846,2089.7773 c 75.4847,33.4704 110.5295,52.99 108.5717,-12.4163 26.4782,43.4337 70.2576,45.2831 84.6676,2.3698 47.8032,36.054 77.384,25.3466 100.7174,-1.3905 9.0615,33.8468 35.6868,26.4662 44.0527,17.9671 -2.6315,10.2977 -12.8419,26.9591 61.4082,0.4925 -7.2697,10.7427 8.0821,15.9246 52.5774,-7.2859 -13.4163,29.6176 52.4976,20.1568 96.5842,-5.3 -22.0146,23.4503 -17.3374,43.4381 36.1897,2.7846 -17.221,43.7802 15.5656,37.9569 99.4492,-11.5737 -59.765,44.3931 -94.4949,82.965 -29.4946,75.6085 -27.9687,29.9248 -84.857,54.6051 17.0618,61.6356 -73.5253,42.9731 -85.6156,78.0518 -24.5533,110.3372 -23.1596,-0.5014 -37.3346,2.6246 -15.8578,20.1334 -42.2706,-0.3781 -26.3019,18.1245 4.9245,41.5734 -61.4569,-29.7839 -64.7324,-18.6056 -66.4423,-6.3237 -77.0514,-40.6995 -75.043,-20.3352 -74.2679,2.4609 -25.4796,-19.9934 -94.7292,-34.0488 -118.3588,1.0463 9.3384,-31.4197 -24.8452,-24.3414 -107.4154,-2.7131 18.7973,-29.6795 -66.3096,-13.5941 -95.0363,5.9884 26.3561,-34.8261 -68.8748,-30.7207 -102.7492,-23.3156 15.6148,-12.4624 -33.0958,-38.0497 -83.4086,-20.7919 15.8025,-11.5481 12.9015,-25.7967 -44.2062,-29.4131 74.6916,-14.5069 24.3505,-39.9458 12.6749,-44.8256 74.401,1.7316 47.1274,-48.1219 2.6119,-67.8612 54.2025,11.2602 33.6787,-21.2699 -48.636,-79.325 90.7504,38.1291 112.366,18.6116 88.9352,-29.8621 z"
       id="path4508-2"
       inkscape:connector-curvature="0"
       sodipodi:nodetypes="ccccccccccccccccccccccccccc" />
  </g>
  <g
     inkscape:groupmode="layer"
     inkscape:label="txt"
     id="layer1">
    <text
       inkscape:label="kingA"
       xml:space="preserve"
       style="font-style:normal;font-variant:normal;font-weight:normal;font-stretch:normal;font-size:10.9184px;line-height:0%;font-family:Lavi;-inkscape-font-specification:Lavi;text-align:center;letter-spacing:0px;word-spacing:0px;text-anchor:middle;fill:#000000;fill-opacity:1;stroke:none;stroke-width:0;stroke-miterlimit:4;stroke-dasharray:none"
       x="711.40863"
       y="300.92252"
       id="text4246-1-44"
       transform="matrix(0.97601234,0,-0.20582772,1.0245772,0,0)"><tspan
         sodipodi:role="line"
         style="font-style:normal;font-variant:normal;font-weight:bold;font-stretch:normal;font-size:84.0595px;line-height:1.25;font-family:Lavi;-inkscape-font-specification:'Lavi Bold';fill:#000000;fill-opacity:1;stroke:#000000;stroke-width:0;stroke-miterlimit:4;stroke-dasharray:none;stroke-opacity:1"
         x="711.40863"
         y="300.92252"
         id="tspan1013-76">?!</tspan></text>
    <text
       inkscape:label="score1"
       transform="matrix(1.2475498,-0.05921073,-0.01872676,1.4186609,-398.23052,-1469.79)"
       id="text4580-6-0-0-3-36"
       y="1584.5073"
       x="787.65729"
       style="font-style:normal;font-variant:normal;font-weight:normal;font-stretch:normal;line-height:0%;font-family:Lavi;-inkscape-font-specification:Lavi;letter-spacing:2.67495px;word-spacing:0px;fill:#b5ffe1;fill-opacity:1;stroke:#316983;stroke-width:0.964704;stroke-miterlimit:4;stroke-dasharray:none;stroke-opacity:1;filter:url(#filter4375-4-1-1-1-9-5-8-8-3-3-7)"
       xml:space="preserve"><tspan
         style="font-style:normal;font-variant:normal;font-weight:bold;font-stretch:normal;font-size:69.5991px;line-height:1.25;font-family:Drukah;-inkscape-font-specification:'Drukah Bold';fill:#b5ffe1;fill-opacity:1;stroke:#316983;stroke-width:0.964704;stroke-miterlimit:4;stroke-dasharray:none;stroke-opacity:1"
         y="1584.5073"
         x="787.65729"
         id="tspan4582-1-1-0-6-1"
         sodipodi:role="line">3</tspan></text>
    <text
       inkscape:label="score2"
       xml:space="preserve"
       style="font-style:normal;font-variant:normal;font-weight:normal;font-stretch:normal;line-height:0%;font-family:Lavi;-inkscape-font-specification:Lavi;letter-spacing:3.03024px;word-spacing:0px;fill:#fff4b7;fill-opacity:1;stroke:#aa7640;stroke-width:0.717818;stroke-miterlimit:4;stroke-dasharray:none;stroke-opacity:1;filter:url(#filter4375-4-1-1-1-9-5-8-8-3-3-3-6-1)"
       x="787.65729"
       y="1584.5073"
       id="text4580-6-0-0-3-3"
       transform="matrix(1.8638978,0.03482744,-0.02797865,1.7134503,-24.142636,-1591.5913)"><tspan
         sodipodi:role="line"
         id="tspan4582-1-1-0-6-9"
         x="787.65729"
         y="1584.5073"
         style="font-style:normal;font-variant:normal;font-weight:bold;font-stretch:normal;font-size:64.9472px;line-height:1.25;font-family:Drukah;-inkscape-font-specification:'Drukah Bold';fill:#fff4b7;fill-opacity:1;stroke:#aa7640;stroke-width:0.717818;stroke-miterlimit:4;stroke-dasharray:none;stroke-opacity:1">24</tspan></text>
    <text
       inkscape:label="score3"
       transform="matrix(1.2690144,0.02292713,-0.01904896,1.1279754,1253.0008,-1039.0003)"
       id="text4580-6-0-0-3-3-6"
       y="1584.5073"
       x="787.65729"
       style="font-style:normal;font-variant:normal;font-weight:normal;font-stretch:normal;line-height:0%;font-family:Lavi;-inkscape-font-specification:Lavi;letter-spacing:3.03024px;word-spacing:0px;fill:#fff4b7;fill-opacity:1;stroke:#aa7640;stroke-width:1.0722;stroke-miterlimit:4;stroke-dasharray:none;stroke-opacity:1;filter:url(#filter4375-4-1-1-1-9-5-8-8-3-3-3-6-1-3)"
       xml:space="preserve"><tspan
         style="font-style:normal;font-variant:normal;font-weight:bold;font-stretch:normal;font-size:64.9472px;line-height:1.25;font-family:Drukah;-inkscape-font-specification:'Drukah Bold';fill:#fff4b7;fill-opacity:1;stroke:#aa7640;stroke-width:1.0722;stroke-miterlimit:4;stroke-dasharray:none;stroke-opacity:1"
         y="1584.5073"
         x="787.65729"
         id="tspan4582-1-1-0-6-9-0"
         sodipodi:role="line">38</tspan></text>
    <text
       inkscape:label="score4"
       transform="matrix(1.3315191,0.02602062,-0.0199872,1.28017,-221.75536,-1281.1588)"
       id="text4580-6-0-0-3-3-8"
       y="1584.5073"
       x="787.65729"
       style="font-style:normal;font-variant:normal;font-weight:normal;font-stretch:normal;line-height:0%;font-family:Lavi;-inkscape-font-specification:Lavi;letter-spacing:3.03024px;word-spacing:0px;opacity:0.801401;fill:#fff4b7;fill-opacity:1;stroke:#aa7640;stroke-width:0.982548;stroke-miterlimit:4;stroke-dasharray:none;stroke-opacity:1;filter:url(#filter4375-4-1-1-1-9-5-8-8-3-3-3-6-1-6)"
       xml:space="preserve"><tspan
         style="font-style:normal;font-variant:normal;font-weight:bold;font-stretch:normal;font-size:64.9472px;line-height:1.25;font-family:Drukah;-inkscape-font-specification:'Drukah Bold';fill:#fff4b7;fill-opacity:1;stroke:#aa7640;stroke-width:0.982548;stroke-miterlimit:4;stroke-dasharray:none;stroke-opacity:1"
         y="1584.5073"
         x="787.65729"
         id="tspan4582-1-1-0-6-9-9"
         sodipodi:role="line">6</tspan></text>
    <text
       inkscape:label="score5"
       xml:space="preserve"
       style="font-style:normal;font-variant:normal;font-weight:normal;font-stretch:normal;line-height:0%;font-family:Lavi;-inkscape-font-specification:Lavi;letter-spacing:2.67495px;word-spacing:0px;fill:#b5ffe1;fill-opacity:1;stroke:#316983;stroke-width:0.571301;stroke-miterlimit:4;stroke-dasharray:none;stroke-opacity:1;filter:url(#filter4375-4-1-1-1-9-5-8-8-3-3)"
       x="787.65729"
       y="1584.5073"
       id="text4580-6-0-0-3"
       transform="matrix(2.1319605,-0.09879571,-0.0320025,2.3670983,-1336.8076,-2672.2272)"><tspan
         sodipodi:role="line"
         id="tspan4582-1-1-0-6"
         x="787.65729"
         y="1584.5073"
         style="font-style:normal;font-variant:normal;font-weight:bold;font-stretch:normal;font-size:69.5991px;line-height:1.25;font-family:Drukah;-inkscape-font-specification:'Drukah Bold';fill:#b5ffe1;fill-opacity:1;stroke:#316983;stroke-width:0.571301;stroke-miterlimit:4;stroke-dasharray:none;stroke-opacity:1">12</tspan></text>
    <text
       inkscape:label="score6"
       xml:space="preserve"
       style="font-style:normal;font-variant:normal;font-weight:normal;font-stretch:normal;line-height:0%;font-family:Lavi;-inkscape-font-specification:Lavi;letter-spacing:3.03024px;word-spacing:0px;fill:#fff4b7;fill-opacity:1;stroke:#aa7640;stroke-width:1.22396;stroke-miterlimit:4;stroke-dasharray:none;stroke-opacity:1;filter:url(#filter4375-4-1-1-1-9-5-8-8-3-3-3-6-1-6-0)"
       x="787.65729"
       y="1584.5073"
       id="text4580-6-0-0-3-3-8-3"
       transform="matrix(0.98875845,0.02258105,-0.01484208,1.1109491,671.00231,-1079.7682)"><tspan
         sodipodi:role="line"
         id="tspan4582-1-1-0-6-9-9-7"
         x="787.65729"
         y="1584.5073"
         style="font-style:normal;font-variant:normal;font-weight:bold;font-stretch:normal;font-size:64.9472px;line-height:1.25;font-family:Lavi;-inkscape-font-specification:'Lavi Bold';fill:#fff4b7;fill-opacity:1;stroke:#aa7640;stroke-width:1.22396;stroke-miterlimit:4;stroke-dasharray:none;stroke-opacity:1">0</tspan></text>
    <text
       inkscape:label="score7"
       xml:space="preserve"
       style="font-style:normal;font-variant:normal;font-weight:normal;font-stretch:normal;line-height:0%;font-family:Lavi;-inkscape-font-specification:Lavi;letter-spacing:2.67495px;word-spacing:0px;fill:#b5ffe1;fill-opacity:1;stroke:#316983;stroke-width:1.15005;stroke-miterlimit:4;stroke-dasharray:none;stroke-opacity:1;filter:url(#filter4375-4-1-1-1-9-5-8-8-3-3-7-4)"
       x="787.65729"
       y="1584.5073"
       id="text4580-6-0-0-3-36-4"
       transform="matrix(1.0847661,-0.04791595,-0.01628324,1.1480435,800.61159,-989.03103)"><tspan
         sodipodi:role="line"
         id="tspan4582-1-1-0-6-1-3"
         x="787.65729"
         y="1584.5073"
         style="font-style:normal;font-variant:normal;font-weight:bold;font-stretch:normal;font-size:69.5991px;line-height:1.25;font-family:Drukah;-inkscape-font-specification:'Drukah Bold';fill:#b5ffe1;fill-opacity:1;stroke:#316983;stroke-width:1.15005;stroke-miterlimit:4;stroke-dasharray:none;stroke-opacity:1">5</tspan></text>
    <text
       inkscape:label="score8"
       transform="matrix(1.0847661,-0.04791595,-0.01628324,1.1480435,1309.4221,-1056.7201)"
       id="text4580-6-0-0-3-36-4-4"
       y="1584.5073"
       x="787.65729"
       style="font-style:normal;font-variant:normal;font-weight:normal;font-stretch:normal;line-height:0%;font-family:Lavi;-inkscape-font-specification:Lavi;letter-spacing:2.67495px;word-spacing:0px;fill:#b5ffe1;fill-opacity:1;stroke:#316983;stroke-width:1.15005;stroke-miterlimit:4;stroke-dasharray:none;stroke-opacity:1;filter:url(#filter4375-4-1-1-1-9-5-8-8-3-3-7-4-1)"
       xml:space="preserve"><tspan
         style="font-style:normal;font-variant:normal;font-weight:bold;font-stretch:normal;font-size:69.5991px;line-height:1.25;font-family:Lavi;-inkscape-font-specification:'Lavi Bold';fill:#b5ffe1;fill-opacity:1;stroke:#316983;stroke-width:1.15005;stroke-miterlimit:4;stroke-dasharray:none;stroke-opacity:1"
         y="1584.5073"
         x="787.65729"
         id="tspan4582-1-1-0-6-1-3-8"
         sodipodi:role="line">0</tspan></text>
    <text
       inkscape:label="score9"
       xml:space="preserve"
       style="font-style:normal;font-variant:normal;font-weight:normal;font-stretch:normal;line-height:0%;font-family:Lavi;-inkscape-font-specification:Lavi;letter-spacing:3.03024px;word-spacing:0px;fill:#b5ffe1;fill-opacity:1;stroke:#316983;stroke-width:1.831;stroke-miterlimit:4;stroke-dasharray:none;stroke-opacity:1;filter:url(#filter4375-4-1-1-1-9-5-8-8-3-3-3)"
       x="787.65729"
       y="1584.5073"
       id="text4580-6-0-0-3-3-6-1"
       transform="matrix(0.68141678,0.01464139,-0.01022863,0.72033121,1367.4752,-337.42385)"><tspan
         sodipodi:role="line"
         id="tspan4582-1-1-0-6-9-0-7"
         x="787.65729"
         y="1584.5073"
         style="font-style:normal;font-variant:normal;font-weight:bold;font-stretch:normal;font-size:70px;line-height:1.25;font-family:Drukah;-inkscape-font-specification:'Drukah Bold';fill:#b5ffe1;fill-opacity:1;stroke:#316983;stroke-width:1.831;stroke-miterlimit:4;stroke-dasharray:none;stroke-opacity:1">37</tspan></text>
    <text
       inkscape:label="score10"
       transform="matrix(0.68141678,0.01464139,-0.01022863,0.72033121,-6.2369482,-343.24167)"
       id="text4580-6-0-0-3-3-6-1-1"
       y="1584.5073"
       x="787.65729"
       style="font-style:normal;font-variant:normal;font-weight:normal;font-stretch:normal;line-height:0%;font-family:Lavi;-inkscape-font-specification:Lavi;letter-spacing:3.03024px;word-spacing:0px;fill:#b5ffe1;fill-opacity:1;stroke:#316983;stroke-width:1.831;stroke-miterlimit:4;stroke-dasharray:none;stroke-opacity:1;filter:url(#filter4375-4-1-1-1-9-5-8-8-3-3-3-2)"
       xml:space="preserve"><tspan
         style="font-style:normal;font-variant:normal;font-weight:bold;font-stretch:normal;font-size:70px;line-height:1.25;font-family:Drukah;-inkscape-font-specification:'Drukah Bold';fill:#b5ffe1;fill-opacity:1;stroke:#316983;stroke-width:1.831;stroke-miterlimit:4;stroke-dasharray:none;stroke-opacity:1"
         y="1584.5073"
         x="787.65729"
         id="tspan4582-1-1-0-6-9-0-7-7"
         sodipodi:role="line">21</tspan></text>
    <text
       inkscape:label="score11"
       xml:space="preserve"
       style="font-style:normal;font-variant:normal;font-weight:normal;font-stretch:normal;line-height:0%;font-family:Lavi;-inkscape-font-specification:Lavi;letter-spacing:3.03024px;word-spacing:0px;opacity:0.582599;fill:#fff890;fill-opacity:1;stroke:#a5813e;stroke-width:2.45512;stroke-miterlimit:4;stroke-dasharray:none;stroke-opacity:1;filter:url(#filter4375-4-1-1-1-9-5-8-8-3-3-3-0)"
       x="787.65729"
       y="1584.5073"
       id="text4580-6-0-0-3-3-6-2"
       transform="matrix(0.51292995,0.01081855,-0.0076995,0.53225404,517.25938,-43.941405)"><tspan
         sodipodi:role="line"
         id="tspan4582-1-1-0-6-9-0-8"
         x="787.65729"
         y="1584.5073"
         style="font-style:normal;font-variant:normal;font-weight:bold;font-stretch:normal;font-size:70px;line-height:1.25;font-family:Drukah;-inkscape-font-specification:'Drukah Bold';fill:#fff890;fill-opacity:1;stroke:#a5813e;stroke-width:2.45512;stroke-miterlimit:4;stroke-dasharray:none;stroke-opacity:1">62</tspan></text>
    <text
       inkscape:label="score12"
       transform="matrix(0.72322138,0.01582032,-0.01085615,0.77833243,560.82693,-455.54919)"
       id="text4580-6-0-0-3-3-6-2-1"
       y="1584.5073"
       x="787.65729"
       style="font-style:normal;font-variant:normal;font-weight:normal;font-stretch:normal;line-height:0%;font-family:Lavi;-inkscape-font-specification:Lavi;letter-spacing:3.03024px;word-spacing:0px;opacity:0.808568;fill:#fff890;fill-opacity:1;stroke:#a5813e;stroke-width:1.70979;stroke-miterlimit:4;stroke-dasharray:none;stroke-opacity:1;filter:url(#filter4375-4-1-1-1-9-5-8-8-3-3-3-0-1)"
       xml:space="preserve"><tspan
         style="font-style:normal;font-variant:normal;font-weight:bold;font-stretch:normal;font-size:70px;line-height:1.25;font-family:Drukah;-inkscape-font-specification:'Drukah Bold';fill:#fff890;fill-opacity:1;stroke:#a5813e;stroke-width:1.70979;stroke-miterlimit:4;stroke-dasharray:none;stroke-opacity:1"
         y="1584.5073"
         x="787.65729"
         id="tspan4582-1-1-0-6-9-0-8-2"
         sodipodi:role="line">27</tspan></text>
    <text
       inkscape:label="score13"
       transform="matrix(0.51292995,0.01081855,-0.0076995,0.53225404,1609.5785,-63.014753)"
       id="text4580-6-0-0-3-3-6-2-9"
       y="1584.5073"
       x="787.65729"
       style="font-style:normal;font-variant:normal;font-weight:normal;font-stretch:normal;line-height:0%;font-family:Lavi;-inkscape-font-specification:Lavi;letter-spacing:3.03024px;word-spacing:0px;opacity:0.582599;fill:#fff890;fill-opacity:1;stroke:#a5813e;stroke-width:2.45512;stroke-miterlimit:4;stroke-dasharray:none;stroke-opacity:1;filter:url(#filter4375-4-1-1-1-9-5-8-8-3-3-3-0-9)"
       xml:space="preserve"><tspan
         style="font-style:normal;font-variant:normal;font-weight:bold;font-stretch:normal;font-size:70px;line-height:1.25;font-family:Drukah;-inkscape-font-specification:'Drukah Bold';fill:#fff890;fill-opacity:1;stroke:#a5813e;stroke-width:2.45512;stroke-miterlimit:4;stroke-dasharray:none;stroke-opacity:1"
         y="1584.5073"
         x="787.65729"
         id="tspan4582-1-1-0-6-9-0-8-8"
         sodipodi:role="line">4</tspan></text>
    <text
       inkscape:label="exclam"
       xml:space="preserve"
       style="font-style:normal;font-variant:normal;font-weight:normal;font-stretch:normal;line-height:0%;font-family:Lavi;-inkscape-font-specification:Lavi;letter-spacing:0px;word-spacing:0px;fill:#ffffff;fill-opacity:1;stroke:#98b9ca;stroke-width:0.416378;stroke-miterlimit:4;stroke-dasharray:none;stroke-opacity:1;filter:url(#filter4375-4-1-1-1-9-5-8-6)"
       x="787.65729"
       y="1584.5073"
       id="text4580-6-0-06"
       transform="matrix(1.5826303,-0.61894977,-0.32565156,2.5639957,1451.8056,-2047.7944)"><tspan
         sodipodi:role="line"
         id="tspan4582-1-1-2"
         x="787.65729"
         y="1584.5073"
         style="font-size:70px;line-height:1.25;fill:#ffffff;fill-opacity:1;stroke:#98b9ca;stroke-width:0.416378;stroke-opacity:1"><tspan
           style="font-size:93.1495px;fill:#ffffff;fill-opacity:1;stroke:#98b9ca;stroke-width:0.416378;stroke-opacity:1"
           id="tspan4315-8-6">!</tspan><tspan
           style="font-size:114.732px;fill:#ffffff;fill-opacity:1;stroke:#98b9ca;stroke-width:0.416378;stroke-opacity:1"
           id="tspan4313-2-1">!</tspan></tspan></text>
    <text
       inkscape:label="kingA2"
       xml:space="preserve"
       style="font-style:normal;font-variant:normal;font-weight:normal;font-stretch:normal;font-size:17.15780067px;line-height:0%;font-family:Lavi;-inkscape-font-specification:Lavi;text-align:center;letter-spacing:17.38299942px;word-spacing:0px;text-anchor:middle;fill:#000000;fill-opacity:1;stroke:#000000;stroke-width:1.39999998;stroke-miterlimit:4;stroke-dasharray:none;stroke-opacity:1"
       x="2114.0156"
       y="2105.4497"
       id="text4246-6-3"
       transform="matrix(0.94973823,0,-0.10283936,1.0529217,0,0)"><tspan
         sodipodi:role="line"
         style="font-style:normal;font-variant:normal;font-weight:bold;font-stretch:normal;font-size:64.34169769px;line-height:1.20000005;font-family:Lavi;-inkscape-font-specification:'Lavi Bold';letter-spacing:1.09404004px;stroke:#000000;stroke-width:1.39999998;stroke-miterlimit:4;stroke-dasharray:none;stroke-opacity:1"
         x="2114.5627"
         y="2105.4497"
         id="tspan1117">VRĂJITOAAREOO!!!!</tspan><tspan
         id="tspan1823"
         sodipodi:role="line"
         style="font-style:normal;font-variant:normal;font-weight:bold;font-stretch:normal;font-size:64.34169769px;line-height:1.20000005;font-family:Lavi;-inkscape-font-specification:'Lavi Bold';letter-spacing:1.09404004px;stroke:#000000;stroke-width:1.39999998;stroke-miterlimit:4;stroke-dasharray:none;stroke-opacity:1"
         x="2114.5627"
         y="2182.6597">	CE AI FĂCUT?!!!!</tspan></text>
    <path
       inkscape:label="mask-frame"
       sodipodi:nodetypes="ccccc"
       d="m -701.51823,850.21107 1407.50009,-15.74496 36.48673,38.4014 -1480.41308,15.51244 z"
       transform="matrix(0.71419934,-0.69994235,0.70825401,0.70595769,0,0)"
       style="color:#000000;overflow:visible;opacity:1;fill:#ffffff;stroke:none;stroke-width:6.80023;paint-order:stroke fill markers"
       id="rect212" />
  </g>
</svg>
