<?xml version="1.0" encoding="UTF-8" standalone="no"?>
<!-- Created with Inkscape (http://www.inkscape.org/) -->

<svg
   xmlns:dc="http://purl.org/dc/elements/1.1/"
   xmlns:cc="http://creativecommons.org/ns#"
   xmlns:rdf="http://www.w3.org/1999/02/22-rdf-syntax-ns#"
   xmlns:svg="http://www.w3.org/2000/svg"
   xmlns="http://www.w3.org/2000/svg"
   xmlns:xlink="http://www.w3.org/1999/xlink"
   xmlns:sodipodi="http://sodipodi.sourceforge.net/DTD/sodipodi-0.dtd"
   xmlns:inkscape="http://www.inkscape.org/namespaces/inkscape"
   id="svg2"
   version="1.1"
   inkscape:version="0.92.3 (2405546, 2018-03-11)"
   width="2481"
   height="3503"
   sodipodi:docname="E26P06.svg">
  <metadata
     id="metadata8">
    <rdf:RDF>
      <cc:Work
         rdf:about="">
        <dc:format>image/svg+xml</dc:format>
        <dc:type
           rdf:resource="http://purl.org/dc/dcmitype/StillImage" />
        <dc:title />
      </cc:Work>
    </rdf:RDF>
  </metadata>
  <defs
     id="defs6" />
  <sodipodi:namedview
     pagecolor="#ffffff"
     bordercolor="#666666"
     borderopacity="1"
     objecttolerance="10"
     gridtolerance="10"
     guidetolerance="10"
     inkscape:pageopacity="0"
     inkscape:pageshadow="2"
     inkscape:window-width="1920"
     inkscape:window-height="1023"
     id="namedview4"
     showgrid="false"
     inkscape:zoom="0.56249128"
     inkscape:cx="1192.0567"
     inkscape:cy="1009.2124"
     inkscape:window-x="0"
     inkscape:window-y="27"
     inkscape:window-maximized="0"
     inkscape:current-layer="layer3"
     inkscape:snap-global="false" />
  <g
     inkscape:groupmode="layer"
     id="layer2"
     inkscape:label="artwork"
     sodipodi:insensitive="true">
    <image
       sodipodi:absref="/home/fanick/gitrepos/webcomics/ep26_Books-Are-Great/lang/cs/../gfx_Pepper-and-Carrot_by-David-Revoy_E26P06.png"
       xlink:href="../gfx_Pepper-and-Carrot_by-David-Revoy_E26P06.png"
       width="2481"
       height="3503"
       id="image10"
       x="0"
       y="0" />
  </g>
  <g
     inkscape:groupmode="layer"
     id="layer3"
     inkscape:label="speechbubbles">
    <path
       style="color:#000000;display:inline;overflow:visible;visibility:visible;fill:#ffffff;fill-opacity:1;fill-rule:nonzero;stroke:none;stroke-width:1.00672984px;marker:none;enable-background:accumulate"
       d="m 1650.2365,2230.4959 c -15.6271,-6.4009 -60.6869,-57.1034 -5.4231,-54.4552 -40.6727,-21.3342 -35.266,-63.7931 -1.842,-88.5905 -43.8406,5.0682 -76.3741,-5.5139 -53.7843,-49.3357 -64.8475,28.0637 -82.2769,16.1694 -68.8004,-45.3828 -29.8726,50.7908 -66.2832,56.0307 -73.6645,-3.3847 -6.7318,44.2861 -22.3002,52.6793 -65.1372,-3.0813 -3.1531,16.2499 -14.4935,86.3814 -106.8632,71.6253 35.0058,30.9732 57.2427,50.7998 -2.3265,63.9025 30.3586,13.9336 49.7188,32.8095 2.4039,62.7968 30.6578,9.4707 79.1597,6.6949 20.2615,64.0487 38.831,-27.1074 103.6055,-7.5211 75.6867,36.2032 76.0925,-49.1299 98.9554,-40.7811 96.3891,-1.506 28.2927,-51.546 75.0088,-45.0286 98.7912,-15.0648 -11.5614,-45.6798 49.3677,-37.795 84.3088,-37.7755 z"
       id="path3549-3-78"
       inkscape:connector-curvature="0"
       sodipodi:nodetypes="ccccccccccccccc" />
    <path
       style="color:#000000;display:inline;overflow:visible;visibility:visible;fill:#ffffff;fill-opacity:1;fill-rule:nonzero;stroke:none;stroke-width:1.01871407px;marker:none;enable-background:accumulate"
       d="m 1467.4531,2404.2976 c 0.2386,50.4978 -16.7375,117.0019 -95.1791,91.6914 -29.62,24.1691 -55.0402,39.0889 -117.3131,14.9333 49.0023,9.3229 76.7014,9.0009 117.4297,-30.0356 41.8448,7.8246 75.1258,-23.8823 63.5006,-85.6916 -11.6254,-61.8095 -13.3288,-44.5834 -13.3288,-44.5834 l 42.0749,35.4748 z"
       id="path5074"
       inkscape:connector-curvature="0"
       sodipodi:nodetypes="ccccsccc" />
    <path
       style="color:#000000;display:inline;overflow:visible;visibility:visible;fill:#ffffff;fill-opacity:1;fill-rule:nonzero;stroke:none;stroke-width:0.81261379px;marker:none;enable-background:accumulate"
       d="m 1104.7523,1940.9358 c 19.1479,-21.9569 194.979,-37.7437 251.7865,7.505 56.8073,45.2485 27.6756,92.6504 -4.9189,109.9271 -32.5943,17.2767 -171.0477,22.1424 -215.7732,13.3441 -40.2196,-7.912 -58.3379,-27.7491 -60.5636,-73.0746 -0.9085,-18.4992 10.3212,-35.7446 29.4692,-57.7016 z"
       id="path4040"
       inkscape:connector-curvature="0"
       sodipodi:nodetypes="zssssz" />
    <path
       style="color:#000000;display:inline;overflow:visible;visibility:visible;fill:#ffffff;fill-opacity:1;fill-rule:nonzero;stroke:none;stroke-width:0.82735699px;marker:none;enable-background:accumulate"
       d="m 1330.2752,2254.1536 c 18.3879,-23.7017 187.2398,-40.7429 241.7924,8.1013 54.5525,48.8441 26.5771,100.0126 -4.7236,118.6621 -31.3006,18.6496 -164.2584,23.9019 -207.2086,14.4045 -38.6232,-8.5407 -56.0223,-29.9541 -58.1597,-78.8813 -0.8724,-19.9691 9.9115,-38.5849 28.2995,-62.2866 z"
       id="path4040-3"
       inkscape:connector-curvature="0"
       sodipodi:nodetypes="zssssz" />
  </g>
  <g
     inkscape:groupmode="layer"
     id="layer1"
     inkscape:label="txt">
    <path
       style="color:#000000;display:inline;overflow:visible;visibility:visible;fill:#ffffff;fill-opacity:1;fill-rule:nonzero;stroke:none;stroke-width:1px;marker:none;enable-background:accumulate"
       d="m 1740.3605,637.95688 c 17.4053,17.1181 35.3748,35.0294 57.0685,48.7241 6.1988,3.8199 12.7078,7.5251 19.009,9.9498 6.3746,1.4498 9.8735,-1.4122 10.2479,-5.6132 1.1947,-5.7353 -1.4145,-13.9047 3.6212,-17.285 3.8153,-2.3306 11.4822,0.8814 17.8675,3.1704 16.3272,6.0748 33.0627,13.8279 48.9378,17.9363 18.2324,5.5799 37.1007,10.4081 51.0148,8.0016 5.4182,-1.0555 10.3442,-3.0194 11.8487,-7.4624 -11.8529,-30.14705 -41.315,-28.57407 -60.2412,-23.1796 -6.8911,1.9398 -18.3474,-1.96756 -28.217,-4.71516 -12.4299,-0.8743 -25.0467,-6.21694 -38.7607,-12.19864 -6.261,-2.6676 -12.8949,-5.2059 -18.2978,-5.4716 -6.5707,1.3916 -9.2612,7.0734 -7.7874,13.4873 1.2952,6.5363 4.2551,10.27689 -1.1401,13.11709 -3.0033,2.6585 -7.7221,-0.63503 -13.1082,-3.00783 -17.4337,-9.2145 -34.1552,-18.02906 -48.3937,-31.46116 -1.2852,-1.3148 -2.4776,-2.6514 -3.6693,-3.992 z"
       id="path4496"
       inkscape:connector-curvature="0"
       sodipodi:nodetypes="cccccccccccccccccc"
       inkscape:transform-center-x="22.684309"
       inkscape:transform-center-y="9.4517954" />
    <path
       style="color:#000000;display:inline;overflow:visible;visibility:visible;fill:#ffffff;fill-opacity:1;fill-rule:nonzero;stroke:none;stroke-width:1.04403937px;marker:none;enable-background:accumulate"
       d="m 1866.2645,682.21912 c -5.16,-36.09273 48.323,-53.47964 156.8321,-53.15731 108.5091,0.32233 186.5423,-1.06812 207.9409,54.54926 8.093,45.89008 -98.5528,55.95106 -192.6644,54.94894 -94.1113,-1.00211 -176.3454,-9.66529 -172.1086,-56.34089 z"
       id="path3565"
       inkscape:connector-curvature="0"
       sodipodi:nodetypes="cscsc" />
    <text
       xml:space="preserve"
       style="font-style:normal;font-variant:normal;font-weight:normal;font-stretch:normal;line-height:0%;font-family:Lavi;-inkscape-font-specification:Lavi;text-align:center;letter-spacing:0px;word-spacing:0px;text-anchor:middle;fill:#000000;fill-opacity:1;stroke:none"
       x="2040.17"
       y="655.12402"
       id="text4246-5-3"><tspan
         sodipodi:role="line"
         style="font-size:45px;line-height:1.25"
         x="2040.17"
         y="658.62146"
         id="tspan890" /><tspan
         sodipodi:role="line"
         style="font-size:45px;line-height:1.25"
         x="2040.17"
         y="696.3645"
         id="tspan917">...ledaže</tspan></text>
    <path
       style="color:#000000;display:inline;overflow:visible;visibility:visible;fill:#ffffff;fill-opacity:1;fill-rule:nonzero;stroke:none;stroke-width:1.50382614px;marker:none;enable-background:accumulate"
       d="m 917.47421,1029.7762 c 0,0 60.6469,11.021 70.27329,16.9555 9.6264,5.9344 -64.64891,103.7675 -206.82049,193.0191 146.4033,-81.1884 278.69889,-156.842 298.91449,-154.2986 -8.6637,16.9553 -39.9065,47.6441 -39.9065,47.6441 0,0 92.2094,-44.8238 101.8359,-43.9759 -2.8879,7.6298 3.8507,22.8898 3.8507,22.8898 l 43.8483,-9.9699 -47.7495,43.8426 c 0,0 147.1986,-50.6441 154.0738,-48.2849 7.8153,2.3592 -5.7757,49.171 -5.7757,49.171 l 43.8941,-34.7205 -2.5003,17.765 32.73,-28.8244 10.589,16.1077 22.8327,-17.8234 0.2708,18.6713 36.5806,-24.5856 12.5143,2.5434 31.7674,38.9976 11.9236,-19.9649 14.0678,-29.2451 56.7963,32.2546 3.8504,-4.2389 -5.4109,-34.226 28.5145,24.0527 -2.6371,-25.4135 26.7033,5.9146 20.512,12.4611 27.6204,17.2111 -6.3054,-35.4032 34.9339,18.2252 -8.4129,-32.8407 37.5432,13.5645 11.5517,8.4776 2.8878,-15.2598 12.5145,-0.8479 23.1034,5.9346 30.6681,5.7692 29.0437,6.1983 -53.9359,-43.3352 -13.4768,-11.8688 49.0949,-11.8689 11.5,-108.50431 -22.1281,-47.79742 -818.33992,3.29452 -112.85677,10.49659 99.85033,89.40223 -40.77238,9.02411 42.35651,12.7167 -41.39381,19.49878 25.99137,13.5643 z"
       id="path3931"
       inkscape:connector-curvature="0"
       sodipodi:nodetypes="ccccccccccccccccccccccccccccccccccccccccccccccccccccc" />
    <text
       xml:space="preserve"
       style="font-style:normal;font-variant:normal;font-weight:normal;font-stretch:normal;font-size:23.13890648px;line-height:0%;font-family:Lavi;-inkscape-font-specification:Lavi;text-align:center;letter-spacing:0px;word-spacing:0px;text-anchor:middle;fill:#000000;fill-opacity:1;stroke:none;stroke-width:1.92824221"
       x="1625.3549"
       y="1017.8533"
       id="text4246-1"
       transform="matrix(0.97391078,0,-0.20538452,1.0267881,0,0)"><tspan
         sodipodi:role="line"
         style="font-style:normal;font-variant:normal;font-weight:bold;font-stretch:normal;font-size:86.77090454px;line-height:1.25;font-family:Lavi;-inkscape-font-specification:'Lavi Bold';stroke-width:1.92824221"
         x="1625.3549"
         y="1017.8533"
         id="tspan1013"><tspan
           style="font-size:85.70414734px;stroke-width:1.92824221"
           id="tspan877">JÁÁÁ</tspan><tspan
           style="font-size:103.88381195px;stroke-width:1.92824221"
           id="tspan867"><tspan
   style="font-size:94.55047607px"
   id="tspan42">Á</tspan>Á<tspan
   style="font-size:114.55047607px"
   id="tspan46">Á</tspan></tspan><tspan
           id="tspan875"
           style="font-size:129.85476685px;stroke-width:1.92824221">Á</tspan><tspan
           id="tspan887"
           style="font-size:150.49238586px;stroke-width:1.92824221">Á</tspan><tspan
           id="tspan885"
           style="font-size:168.811203px;stroke-width:1.92824221"><tspan
   style="font-size:160.811203px"
   id="tspan48">!</tspan>!<tspan
   style="font-size:178.14454651px"
   id="tspan52">!</tspan></tspan></tspan></text>
    <text
       xml:space="preserve"
       style="font-style:normal;font-variant:normal;font-weight:normal;font-stretch:normal;font-size:18.67560768px;line-height:0%;font-family:Lavi;-inkscape-font-specification:Lavi;text-align:center;letter-spacing:0px;word-spacing:0px;text-anchor:middle;fill:#000000;fill-opacity:1;stroke:none;stroke-width:1.92493451;stroke-miterlimit:4;stroke-dasharray:none;stroke-dashoffset:0"
       x="2273.8328"
       y="1599.2814"
       id="text4246-1-3"
       transform="matrix(0.72588626,-0.17326363,0.24142568,1.3199998,0,0)"><tspan
         sodipodi:role="line"
         style="font-style:normal;font-variant:normal;font-weight:bold;font-stretch:normal;font-size:70.03353882px;line-height:1.25;font-family:Lavi;-inkscape-font-specification:'Lavi Bold';stroke:#000000;stroke-width:1.92493451;stroke-linecap:square;stroke-miterlimit:4;stroke-dasharray:none;stroke-dashoffset:0;stroke-opacity:1;paint-order:normal"
         x="2273.8328"
         y="1599.2814"
         id="tspan1013-6"><tspan
           id="tspan875-3"
           style="font-style:normal;font-variant:normal;font-weight:normal;font-stretch:normal;font-size:150.66026306px;font-family:Lavi;-inkscape-font-specification:Lavi;stroke:#000000;stroke-width:1.92493451;stroke-linecap:square;stroke-miterlimit:4;stroke-dasharray:none;stroke-dashoffset:0;stroke-opacity:1;paint-order:normal">L</tspan><tspan
           id="tspan932"
           style="font-size:120.62905121px;stroke:#000000;stroke-width:1.92493451;stroke-linecap:square;stroke-miterlimit:4;stroke-dasharray:none;stroke-dashoffset:0;stroke-opacity:1;paint-order:normal">UP</tspan><tspan
           id="tspan885-6"
           style="font-style:normal;font-variant:normal;font-weight:normal;font-stretch:normal;font-size:172.18313599px;font-family:Lavi;-inkscape-font-specification:Lavi;stroke:#000000;stroke-width:1.92493451;stroke-linecap:square;stroke-miterlimit:4;stroke-dasharray:none;stroke-dashoffset:0;stroke-opacity:1;paint-order:normal">!</tspan></tspan></text>
    <text
       xml:space="preserve"
       style="font-style:normal;font-variant:normal;font-weight:normal;font-stretch:normal;font-size:15.89058971px;line-height:0%;font-family:Lavi;-inkscape-font-specification:Lavi;text-align:center;letter-spacing:0px;word-spacing:0px;text-anchor:middle;fill:#000000;fill-opacity:1;stroke:none;stroke-width:1.17751098"
       x="1458.3812"
       y="2121.4514"
       id="text4246-1-3-2"
       transform="scale(0.99789912,1.0021053)"><tspan
         sodipodi:role="line"
         style="font-style:normal;font-variant:normal;font-weight:bold;font-stretch:normal;font-size:59.58971024px;line-height:1.25;font-family:Lavi;-inkscape-font-specification:'Lavi Bold';stroke-width:1.17751098"
         x="1467.6921"
         y="2121.4514"
         id="tspan914">knihy jsou </tspan><tspan
         sodipodi:role="line"
         style="font-style:normal;font-variant:normal;font-weight:bold;font-stretch:normal;font-size:59.58971024px;line-height:1.25;font-family:Lavi;-inkscape-font-specification:'Lavi Bold';stroke-width:1.17751098"
         x="1467.6921"
         y="2195.9387"
         id="tspan5656">skvělé... </tspan><tspan
         sodipodi:role="line"
         style="font-style:normal;font-variant:normal;font-weight:bold;font-stretch:normal;font-size:59.58971024px;line-height:1.25;font-family:Lavi;-inkscape-font-specification:'Lavi Bold';stroke-width:1.17751098"
         x="1458.3812"
         y="2220.446"
         id="tspan5662" /></text>
    <text
       xml:space="preserve"
       style="font-style:normal;font-variant:normal;font-weight:normal;font-stretch:normal;line-height:0%;font-family:Lavi;-inkscape-font-specification:Lavi;text-align:center;letter-spacing:0px;word-spacing:0px;text-anchor:middle;fill:#000000;fill-opacity:1;stroke:none"
       x="1232.4353"
       y="1972.5277"
       id="text4246-5"><tspan
         sodipodi:role="line"
         style="font-size:45px;line-height:1.25"
         x="1232.4353"
         y="1972.5277"
         id="tspan859">Ne,</tspan><tspan
         sodipodi:role="line"
         style="font-size:45px;line-height:1.25"
         x="1232.4353"
         y="2028.7777"
         id="tspan982">je to pravda;</tspan><tspan
         sodipodi:role="line"
         style="font-size:45px;line-height:1.25"
         x="1232.4353"
         y="2047.2847"
         id="tspan5652" /></text>
    <text
       xml:space="preserve"
       style="font-style:normal;font-variant:normal;font-weight:normal;font-stretch:normal;line-height:0%;font-family:Lavi;-inkscape-font-specification:Lavi;text-align:center;letter-spacing:0px;word-spacing:0px;text-anchor:middle;display:inline;opacity:1;fill:#241c1c;fill-opacity:1;stroke:#000000;stroke-width:0;stroke-miterlimit:4;stroke-dasharray:none;stroke-opacity:1"
       x="2414.1099"
       y="3323.9915"
       id="text4213"
       transform="matrix(0.95719015,0,-0.32603671,1.0447245,0,0)"><tspan
         sodipodi:role="line"
         id="tspan3562"
         x="2414.1099"
         y="3323.9915"
         style="font-style:normal;font-variant:normal;font-weight:bold;font-stretch:normal;font-size:72.18077087px;line-height:1.25;font-family:Lavi;-inkscape-font-specification:'Lavi Bold';fill:#000000;fill-opacity:1;stroke:none;stroke-width:0;stroke-miterlimit:4;stroke-dasharray:none">-KONEC -</tspan></text>
    <text
       xml:space="preserve"
       style="font-style:normal;font-variant:normal;font-weight:normal;font-stretch:normal;line-height:0%;font-family:Lavi;-inkscape-font-specification:Lavi;text-align:center;letter-spacing:0px;word-spacing:0px;text-anchor:middle;fill:#000000;fill-opacity:1;stroke:none"
       x="1448.41"
       y="2304.9348"
       id="text4246-5-4"><tspan
         sodipodi:role="line"
         style="font-size:45px;line-height:1.25"
         x="1455.4413"
         y="2304.9348"
         id="tspan5741">...za všech </tspan><tspan
         sodipodi:role="line"
         style="font-size:45px;line-height:1.25"
         x="1448.41"
         y="2361.1848"
         id="tspan5745">okolností</tspan></text>
  </g>
</svg>
