<?xml version="1.0" encoding="UTF-8" standalone="no"?>
<!-- Created with Inkscape (http://www.inkscape.org/) -->

<svg
   xmlns:dc="http://purl.org/dc/elements/1.1/"
   xmlns:cc="http://creativecommons.org/ns#"
   xmlns:rdf="http://www.w3.org/1999/02/22-rdf-syntax-ns#"
   xmlns:svg="http://www.w3.org/2000/svg"
   xmlns="http://www.w3.org/2000/svg"
   xmlns:xlink="http://www.w3.org/1999/xlink"
   xmlns:sodipodi="http://sodipodi.sourceforge.net/DTD/sodipodi-0.dtd"
   xmlns:inkscape="http://www.inkscape.org/namespaces/inkscape"
   id="svg2"
   version="1.1"
   inkscape:version="0.92.2 2405546, 2018-03-11"
   width="2481"
   height="3503"
   sodipodi:docname="E17P06.svg">
  <metadata
     id="metadata8">
    <rdf:RDF>
      <cc:Work
         rdf:about="">
        <dc:format>image/svg+xml</dc:format>
        <dc:type
           rdf:resource="http://purl.org/dc/dcmitype/StillImage" />
        <dc:title />
      </cc:Work>
    </rdf:RDF>
  </metadata>
  <defs
     id="defs6" />
  <sodipodi:namedview
     pagecolor="#ffffff"
     bordercolor="#666666"
     borderopacity="1"
     objecttolerance="10"
     gridtolerance="10"
     guidetolerance="10"
     inkscape:pageopacity="0"
     inkscape:pageshadow="2"
     inkscape:window-width="1920"
     inkscape:window-height="1011"
     id="namedview4"
     showgrid="false"
     inkscape:zoom="0.64686496"
     inkscape:cx="1000.5199"
     inkscape:cy="928.21017"
     inkscape:window-x="0"
     inkscape:window-y="41"
     inkscape:window-maximized="1"
     inkscape:current-layer="layer3" />
  <g
     inkscape:groupmode="layer"
     id="layer2"
     inkscape:label="artwork"
     sodipodi:insensitive="true"
     style="display:inline">
    <image
       sodipodi:absref="/home/nightlock/peppercarrot/webcomics/ep17_A-Fresh-Start/lang/kr/../gfx_Pepper-and-Carrot_by-David-Revoy_E17P06.png"
       xlink:href="../gfx_Pepper-and-Carrot_by-David-Revoy_E17P06.png"
       y="0"
       x="0"
       id="image10"
       height="3503"
       width="2481" />
  </g>
  <g
     inkscape:groupmode="layer"
     id="layer3"
     inkscape:label="speechbubbles">
    <path
       style="fill:#ffffff;stroke:none"
       d="m 1158.4637,1451.4835 c -21.0411,-91.5539 -143.0689,-114.3577 -110.3443,-117.2114 25.379,-2.2134 231.9058,-2.2635 301.3707,-4.0593 69.4649,-1.796 248.3846,2.6477 306.9257,7.1499 62.7054,4.8223 81.4512,48.229 86.081,97.486 6.0768,64.6552 -21.3014,77.8073 -65.524,99.6199 -44.8664,22.13 -275.9138,30.52 -291.7521,28.7848 -15.8382,-1.7356 -344.1158,5.2809 -358.0185,-0.7946 -13.9029,-6.0755 136.8618,-63.9311 131.2615,-110.9753 z"
       id="path3278-7"
       inkscape:connector-curvature="0"
       sodipodi:nodetypes="csssssssc" />
    <path
       style="color:#000000;display:inline;overflow:visible;visibility:visible;fill:#ffffff;fill-opacity:1;fill-rule:nonzero;stroke:none;stroke-width:0.95198303px;marker:none;enable-background:accumulate"
       d="m 278.30722,2448.5057 c 2.35551,-57.048 42.6552,-99.0445 149.54106,-89.032 57.25382,5.3632 122.21804,8.6969 119.43048,92.2637 -2.78763,83.5668 -96.10592,82.0452 -115.3293,84.1281 -19.22341,2.0827 -119.67242,-6.0046 -137.70426,-34.3037 -11.28751,-17.7147 -15.94675,-35.3928 -15.93798,-53.0561 z"
       id="path4546-6"
       inkscape:connector-curvature="0"
       sodipodi:nodetypes="cssssc" />
    <path
       style="color:#000000;display:inline;overflow:visible;visibility:visible;fill:#ffffff;fill-opacity:1;fill-rule:nonzero;stroke:none;stroke-width:1px;marker:none;enable-background:accumulate"
       d="m 870.07243,2590.5972 c -23.62035,-34.1403 -42.50363,-36.5905 -55.96461,-39.6154 -1.87547,3.3952 -6.49852,8.7941 -6.49852,8.7941 0,0 -25.97688,-8.0908 -36.79234,-8.3139 -10.8154,-0.2233 -11.06323,11.4471 -11.06323,11.4471 0,0 50.13669,16.8309 59.91961,23.2139 4.71046,-9.5178 8.40315,-13.5624 8.49056,-17.6813 8.12621,-0.5191 33.14349,10.2991 41.90853,22.1555 z"
       id="path4456"
       inkscape:connector-curvature="0" />
    <path
       style="color:#000000;display:inline;overflow:visible;visibility:visible;fill:#ffffff;fill-opacity:1;fill-rule:nonzero;stroke:none;stroke-width:0.92949766px;marker:none;enable-background:accumulate"
       d="m 495.65661,2488.6542 c 27.86852,-42.3494 179.448,-38.7341 229.88132,-20.3864 50.43309,18.3477 69.19893,49.9464 71.54463,61.159 2.3456,11.2124 -3.51855,63.1976 -29.32162,73.3908 -25.80297,10.1932 -99.69332,15.2897 -125.49639,15.2897 -25.80298,0 -108.17185,-6.4878 -129.01516,-21.4057 -19.93872,-14.2704 -45.46143,-65.6983 -17.59278,-108.0474 z"
       id="path3330"
       inkscape:connector-curvature="0"
       sodipodi:nodetypes="zsssssz" />
    <path
       style="fill:#ffffff;stroke:none"
       d="m 1305.4599,1686.9052 c -61.4509,-16.3887 -30.8533,-65.2702 -45.5225,-67.9315 -14.6694,-2.6615 -27.8562,-6.807 -33.7712,-15.0125 -5.9149,-8.2051 -17.4337,-18.7558 -18.2822,-28.6243 -0.8487,-9.8684 -23.7836,-10.6121 -33.4878,-14.4455 -9.7043,-3.8334 -11.9428,-27.0084 -31.3844,-32.284 5.3237,-14.6209 97.6313,-19.5261 101.1522,-6.625 3.0581,11.2046 -31.3327,8.8903 -26.385,11.6146 4.9478,2.7247 15.8223,5.1341 19.2489,15.2244 3.4267,10.0904 1.9896,20.862 2.9452,28.9403 0.9559,8.0785 12.0525,14.9191 22.8341,19.6159 10.8918,4.7448 13.7129,2.9923 22.8729,15.641 10.2162,14.1071 -25.9903,41.4407 19.7798,73.8866 z"
       id="path3023-2"
       inkscape:connector-curvature="0"
       sodipodi:nodetypes="csssscssssssc" />
    <path
       style="color:#000000;display:inline;overflow:visible;visibility:visible;fill:#ffffff;fill-opacity:1;fill-rule:nonzero;stroke:none;stroke-width:0.8637473px;marker:none;enable-background:accumulate"
       d="m 1776.2528,1694.7896 c -2.3414,-41.8748 65.5774,-82.0503 264.6649,-74.2143 230.572,9.0752 240.2779,13.3077 240.9792,93.0373 0.5321,60.5035 -67.5385,77.6727 -96.8541,84.5628 -29.3158,6.8901 -76.5333,10.9054 -162.303,11.1927 -84.9043,0.2844 -160.9522,-15.9862 -196.2004,-33.3175 -28.5743,-14.0498 -50.1692,-33.2864 -50.2866,-81.261 z"
       id="path3365"
       inkscape:connector-curvature="0"
       sodipodi:nodetypes="csssssc" />
    <path
       style="color:#000000;display:inline;overflow:visible;visibility:visible;fill:#ffffff;fill-opacity:1;fill-rule:nonzero;stroke:none;stroke-width:1px;marker:none;enable-background:accumulate"
       d="m 1773.6345,1852.6935 c 20.6585,1.8503 42.0221,4.0502 66.635,-2.9295 7.0191,-2.1076 14.3439,-4.6924 21.2622,-8.6072 6.8497,-5.1792 10.0657,-12.467 9.831,-17.98 0.3909,-8.2705 -3.5388,-15.3573 1.1997,-24.9485 3.6243,-6.9865 12.0808,-11.4315 19.0666,-15.6028 17.8952,-10.396 36.4648,-19.1971 53.5972,-31.4906 19.8044,-13.0719 40.1589,-27.7498 54.2823,-45.8251 5.4819,-7.1824 10.3168,-14.933 11.2221,-21.9705 3.3226,-18.3701 -5.898,-33.4735 -24.721,-35.5762 -12.7554,-0.1579 -31.116,10.8278 -37.1785,23.8071 -3.3077,6.857 -1.2679,12.4236 2.5712,15.9087 4.8396,8.3144 1.708,21.3756 -6.8119,33.2872 -6.8835,9.8609 -16.573,19.0871 -27.2529,26.4949 -13.0662,12.4722 -29.8055,18.2178 -44.9671,25.8816 -6.9126,3.5757 -14.194,7.7145 -19.8565,13.2749 -6.6316,8.8458 -4.9747,16.822 -2.4875,23.0116 2.3193,6.5328 6.0945,13.475 0.9017,22.8012 -2.7306,6.501 -11.3267,8.4182 -17.2848,11.3996 -19.5136,7.7854 -38.7819,10.7385 -55.5968,9.9195 -1.533,-0.1984 -2.9725,-0.5244 -4.412,-0.8559 z"
       id="path4496"
       inkscape:connector-curvature="0" />
  </g>
  <g
     inkscape:groupmode="layer"
     id="layer1"
     inkscape:label="txt">
    <text
       id="text38"
       y="1409.5764"
       x="1860.2533"
       style="font-style:normal;font-variant:normal;font-weight:normal;font-stretch:normal;font-size:13.72762775px;line-height:100%;font-family:'Nanum Pen Script OTF';-inkscape-font-specification:'Nanum Pen Script OTF';text-align:center;letter-spacing:0px;word-spacing:0px;text-anchor:middle;fill:#000000;fill-opacity:1;stroke:none;stroke-width:1.14396906"
       xml:space="preserve"
       transform="skewX(-18.924523)"><tspan
         id="tspan36"
         y="1409.5764"
         x="1860.2533"
         style="font-style:normal;font-variant:normal;font-weight:normal;font-stretch:normal;font-size:51.47860336px;line-height:100%;font-family:'Nanum Pen Script OTF';-inkscape-font-specification:'Nanum Pen Script OTF';stroke-width:1.14396906"
         sodipodi:role="line">&quot;진정한 카오사의 마녀는</tspan><tspan
         y="1461.0551"
         x="1860.2533"
         style="font-style:normal;font-variant:normal;font-weight:normal;font-stretch:normal;font-size:51.47860336px;line-height:100%;font-family:'Nanum Pen Script OTF';-inkscape-font-specification:'Nanum Pen Script OTF';stroke-width:1.14396906"
         sodipodi:role="line"
         id="tspan51">나침반도 지도도 필요 없다.</tspan><tspan
         y="1512.5336"
         x="1860.2533"
         style="font-style:normal;font-variant:normal;font-weight:normal;font-stretch:normal;font-size:51.47860336px;line-height:100%;font-family:'Nanum Pen Script OTF';-inkscape-font-specification:'Nanum Pen Script OTF';stroke-width:1.14396906"
         sodipodi:role="line"
         id="tspan53">별이 보이는 하늘이면 충분하다&quot;</tspan></text>
    <text
       transform="scale(1.0253273,0.97529833)"
       id="text44"
       y="2497.4458"
       x="401.51068"
       style="font-style:normal;font-variant:normal;font-weight:normal;font-stretch:normal;font-size:16.86009979px;line-height:100%;font-family:'Nanum Pen Script OTF';-inkscape-font-specification:'Nanum Pen Script OTF';text-align:center;letter-spacing:0px;word-spacing:0px;text-anchor:middle;fill:#000000;fill-opacity:1;stroke:none;stroke-width:1.40500832"
       xml:space="preserve"><tspan
         id="tspan42"
         y="2497.4458"
         x="401.51068"
         style="font-style:normal;font-variant:normal;font-weight:normal;font-stretch:normal;font-size:64.8266983px;line-height:100%;font-family:'Nanum Pen Script OTF';-inkscape-font-specification:'Nanum Pen Script OTF';stroke-width:1.40500832"
         sodipodi:role="line">힘 내</tspan><tspan
         y="2562.2725"
         x="401.51068"
         style="font-style:normal;font-variant:normal;font-weight:normal;font-stretch:normal;font-size:64.8266983px;line-height:100%;font-family:'Nanum Pen Script OTF';-inkscape-font-specification:'Nanum Pen Script OTF';stroke-width:1.40500832"
         sodipodi:role="line"
         id="tspan100">당근아!</tspan></text>
    <text
       id="text50"
       y="2519.6885"
       x="645.35236"
       style="font-style:normal;font-variant:normal;font-weight:normal;font-stretch:normal;font-size:16.03370857px;line-height:100%;font-family:'Nanum Pen Script OTF';-inkscape-font-specification:'Nanum Pen Script OTF';text-align:center;letter-spacing:0px;word-spacing:0px;text-anchor:middle;fill:#000000;fill-opacity:1;stroke:none;stroke-width:1.33614242"
       xml:space="preserve"><tspan
         id="tspan46"
         y="2519.6885"
         x="645.35236"
         style="font-style:normal;font-variant:normal;font-weight:normal;font-stretch:normal;font-size:60.12640762px;line-height:100%;font-family:'Nanum Pen Script OTF';-inkscape-font-specification:'Nanum Pen Script OTF';stroke-width:1.33614242"
         sodipodi:role="line">봐,</tspan><tspan
         id="tspan48"
         y="2579.8149"
         x="645.35236"
         style="font-style:normal;font-variant:normal;font-weight:normal;font-stretch:normal;font-size:60.12640762px;line-height:100%;font-family:'Nanum Pen Script OTF';-inkscape-font-specification:'Nanum Pen Script OTF';stroke-width:1.33614242"
         sodipodi:role="line">우리 다 왔어!</tspan></text>
    <text
       id="text60"
       y="1704.7054"
       x="2026.1655"
       style="font-style:normal;font-variant:normal;font-weight:normal;font-stretch:normal;font-size:15.97542095px;line-height:100%;font-family:'Nanum Pen Script OTF';-inkscape-font-specification:'Nanum Pen Script OTF';text-align:center;letter-spacing:0px;word-spacing:0px;text-anchor:middle;fill:#000000;fill-opacity:1;stroke:none;stroke-width:1.33128512"
       xml:space="preserve"><tspan
         id="tspan58"
         y="1704.7054"
         x="2026.1655"
         style="font-style:normal;font-variant:normal;font-weight:normal;font-stretch:normal;font-size:59.90782928px;line-height:100%;font-family:'Nanum Pen Script OTF';-inkscape-font-specification:'Nanum Pen Script OTF';stroke-width:1.33128512"
         sodipodi:role="line">... 차라리       점성술을</tspan><tspan
         y="1764.6133"
         x="2026.1655"
         style="font-style:normal;font-variant:normal;font-weight:normal;font-stretch:normal;font-size:59.90782928px;line-height:100%;font-family:'Nanum Pen Script OTF';-inkscape-font-specification:'Nanum Pen Script OTF';stroke-width:1.33128512"
         sodipodi:role="line"
         id="tspan61">가르쳐 주시지!</tspan></text>
    <text
       xml:space="preserve"
       style="font-style:normal;font-variant:normal;font-weight:normal;font-stretch:normal;font-size:15.97542095px;line-height:100%;font-family:'Nanum Pen Script OTF';-inkscape-font-specification:'Nanum Pen Script OTF';text-align:center;letter-spacing:0px;word-spacing:0px;text-anchor:middle;fill:#000000;fill-opacity:1;stroke:none;stroke-width:1.33128512"
       x="2491.9761"
       y="1704.7054"
       id="text67"
       transform="skewX(-14.740142)"><tspan
         id="tspan65"
         sodipodi:role="line"
         style="font-style:normal;font-variant:normal;font-weight:normal;font-stretch:normal;font-size:59.90782928px;line-height:100%;font-family:'Nanum Pen Script OTF';-inkscape-font-specification:'Nanum Pen Script OTF';stroke-width:1.33128512"
         x="2491.9761"
         y="1704.7054">진짜</tspan></text>
  </g>
</svg>
