<?xml version="1.0" encoding="UTF-8" standalone="no"?>
<svg
   xmlns:dc="http://purl.org/dc/elements/1.1/"
   xmlns:cc="http://creativecommons.org/ns#"
   xmlns:rdf="http://www.w3.org/1999/02/22-rdf-syntax-ns#"
   xmlns:svg="http://www.w3.org/2000/svg"
   xmlns="http://www.w3.org/2000/svg"
   xmlns:xlink="http://www.w3.org/1999/xlink"
   xmlns:sodipodi="http://sodipodi.sourceforge.net/DTD/sodipodi-0.dtd"
   xmlns:inkscape="http://www.inkscape.org/namespaces/inkscape"
   id="svg2"
   version="1.1"
   inkscape:version="1.0.2 (e86c870879, 2021-01-15)"
   width="2481"
   height="3503"
   sodipodi:docname="E34P02.svg">
  <metadata
     id="metadata8">
    <rdf:RDF>
      <cc:Work
         rdf:about="">
        <dc:format>image/svg+xml</dc:format>
        <dc:type
           rdf:resource="http://purl.org/dc/dcmitype/StillImage" />
        <dc:title />
      </cc:Work>
    </rdf:RDF>
  </metadata>
  <defs
     id="defs6">
    <inkscape:path-effect
       effect="bend_path"
       id="path-effect1045" />
    <inkscape:path-effect
       effect="bend_path"
       id="path-effect1076" />
    <filter
       style="color-interpolation-filters:sRGB"
       id="filter4375-4-1-1-1-9-5-8-8-5-5"
       inkscape:label="soundFX1">
      <feFlood
         id="feFlood4377-7-9-0-8-1-7-3-1-2-7"
         flood-opacity="1"
         flood-color="rgb(52,52,52)"
         result="flood" />
      <feComposite
         id="feComposite4379-3-8-8-2-77-4-1-0-6-4"
         in2="SourceGraphic"
         in="flood"
         operator="in"
         result="composite1"
         baseFrequency="0.053999999999999999 0.053999999999999999" />
      <feMorphology
         id="feMorphology4393-1-0-49-8-9-3-0-1-9-9"
         operator="dilate"
         radius="6.2000000000000002"
         result="result3" />
      <feComposite
         id="feComposite4385-9-5-7-0-8-8-7-5-4-9"
         in2="result3"
         in="SourceGraphic"
         operator="over"
         result="fbSourceGraphic" />
      <feColorMatrix
         result="fbSourceGraphicAlpha"
         in="fbSourceGraphic"
         values="0 0 0 -1 0 0 0 0 -1 0 0 0 0 -1 0 0 0 0 1 0"
         id="feColorMatrix4544-9-4-4" />
      <feTurbulence
         id="feTurbulence4546-3-6-5"
         type="fractalNoise"
         numOctaves="5"
         seed="174"
         baseFrequency="0.053999999999999999 0.054054054054054057"
         result="turbulence" />
      <feDisplacementMap
         id="feDisplacementMap4548-8-0-9"
         in2="turbulence"
         in="fbSourceGraphic"
         scale="6.6"
         yChannelSelector="G"
         xChannelSelector="R"
         result="fbSourceGraphic" />
      <feColorMatrix
         result="fbSourceGraphicAlpha"
         in="fbSourceGraphic"
         values="0 0 0 -1 0 0 0 0 -1 0 0 0 0 -1 0 0 0 0 1 0"
         id="feColorMatrix4670-7-7-3" />
      <feFlood
         id="feFlood4672-4-4-5"
         flood-opacity="1"
         flood-color="rgb(28,28,28)"
         result="flood"
         in="fbSourceGraphic" />
      <feComposite
         id="feComposite4674-8-3-7"
         in2="fbSourceGraphic"
         in="flood"
         operator="in"
         result="composite1" />
      <feGaussianBlur
         id="feGaussianBlur4676-3-7-08"
         in="composite1"
         stdDeviation="0"
         result="blur" />
      <feOffset
         id="feOffset4678-6-9-1"
         dx="-1.7978952891791096"
         dy="6"
         result="offset" />
      <feComposite
         id="feComposite4680-4-0-9"
         in2="offset"
         in="fbSourceGraphic"
         operator="over"
         result="composite2" />
    </filter>
    <filter
       style="color-interpolation-filters:sRGB"
       id="filter4375-4-1-1-1-9-5-8-8-5-5-3"
       inkscape:label="soundFX1">
      <feFlood
         id="feFlood4377-7-9-0-8-1-7-3-1-2-7-6"
         flood-opacity="1"
         flood-color="rgb(52,52,52)"
         result="flood" />
      <feComposite
         id="feComposite4379-3-8-8-2-77-4-1-0-6-4-7"
         in2="SourceGraphic"
         in="flood"
         operator="in"
         result="composite1"
         baseFrequency="0.053999999999999999 0.053999999999999999" />
      <feMorphology
         id="feMorphology4393-1-0-49-8-9-3-0-1-9-9-5"
         operator="dilate"
         radius="6.2000000000000002"
         result="result3" />
      <feComposite
         id="feComposite4385-9-5-7-0-8-8-7-5-4-9-3"
         in2="result3"
         in="SourceGraphic"
         operator="over"
         result="fbSourceGraphic" />
      <feColorMatrix
         result="fbSourceGraphicAlpha"
         in="fbSourceGraphic"
         values="0 0 0 -1 0 0 0 0 -1 0 0 0 0 -1 0 0 0 0 1 0"
         id="feColorMatrix4544-9-4-4-5" />
      <feTurbulence
         id="feTurbulence4546-3-6-5-6"
         type="fractalNoise"
         numOctaves="5"
         seed="174"
         baseFrequency="0.053999999999999999 0.054054054054054057"
         result="turbulence" />
      <feDisplacementMap
         id="feDisplacementMap4548-8-0-9-2"
         in2="turbulence"
         in="fbSourceGraphic"
         scale="6.6"
         yChannelSelector="G"
         xChannelSelector="R"
         result="fbSourceGraphic" />
      <feColorMatrix
         result="fbSourceGraphicAlpha"
         in="fbSourceGraphic"
         values="0 0 0 -1 0 0 0 0 -1 0 0 0 0 -1 0 0 0 0 1 0"
         id="feColorMatrix4670-7-7-3-9" />
      <feFlood
         id="feFlood4672-4-4-5-1"
         flood-opacity="1"
         flood-color="rgb(28,28,28)"
         result="flood"
         in="fbSourceGraphic" />
      <feComposite
         id="feComposite4674-8-3-7-2"
         in2="fbSourceGraphic"
         in="flood"
         operator="in"
         result="composite1" />
      <feGaussianBlur
         id="feGaussianBlur4676-3-7-08-7"
         in="composite1"
         stdDeviation="0"
         result="blur" />
      <feOffset
         id="feOffset4678-6-9-1-0"
         dx="6"
         dy="6"
         result="offset" />
      <feComposite
         id="feComposite4680-4-0-9-9"
         in2="offset"
         in="fbSourceGraphic"
         operator="over"
         result="composite2" />
    </filter>
    <filter
       style="color-interpolation-filters:sRGB"
       id="filter4375-4-1-1-1-9-5-8-8-5-5-3-3"
       inkscape:label="soundFX1">
      <feFlood
         id="feFlood4377-7-9-0-8-1-7-3-1-2-7-6-6"
         flood-opacity="1"
         flood-color="rgb(52,52,52)"
         result="flood" />
      <feComposite
         id="feComposite4379-3-8-8-2-77-4-1-0-6-4-7-7"
         in2="SourceGraphic"
         in="flood"
         operator="in"
         result="composite1"
         baseFrequency="0.053999999999999999 0.053999999999999999" />
      <feMorphology
         id="feMorphology4393-1-0-49-8-9-3-0-1-9-9-5-5"
         operator="dilate"
         radius="4.0330969769021738"
         result="result3" />
      <feComposite
         id="feComposite4385-9-5-7-0-8-8-7-5-4-9-3-3"
         in2="result3"
         in="SourceGraphic"
         operator="over"
         result="fbSourceGraphic" />
      <feColorMatrix
         result="fbSourceGraphicAlpha"
         in="fbSourceGraphic"
         values="0 0 0 -1 0 0 0 0 -1 0 0 0 0 -1 0 0 0 0 1 0"
         id="feColorMatrix4544-9-4-4-5-5" />
      <feTurbulence
         id="feTurbulence4546-3-6-5-6-6"
         type="fractalNoise"
         numOctaves="4"
         seed="147"
         baseFrequency="0.053999999999999999 0.054054054054054057"
         result="turbulence" />
      <feDisplacementMap
         id="feDisplacementMap4548-8-0-9-2-2"
         in2="turbulence"
         in="fbSourceGraphic"
         scale="10.561763084739264"
         yChannelSelector="G"
         xChannelSelector="R"
         result="fbSourceGraphic" />
      <feColorMatrix
         result="fbSourceGraphicAlpha"
         in="fbSourceGraphic"
         values="0 0 0 -1 0 0 0 0 -1 0 0 0 0 -1 0 0 0 0 1 0"
         id="feColorMatrix4670-7-7-3-9-9" />
      <feFlood
         id="feFlood4672-4-4-5-1-1"
         flood-opacity="1"
         flood-color="rgb(28,28,28)"
         result="flood"
         in="fbSourceGraphic" />
      <feComposite
         id="feComposite4674-8-3-7-2-2"
         in2="fbSourceGraphic"
         in="flood"
         operator="in"
         result="composite1" />
      <feGaussianBlur
         id="feGaussianBlur4676-3-7-08-7-7"
         in="composite1"
         stdDeviation="0"
         result="blur" />
      <feOffset
         id="feOffset4678-6-9-1-0-0"
         dx="-10.48377497279229"
         dy="0.39217365321829334"
         result="offset" />
      <feComposite
         id="feComposite4680-4-0-9-9-9"
         in2="offset"
         in="fbSourceGraphic"
         operator="over"
         result="composite2" />
    </filter>
    <filter
       style="color-interpolation-filters:sRGB"
       id="filter4375-4-1-1-1-9-5-8-8-5-5-3-8"
       inkscape:label="soundFX1">
      <feFlood
         id="feFlood4377-7-9-0-8-1-7-3-1-2-7-6-7"
         flood-opacity="1"
         flood-color="rgb(52,52,52)"
         result="flood" />
      <feComposite
         id="feComposite4379-3-8-8-2-77-4-1-0-6-4-7-9"
         in2="SourceGraphic"
         in="flood"
         operator="in"
         result="composite1"
         baseFrequency="0.053999999999999999 0.053999999999999999" />
      <feMorphology
         id="feMorphology4393-1-0-49-8-9-3-0-1-9-9-5-2"
         operator="dilate"
         radius="2.9756367599225957"
         result="result3" />
      <feComposite
         id="feComposite4385-9-5-7-0-8-8-7-5-4-9-3-0"
         in2="result3"
         in="SourceGraphic"
         operator="over"
         result="fbSourceGraphic" />
      <feColorMatrix
         result="fbSourceGraphicAlpha"
         in="fbSourceGraphic"
         values="0 0 0 -1 0 0 0 0 -1 0 0 0 0 -1 0 0 0 0 1 0"
         id="feColorMatrix4544-9-4-4-5-2" />
      <feTurbulence
         id="feTurbulence4546-3-6-5-6-3"
         type="fractalNoise"
         numOctaves="5"
         seed="174"
         baseFrequency="0.053999999999999999 0.054054054054054057"
         result="turbulence" />
      <feDisplacementMap
         id="feDisplacementMap4548-8-0-9-2-7"
         in2="turbulence"
         in="fbSourceGraphic"
         scale="6.6"
         yChannelSelector="G"
         xChannelSelector="R"
         result="fbSourceGraphic" />
      <feColorMatrix
         result="fbSourceGraphicAlpha"
         in="fbSourceGraphic"
         values="0 0 0 -1 0 0 0 0 -1 0 0 0 0 -1 0 0 0 0 1 0"
         id="feColorMatrix4670-7-7-3-9-5" />
      <feFlood
         id="feFlood4672-4-4-5-1-9"
         flood-opacity="1"
         flood-color="rgb(28,28,28)"
         result="flood"
         in="fbSourceGraphic" />
      <feComposite
         id="feComposite4674-8-3-7-2-22"
         in2="fbSourceGraphic"
         in="flood"
         operator="in"
         result="composite1" />
      <feGaussianBlur
         id="feGaussianBlur4676-3-7-08-7-8"
         in="composite1"
         stdDeviation="0"
         result="blur" />
      <feOffset
         id="feOffset4678-6-9-1-0-9"
         dx="-6.3258232761971414"
         dy="6"
         result="offset" />
      <feComposite
         id="feComposite4680-4-0-9-9-7"
         in2="offset"
         in="fbSourceGraphic"
         operator="over"
         result="composite2" />
    </filter>
  </defs>
  <sodipodi:namedview
     pagecolor="#ffffff"
     bordercolor="#666666"
     borderopacity="1"
     objecttolerance="10"
     gridtolerance="10"
     guidetolerance="10"
     inkscape:pageopacity="0"
     inkscape:pageshadow="2"
     inkscape:window-width="1920"
     inkscape:window-height="1016"
     id="namedview4"
     showgrid="false"
     inkscape:zoom="0.30417502"
     inkscape:cx="1489.3245"
     inkscape:cy="2934.1246"
     inkscape:window-x="0"
     inkscape:window-y="0"
     inkscape:window-maximized="1"
     inkscape:current-layer="layer3"
     inkscape:document-rotation="0"
     inkscape:snap-global="false"
     showborder="true"
     inkscape:pagecheckerboard="false"
     inkscape:showpageshadow="true"
     borderlayer="true" />
  <g
     inkscape:groupmode="layer"
     id="layer2"
     inkscape:label="artwork"
     sodipodi:insensitive="true">
    <image
       sodipodi:absref="/home/martin/peppercarrot/webcomics/new-ep34_The-Knighting-of-Shichimi/lang/gfx_Pepper-and-Carrot_by-David-Revoy_E34P02.png"
       xlink:href="../gfx_Pepper-and-Carrot_by-David-Revoy_E34P02.png"
       y="0"
       x="0"
       id="image10"
       height="3503"
       width="2481" />
  </g>
  <g
     inkscape:groupmode="layer"
     id="layer3"
     inkscape:label="speechbubbles"
     style="display:inline">
    <path
       style="fill:#ffffff;fill-rule:evenodd;stroke:none;stroke-width:1.00848px;stroke-linecap:butt;stroke-linejoin:miter;stroke-opacity:1"
       d="m 1504.1518,295.73768 c 13.2052,-14.01464 23.1192,-27.09488 10.4478,-33.76277 l -5.0723,-7.33588 -43.0303,-54.69256 c 44.35,9.69243 92.0832,22.88206 58.8153,-47.65984 43.4508,33.00197 78.1149,48.54186 78.8121,-3.42187 18.4,21.59545 37.2469,56.49934 54.0623,30.89631 9.2928,11.14068 16.8349,5.8215 22.5431,-16.74036 13.0396,26.0669 28.6171,8.08031 44.9121,-22.35793 19.7435,28.02016 40.1625,50.93515 69.3513,7.57343 -0.4637,30.50736 17.9431,27.52677 44.8793,9.40981 -2.2525,13.43317 3.4615,17.32758 36.554,3.83476 -7.1382,13.43407 -22.068,15.87009 14.5562,15.37304 -2.2222,12.70423 -24.0613,24.69128 22.1718,39.16698 -45.1982,-1.06358 -10.0628,18.3666 -7.3063,29.53666 -29.7043,-4.23968 -42.4343,-0.15331 -8.8759,26.63806 -14.915,0.83094 -59.4683,-27.80395 -34.5473,12.63114 -26.6795,-21.56679 -47.391,9.03202 -34.256,8.97973 l -52.5238,13.09442 -85.7043,-0.63011 -60.0577,5.21564 -49.5371,9.49524 c 5.1587,-19.00605 -11.1565,-11.13073 -24.2633,-7.27162 -4.9217,-5.04664 3.1939,-18.89589 -24.975,-8.24624 -0.6232,-13.39811 -14.6811,-10.47936 -26.956,-9.72604 z"
       id="path1058"
       sodipodi:nodetypes="ccccccccccccccccccccccccc" />
    <path
       style="fill:#ffffff;fill-rule:evenodd;stroke:none;stroke-width:0.954737px;stroke-linecap:butt;stroke-linejoin:miter;stroke-opacity:1"
       d="m 1530.7758,262.92735 c -35.9072,10.10196 -75.8305,16.24992 -118.7864,19.41205 l 21.3884,19.60641 c -21.2547,3.62778 -30.9065,7.87998 -78.7794,11.98957 l 8.0313,9.59761 -119.5365,7.98838 148.067,7.74645 -10.6519,-15.27464 91.053,-11.04829 -19.2666,-17.88249 c 34.3908,-13.46395 81.0551,-12.27309 121.6588,-18.31863 z"
       id="path957"
       sodipodi:nodetypes="cccccccccccc" />
    <path
       style="fill:#ffffff;fill-rule:evenodd;stroke:none;stroke-width:1.11871px;stroke-linecap:butt;stroke-linejoin:miter;stroke-opacity:1"
       d="m 1560.31,323.97706 c 16.5959,12.75119 20.7333,25.89347 -1.5264,39.8644 29.2655,-12.91703 27.4394,1.17371 22.0311,18.37606 31.8367,-11.38363 38.5928,-6.90373 27.1837,7.21408 18.7571,-1.22126 60.7276,-11.85348 59.5566,-1.758 l 243.7597,-24.68435 1.9117,-22.42574 c -9.6902,-3.20819 -26.576,1.46176 -20.8616,-18.61232 -18.5514,3.94968 -33.4348,-2.13698 -7.4043,-24.07066 -36.0913,14.47681 -11.8197,-6.36397 -8.3439,-18.68894 -35.8095,13.13592 -30.5296,-3.57842 -22.0206,-16.30999 -12.7944,13.376 -75.8022,-2.75419 -79.9646,6.85183 l -178.8992,18.49782 c -6.3233,13.60051 19.1715,36.97853 -35.4222,35.74581 z"
       id="path959"
       sodipodi:nodetypes="cccccccccccccc" />
    <path
       style="fill:#ffffff;fill-rule:evenodd;stroke:none;stroke-width:0.968265px;stroke-linecap:butt;stroke-linejoin:miter;stroke-opacity:1"
       d="m 1609.902,395.35824 c 36.1371,0.64155 31.3492,12.50383 18.3354,26.62153 10.0114,-0.94958 33.4259,-14.02714 19.5421,6.64533 30.3152,-7.51042 11.6388,7.6856 9.1755,15.32662 12.2201,-1.60841 19.7008,5.3125 4.8383,31.05447 15.0081,-6.05805 37.9422,-28.80223 36.233,0.33428 12.15,-3.61655 28.1135,-17.55119 30.1395,6.2234 16.061,-11.73692 32.0175,-21.75031 46.3677,-5.23357 14.9256,-23.90651 27.9228,-28.36225 38.1308,-4.68236 14.214,-15.71267 30.9759,0.48906 48.8442,30.55032 -5.2165,-23.81264 2.7025,-38.58578 61.1583,-18.58082 -0.424,-20.96468 11.7738,-30.34306 60.5212,-6.16992 -10.3605,-13.95314 -35.4094,-36.16791 22.9015,-11.49559 -30.667,-29.70342 2.6066,-47.99984 28.1417,-67.6768 -31.0931,13.72187 -34.3866,8.36477 -22.6717,-7.29249 -49.4434,18.33465 -44.2577,-9.50786 -31.1013,-44.08798 -36.2051,18.30037 -31.0114,7.65077 -22.3316,-2.08244 -64.349,19.2312 -37.5111,-11.20691 -31.5692,-23.072 -46.6143,53.30694 -32.9091,20.38997 -27.7635,-0.29133 -26.4636,31.77485 -46.5015,53.19757 -41.4518,21.94921 l -44.2189,-5.43596 -167.7439,21.52238 -24.0438,22.9431 c 55.5018,-2.76838 21.7542,9.71183 -11.4335,12.93062 z"
       id="path961"
       sodipodi:nodetypes="cccccccccccccccccccccccc" />
    <path
       style="fill:#ffffff;fill-rule:evenodd;stroke:none;stroke-width:0.743887px;stroke-linecap:butt;stroke-linejoin:miter;stroke-opacity:1"
       d="m 459.16681,2358.0657 c 22.36564,51.5132 28.26382,65.1671 32.70811,75.7246 4.44431,10.5576 6.95122,24.2595 0.64038,26.9082 -15.54782,6.5255 -33.53774,22.8752 27.24564,95.9666 -21.63483,-46.9619 -28.34094,-72.815 -15.566,-78.5231 8.57301,-6.7097 22.80991,-8.6107 5.94489,-60.3706 -16.86495,-51.7599 -49.30756,-108.1476 -49.30756,-108.1476 l -11.57148,18.7287 z"
       id="path895"
       inkscape:connector-curvature="0"
       sodipodi:nodetypes="csscccccc"
       inkscape:transform-center-x="6.2803954"
       inkscape:transform-center-y="10.079755" />
    <path
       style="color:#000000;display:inline;overflow:visible;visibility:visible;fill:#ffffff;fill-opacity:1;fill-rule:nonzero;stroke:none;stroke-width:1.26632px;marker:none;enable-background:accumulate"
       d="m 506.6762,2167.8661 c 194.6901,13.8459 222.38072,63.3428 224.32115,109.2481 -3.36399,47.3062 -42.3976,81.8208 -71.12237,88.7442 -28.72476,6.9225 -71.90119,16.5314 -151.60305,17.9988 -92.07856,0.062 -161.24557,-6.8102 -202.83006,-44.0221 -117.72345,-152.0159 145.03981,-174.9439 201.23433,-171.969 z"
       id="path3365-7-3"
       inkscape:connector-curvature="0"
       sodipodi:nodetypes="ccsccc" />
    <path
       style="color:#000000;display:inline;overflow:visible;visibility:visible;fill:#ffffff;fill-opacity:1;fill-rule:nonzero;stroke:none;stroke-width:0.659812px;marker:none;enable-background:accumulate"
       d="m 280.97579,2089.6482 c 77.94046,9.3898 90.29849,35.4561 91.07531,66.5876 -1.34671,32.0815 -16.97307,55.4882 -28.47249,60.1834 -11.49941,4.6946 -28.78427,11.2111 -60.69139,12.2062 -36.86189,0.042 -58.59197,-1.9275 -81.93353,-27.4996 -48.3283,-67.5176 7.52297,-111.3998 80.0221,-111.4776 z"
       id="path3365-7"
       inkscape:connector-curvature="0"
       sodipodi:nodetypes="ccsccc" />
    <path
       style="color:#000000;display:inline;overflow:visible;visibility:visible;fill:#ffffff;fill-opacity:1;fill-rule:nonzero;stroke:none;stroke-width:0.621982px;marker:none;enable-background:accumulate"
       d="m 1427.1523,2074.2617 c -32.4721,0.2058 -65.7562,6.5038 -93.8265,23.4932 -25.2497,15.5664 -36.3258,50.6093 -24.2589,77.7832 11.7846,26.6175 39.3277,44.5142 68.0176,47.0026 40.8292,7.2639 82.5674,4.7404 123.6211,0.9846 20.286,-2.5436 41.3531,-6.7033 58.1851,-19.0253 24.5507,-19.4152 31.0524,-56.9896 16.0318,-84.1331 -8.0465,-15.3461 -23.0381,-26.0052 -39.2135,-31.4607 -25.5145,-9.584 -52.9285,-12.1266 -79.9084,-14.0465 -9.5412,-0.4723 -19.0959,-0.6477 -28.6483,-0.598 z"
       id="path4546-1"
       inkscape:connector-curvature="0"
       sodipodi:nodetypes="cssssc" />
    <path
       style="fill:#ffffff;stroke:none;stroke-width:0.574142"
       d="m 1403.9856,2372.7936 c -39.0821,-62.787 -19.4125,-123.7423 -4.7627,-176.2444 l -28.056,-13.3069 c -14.9515,56.8343 -28.5621,131.5641 32.8187,189.5513 z"
       id="path3063-8"
       inkscape:connector-curvature="0"
       sodipodi:nodetypes="cccc" />
    <path
       style="color:#000000;display:inline;overflow:visible;visibility:visible;fill:#ffffff;fill-opacity:1;fill-rule:nonzero;stroke:none;stroke-width:0.922761px;marker:none;enable-background:accumulate"
       d="m 1922.1944,2701.6751 c -95.1863,-31.0795 -76.8848,-101.5738 -63.4064,-124.9254 27.1219,-46.9895 38.2213,16.3603 38.2213,16.3603 -7.6201,-6.5434 -61.0011,60.3809 25.1851,108.5651 z"
       id="path5002-7"
       inkscape:connector-curvature="0"
       sodipodi:nodetypes="cscc" />
    <path
       style="color:#000000;display:inline;overflow:visible;visibility:visible;fill:#ffffff;fill-opacity:1;fill-rule:nonzero;stroke:none;stroke-width:1.20216px;marker:none;enable-background:accumulate"
       d="m 2012.4401,2359.4372 c -51.5734,2.7334 -103.3604,9.1958 -152.3945,24.3911 -20.5345,9.3307 -36.8284,24.4797 -51.6497,40.0104 -14.3125,16.6761 -21.3379,37.6096 -23.0286,58.4278 -2.9821,19.9954 -2.0158,41.2126 7.9396,59.6126 17.758,34.5797 55.2082,59.6784 96.5316,66.8365 41.5684,8.7831 84.4318,10.7102 126.9796,11.7198 35.224,0.5133 70.573,-0.029 105.5789,-3.9263 31.4307,-4.0534 62.6552,-11.7973 90.5724,-25.7035 19.7363,-10.8821 35.065,-28.1813 42.0751,-48.0813 9.6172,-24.4706 10.5189,-51.3408 4.6093,-76.6101 -7.6655,-29.6803 -26.3857,-57.0802 -52.8057,-76.1471 -20.5222,-14.1702 -45.7338,-21.6947 -71.0695,-25.2008 -40.6318,-6.7097 -82.1888,-6.6916 -123.3385,-5.3291 z"
       id="path4040-4-5-3-4"
       inkscape:connector-curvature="0"
       sodipodi:nodetypes="zssssz" />
    <path
       style="color:#000000;display:inline;overflow:visible;visibility:visible;fill:#ffffff;fill-opacity:1;fill-rule:nonzero;stroke:none;stroke-width:1.07488px;marker:none;enable-background:accumulate"
       d="m 2089.0436,2139.3079 c -70.4153,1.9567 -141.1899,12.83 -206.6629,37.7407 -16.0049,6.0991 -31.6982,14.1118 -43.1013,26.5325 -24.6265,25.323 -37.4769,59.2272 -40.1307,93.0317 -2.1316,26.5541 4.1938,54.7302 22.6092,75.6458 16.2229,18.333 40.5697,28.6409 65.053,33.4423 36.1923,7.3249 73.215,10.5269 110.1814,11.68 69.8464,1.6931 139.9007,-6.4963 207.3414,-23.4671 16.005,-4.211 32.6799,-8.2158 46.2771,-17.5701 10.1009,-6.9678 17.5866,-16.7618 22.605,-27.4348 12.59,-23.758 20.9192,-50.6389 16.85,-77.3153 -4.483,-30.7303 -23.0859,-58.3906 -47.312,-79.0472 -28.5424,-24.4673 -64.6024,-40.6846 -102.2723,-48.5119 -16.8821,-3.3929 -34.1723,-4.9742 -51.4379,-4.7266 z"
       id="path4040-40"
       inkscape:connector-curvature="0"
       sodipodi:nodetypes="zssssz" />
    <path
       style="fill:#ffffff;stroke:none;stroke-width:0.797187"
       d="m 2018.8247,2068.7073 c -47.4894,0.7851 -95.029,8.6948 -139.8513,24.9607 -18.6653,7.7007 -33.3754,25.8237 -35.5573,46.5636 -2.0426,16.3543 2.839,34.2683 15.2102,45.3281 11.4442,10.1158 26.5959,13.7124 40.9641,17.0483 47.7883,11.003 97.0353,13.1867 145.8594,12.1109 44.0863,-0.3243 88.834,-0.7018 131.6973,-12.5628 15.0226,-4.1687 30.4251,-10.0534 41.3418,-21.912 7.9795,-8.8652 11.4631,-21.4095 10.0695,-33.3037 -1.8709,-22.7299 -16.5584,-43.3475 -36.3026,-53.4775 -16.1237,-8.6897 -33.9332,-13.4575 -51.7108,-17.0692 -40.0792,-7.7612 -81.0916,-7.6661 -121.7203,-7.6864 z"
       id="path3280-10"
       inkscape:connector-curvature="0"
       sodipodi:nodetypes="csssc" />
  </g>
  <g
     inkscape:groupmode="layer"
     id="layer1"
     inkscape:label="txt">
    <text
       xml:space="preserve"
       style="font-style:normal;font-variant:normal;font-weight:normal;font-stretch:normal;font-size:105.817px;line-height:1.25;font-family:Lavi;-inkscape-font-specification:Lavi;letter-spacing:0px;word-spacing:0px;fill:#ffffff;fill-opacity:1;stroke:#ffffff;stroke-width:0.651649;stroke-miterlimit:4;stroke-dasharray:none;stroke-opacity:1;filter:url(#filter4375-4-1-1-1-9-5-8-8-5-5)"
       x="787.65729"
       y="1584.5073"
       id="text4580-6-0-0-0-9"
       transform="matrix(0.85173785,-0.2120138,-0.27862433,0.92213476,-61.467437,-1084.276)"><tspan
         style="font-size:105.817px;fill:#ffffff;fill-opacity:1;stroke:#ffffff;stroke-width:0.651649;stroke-miterlimit:4;stroke-dasharray:none;stroke-opacity:1"
         sodipodi:role="line"
         id="tspan876"
         x="787.65729"
         y="1584.5073"><tspan
   style="font-size:68.9103px;fill:#ffffff;fill-opacity:1"
   id="tspan884">Zisch</tspan>hHHHHH</tspan></text>
    <text
       xml:space="preserve"
       style="font-style:normal;font-variant:normal;font-weight:normal;font-stretch:normal;font-size:105.817px;line-height:1.25;font-family:Lavi;-inkscape-font-specification:Lavi;letter-spacing:0px;word-spacing:0px;fill:#ffffff;fill-opacity:1;stroke:#ffffff;stroke-width:0.716208;stroke-miterlimit:4;stroke-dasharray:none;stroke-opacity:1;filter:url(#filter4375-4-1-1-1-9-5-8-8-5-5-3)"
       x="787.65729"
       y="1584.5073"
       id="text4580-6-0-0-0-9-3"
       transform="matrix(0.94373699,-0.22067211,-0.3715186,1.0168112,628.1392,-1137.5397)"><tspan
         style="font-size:105.817px;fill:#ffffff;fill-opacity:1;stroke:#ffffff;stroke-width:0.716208;stroke-miterlimit:4;stroke-dasharray:none;stroke-opacity:1"
         sodipodi:role="line"
         id="tspan876-6"
         x="787.65729"
         y="1584.5073"><tspan
           style="font-size:78.6226px;fill:#ffffff;fill-opacity:1;stroke-width:0.716208"
           id="tspan884-0"><tspan
   style="font-size:93.191px;stroke-width:0.716208"
   id="tspan976">Zisch</tspan>H<tspan
   style="font-size:107.759px;stroke-width:0.716208"
   id="tspan972">H</tspan></tspan><tspan
           id="tspan974"
           style="font-size:166.033px;stroke-width:0.716208">H</tspan><tspan
           style="font-size:195.17px;stroke-width:0.716208"
           id="tspan958">HH</tspan></tspan></text>
    <text
       xml:space="preserve"
       style="font-style:normal;font-variant:normal;font-weight:normal;font-stretch:normal;font-size:56.2847px;line-height:1.25;font-family:Lavi;-inkscape-font-specification:Lavi;text-align:center;letter-spacing:0px;word-spacing:0px;text-anchor:middle;fill:#000000;fill-opacity:1;stroke:none;stroke-width:1.25077"
       x="1697.9886"
       y="252.33763"
       id="text4246-3-2-2"><tspan
         style="font-size:56.2847px;stroke-width:1.25077"
         sodipodi:role="line"
         id="tspan1097"
         x="1697.9886"
         y="252.33763">Ich komme!</tspan></text>
    <text
       xml:space="preserve"
       style="font-style:normal;font-variant:normal;font-weight:normal;font-stretch:normal;font-size:45px;line-height:1.25;font-family:Lavi;-inkscape-font-specification:Lavi;text-align:center;letter-spacing:0px;word-spacing:0px;text-anchor:middle;fill:#000000;fill-opacity:1;stroke:none"
       x="1736.9022"
       y="348.91861"
       id="text4246-3-2-2-6"><tspan
         style="font-size:45px"
         sodipodi:role="line"
         id="tspan1097-2"
         x="1736.9022"
         y="348.91861">Aufgepasst!</tspan></text>
    <text
       xml:space="preserve"
       style="font-style:normal;font-variant:normal;font-weight:normal;font-stretch:normal;font-size:45px;line-height:1.25;font-family:Lavi;-inkscape-font-specification:Lavi;text-align:center;letter-spacing:0px;word-spacing:0px;text-anchor:middle;fill:#000000;fill-opacity:1;stroke:none"
       x="1828.2025"
       y="423.82227"
       id="text4246-3-2-2-6-6"><tspan
         style="font-style:normal;font-variant:normal;font-weight:normal;font-stretch:normal;font-size:45px;font-family:Lavi;-inkscape-font-specification:Lavi;stroke:#000000;stroke-opacity:1"
         sodipodi:role="line"
         id="tspan1097-2-1"
         x="1828.2025"
         y="423.82227">Achtung!!!</tspan></text>
    <text
       xml:space="preserve"
       style="font-style:normal;font-variant:normal;font-weight:normal;font-stretch:normal;font-size:140px;line-height:1.25;font-family:Lavi;-inkscape-font-specification:Lavi;letter-spacing:0px;word-spacing:0px;fill:#ffffff;fill-opacity:1;stroke:#ffffff;stroke-width:0.716208;stroke-miterlimit:4;stroke-dasharray:none;stroke-opacity:1;filter:url(#filter4375-4-1-1-1-9-5-8-8-5-5-3-3)"
       id="text4580-6-0-0-0-9-3-3"
       transform="matrix(0.87975325,-0.28432023,0,1.2307016,213.79529,79.674623)"><textPath
         xlink:href="#path974"
         id="textPath2837"><tspan
           style="font-size:140px;fill:#ffffff;fill-opacity:1;stroke:#ffffff;stroke-width:0.716208;stroke-miterlimit:4;stroke-dasharray:none;stroke-opacity:1"
           id="tspan876-6-6"
           rotate="335 335 335 335 335 335 0"><tspan
   style="font-size:150.644px"
   id="tspan2855">KR</tspan>A<tspan
   style="font-size:129.356px"
   id="tspan2845">C</tspan><tspan
   id="tspan2853"
   style="font-size:113.39px">H!</tspan></tspan></textPath></text>
    <path
       style="fill:none;fill-rule:evenodd;stroke:none;stroke-width:1px;stroke-linecap:butt;stroke-linejoin:miter;stroke-opacity:1"
       d="m 614.46906,1135.6082 c 207.04629,193.6764 366.91889,371.9512 546.13244,556.5406"
       id="path974"
       sodipodi:nodetypes="cc" />
    <text
       xml:space="preserve"
       style="font-style:normal;font-variant:normal;font-weight:normal;font-stretch:normal;font-size:45px;line-height:1.25;font-family:Lavi;-inkscape-font-specification:Lavi;text-align:center;letter-spacing:0px;word-spacing:0px;text-anchor:middle;fill:#000000;fill-opacity:1;stroke:none"
       x="275.25714"
       y="2172.4204"
       id="text4246-3-2-2-6-3"><tspan
         style="font-size:45px"
         sodipodi:role="line"
         id="tspan1097-2-6"
         x="275.25714"
         y="2172.4204">Ups!</tspan></text>
    <text
       xml:space="preserve"
       style="font-style:normal;font-variant:normal;font-weight:normal;font-stretch:normal;font-size:45px;line-height:1.25;font-family:Lavi;-inkscape-font-specification:Lavi;text-align:center;letter-spacing:0px;word-spacing:0px;text-anchor:middle;fill:#000000;fill-opacity:1;stroke:none"
       x="504.25226"
       y="2261.2371"
       id="text4246-3-2-2-6-3-7"><tspan
         style="font-size:45px"
         sodipodi:role="line"
         id="tspan1097-2-6-5"
         x="504.25226"
         y="2261.2371">Alles in Ordnung?</tspan><tspan
         style="font-size:45px"
         sodipodi:role="line"
         x="504.25226"
         y="2317.4871"
         id="tspan982">Nichts gebrochen?</tspan></text>
    <text
       xml:space="preserve"
       style="font-style:normal;font-variant:normal;font-weight:normal;font-stretch:normal;font-size:55.5556px;line-height:1.25;font-family:Lavi;-inkscape-font-specification:Lavi;text-align:center;letter-spacing:0px;word-spacing:0px;text-anchor:middle;fill:#000000;fill-opacity:1;stroke:none;stroke-width:1.23457"
       x="1443.8728"
       y="2168.6335"
       id="text4246-3-2-2-6-3-7-5"><tspan
         style="font-size:55.5556px;stroke-width:1.23457"
         sodipodi:role="line"
         x="1443.8728"
         y="2168.6335"
         id="tspan982-2">Pepper!</tspan></text>
    <text
       xml:space="preserve"
       style="font-style:normal;font-variant:normal;font-weight:normal;font-stretch:normal;font-size:45px;line-height:1.25;font-family:Lavi;-inkscape-font-specification:Lavi;text-align:center;letter-spacing:0px;word-spacing:0px;text-anchor:middle;fill:#000000;fill-opacity:1;stroke:none"
       x="2034.6389"
       y="2155.8035"
       id="text4246-3-2-2-6-3-7-9"><tspan
         style="font-size:45px"
         sodipodi:role="line"
         x="2034.6389"
         y="2155.8035"
         id="tspan952">Hallo Shichimi!</tspan></text>
    <text
       xml:space="preserve"
       style="font-style:normal;font-variant:normal;font-weight:normal;font-stretch:normal;font-size:45px;line-height:1.25;font-family:Lavi;-inkscape-font-specification:Lavi;text-align:center;letter-spacing:0px;word-spacing:0px;text-anchor:middle;fill:#000000;fill-opacity:1;stroke:none"
       x="2039.8783"
       y="2242.95"
       id="text4246-3-2-2-6-3-7-9-3"><tspan
         style="font-size:45px"
         sodipodi:role="line"
         x="2039.8783"
         y="2242.95"
         id="tspan979">Entschuldige den</tspan><tspan
         style="font-size:45px"
         sodipodi:role="line"
         x="2039.8783"
         y="2299.2"
         id="tspan910">dramatischen Auftritt</tspan><tspan
         style="font-size:45px"
         sodipodi:role="line"
         x="2039.8783"
         y="2355.45"
         id="tspan912">und die Verspätung!</tspan></text>
    <text
       xml:space="preserve"
       style="font-style:normal;font-variant:normal;font-weight:normal;font-stretch:normal;font-size:45px;line-height:1.25;font-family:Lavi;-inkscape-font-specification:Lavi;text-align:center;letter-spacing:0px;word-spacing:0px;text-anchor:middle;fill:#000000;fill-opacity:1;stroke:none"
       x="2021.5768"
       y="2458.7451"
       id="text4246-3-2-2-6-3-7-9-3-3"><tspan
         style="font-size:45px"
         sodipodi:role="line"
         x="2021.5768"
         y="2458.7451"
         id="tspan919">Bin den ganzen Tag</tspan><tspan
         style="font-size:45px"
         sodipodi:role="line"
         x="2021.5768"
         y="2514.9951"
         id="tspan921">rumgerannt, ist eine</tspan><tspan
         style="font-size:45px"
         sodipodi:role="line"
         x="2021.5768"
         y="2571.2451"
         id="tspan929">lange Geschichte.</tspan></text>
  </g>
  <g
     inkscape:groupmode="layer"
     id="layer4"
     inkscape:label="mask"
     sodipodi:insensitive="true">
    <path
       id="rect879"
       style="color:#000000;overflow:visible;fill:#ffffff;stroke-width:3.8337;stop-color:#000000"
       d="M 91.951172,-31.222656 V 102.93359 l 520.126238,1.04131 -1.08166,40.10974 21.2893,243.88191 12.80888,-285.03303 H 2287.9512 V -31.222656 Z"
       sodipodi:nodetypes="ccccccccc" />
  </g>
  <g
     inkscape:groupmode="layer"
     id="layer5"
     inkscape:label="notes"
     style="opacity:0.60045649">
    <path
       style="color:#000000;clip-rule:nonzero;display:inline;overflow:visible;visibility:visible;isolation:auto;mix-blend-mode:normal;color-interpolation:sRGB;color-interpolation-filters:linearRGB;solid-color:#000000;solid-opacity:1;fill:#87cefa;fill-opacity:1;fill-rule:nonzero;stroke:#4682b4;stroke-width:1.8164;stroke-linecap:butt;stroke-linejoin:miter;stroke-miterlimit:4;stroke-dasharray:none;stroke-dashoffset:0;stroke-opacity:1;marker:none;color-rendering:auto;image-rendering:auto;shape-rendering:auto;text-rendering:auto;enable-background:accumulate"
       d="m 574.78169,-141.74548 v 95.563112 H 1932.6084 v -95.563112 z"
       id="path158"
       inkscape:connector-curvature="0"
       sodipodi:nodetypes="ccccc" />
    <flowRoot
       xml:space="preserve"
       id="flowRoot180"
       style="font-style:normal;font-variant:normal;font-weight:normal;font-stretch:normal;font-size:26.7486px;line-height:0.01%;font-family:Lavi;-inkscape-font-specification:'Lavi, Normal';font-variant-ligatures:normal;font-variant-caps:normal;font-variant-numeric:normal;font-feature-settings:normal;text-align:start;letter-spacing:0px;word-spacing:0px;writing-mode:lr-tb;text-anchor:start;display:inline;opacity:0.86;fill:#000000;fill-opacity:1;stroke:none;stroke-width:0.903147px;stroke-linecap:butt;stroke-linejoin:miter;stroke-opacity:1"
       transform="matrix(0.89724289,0,0,0.89724289,854.27309,-1075.7516)"><flowRegion
         id="flowRegion174"
         style="font-style:normal;font-variant:normal;font-weight:normal;font-stretch:normal;font-family:Lavi;-inkscape-font-specification:'Lavi, Normal';font-variant-ligatures:normal;font-variant-caps:normal;font-variant-numeric:normal;font-feature-settings:normal;text-align:start;writing-mode:lr-tb;text-anchor:start;stroke-width:0.903147px"><rect
           id="rect172"
           width="1464.0667"
           height="126.9518"
           x="-275.14545"
           y="1061.6674"
           style="font-style:normal;font-variant:normal;font-weight:normal;font-stretch:normal;font-family:Lavi;-inkscape-font-specification:'Lavi, Normal';font-variant-ligatures:normal;font-variant-caps:normal;font-variant-numeric:normal;font-feature-settings:normal;text-align:start;writing-mode:lr-tb;text-anchor:start;stroke-width:0.903147px" /></flowRegion><flowPara
         style="font-style:normal;font-variant:normal;font-weight:normal;font-stretch:normal;font-size:26.7486px;line-height:1.25;font-family:monospace;-inkscape-font-specification:monospace;font-variant-ligatures:normal;font-variant-caps:normal;font-variant-numeric:normal;font-feature-settings:normal;text-align:start;writing-mode:lr-tb;text-anchor:start;stroke-width:0.903147px"
         id="flowPara176">Dear translator: if editing the soundFX is difficult, I made a special documentation here:</flowPara><flowPara
         style="font-style:normal;font-variant:normal;font-weight:bold;font-stretch:normal;font-size:26.7486px;line-height:1.25;font-family:monospace;-inkscape-font-specification:'monospace Bold';font-variant-ligatures:normal;font-variant-caps:normal;font-variant-numeric:normal;font-feature-settings:normal;text-align:start;writing-mode:lr-tb;text-anchor:start;fill:#0000cd;stroke-width:0.903147px"
         id="flowPara181">https://www.peppercarrot.com/en/static14/documentation&amp;page=055_Sound-Effect_translation</flowPara><flowPara
         style="font-style:normal;font-variant:normal;font-weight:normal;font-stretch:normal;font-size:26.7486px;line-height:1.25;font-family:monospace;-inkscape-font-specification:monospace;font-variant-ligatures:normal;font-variant-caps:normal;font-variant-numeric:normal;font-feature-settings:normal;text-align:start;writing-mode:lr-tb;text-anchor:start;stroke-width:0.903147px"
         id="flowPara179" /></flowRoot>
  </g>
</svg>
