<?xml version="1.0" encoding="UTF-8" standalone="no"?>
<svg
   xmlns:dc="http://purl.org/dc/elements/1.1/"
   xmlns:cc="http://creativecommons.org/ns#"
   xmlns:rdf="http://www.w3.org/1999/02/22-rdf-syntax-ns#"
   xmlns:svg="http://www.w3.org/2000/svg"
   xmlns="http://www.w3.org/2000/svg"
   xmlns:xlink="http://www.w3.org/1999/xlink"
   xmlns:sodipodi="http://sodipodi.sourceforge.net/DTD/sodipodi-0.dtd"
   xmlns:inkscape="http://www.inkscape.org/namespaces/inkscape"
   id="svg2"
   version="1.1"
   inkscape:version="1.0.1 (3bc2e813f5, 2020-09-07)"
   width="2481"
   height="3503"
   sodipodi:docname="E35P04.svg">
  <metadata
     id="metadata8">
    <rdf:RDF>
      <cc:Work
         rdf:about="">
        <dc:format>image/svg+xml</dc:format>
        <dc:type
           rdf:resource="http://purl.org/dc/dcmitype/StillImage" />
        <dc:title />
      </cc:Work>
    </rdf:RDF>
  </metadata>
  <defs
     id="defs6">
    <filter
       style="color-interpolation-filters:sRGB"
       id="filter4375-4-1-1-1-9-5-8-8-5-5-3-3"
       inkscape:label="soundFX1"
       x="-0.10000000000000001"
       y="-0.10000000000000001"
       width="1.5"
       height="1.5"
       inkscape:auto-region="false">
      <feFlood
         id="feFlood4377-7-9-0-8-1-7-3-1-2-7-6-6"
         flood-opacity="1"
         flood-color="rgb(52,52,52)"
         result="flood" />
      <feComposite
         id="feComposite4379-3-8-8-2-77-4-1-0-6-4-7-7"
         in2="SourceGraphic"
         in="flood"
         operator="in"
         result="composite1"
         baseFrequency="0.053999999999999999 0.053999999999999999" />
      <feMorphology
         id="feMorphology4393-1-0-49-8-9-3-0-1-9-9-5-5"
         operator="dilate"
         radius="9.350875432312252"
         result="result3" />
      <feComposite
         id="feComposite4385-9-5-7-0-8-8-7-5-4-9-3-3"
         in2="result3"
         in="SourceGraphic"
         operator="over"
         result="fbSourceGraphic" />
      <feColorMatrix
         result="fbSourceGraphicAlpha"
         in="fbSourceGraphic"
         values="0 0 0 -1 0 0 0 0 -1 0 0 0 0 -1 0 0 0 0 1 0"
         id="feColorMatrix4544-9-4-4-5-5" />
      <feTurbulence
         id="feTurbulence4546-3-6-5-6-6"
         type="fractalNoise"
         numOctaves="4"
         seed="147"
         baseFrequency="0.053999999999999999 0.054054054054054057"
         result="turbulence" />
      <feDisplacementMap
         id="feDisplacementMap4548-8-0-9-2-2"
         in2="turbulence"
         in="fbSourceGraphic"
         scale="10.561763"
         yChannelSelector="G"
         xChannelSelector="R"
         result="fbSourceGraphic" />
      <feColorMatrix
         result="fbSourceGraphicAlpha"
         in="fbSourceGraphic"
         values="0 0 0 -1 0 0 0 0 -1 0 0 0 0 -1 0 0 0 0 1 0"
         id="feColorMatrix4670-7-7-3-9-9" />
      <feFlood
         id="feFlood4672-4-4-5-1-1"
         flood-opacity="1"
         flood-color="rgb(28,28,28)"
         result="flood"
         in="fbSourceGraphic" />
      <feComposite
         id="feComposite4674-8-3-7-2-2"
         in2="fbSourceGraphic"
         in="flood"
         operator="in"
         result="composite1" />
      <feGaussianBlur
         id="feGaussianBlur4676-3-7-08-7-7"
         in="composite1"
         stdDeviation="0"
         result="blur" />
      <feOffset
         id="feOffset4678-6-9-1-0-0"
         dx="-10.48377497279229"
         dy="0.39217365321829334"
         result="offset" />
      <feComposite
         id="feComposite4680-4-0-9-9-9"
         in2="offset"
         in="fbSourceGraphic"
         operator="over"
         result="composite2" />
    </filter>
    <filter
       style="color-interpolation-filters:sRGB"
       id="filter4375-4-1-1-1-9-5-8-8-5-5-3-3-3"
       inkscape:label="soundFX1"
       x="-0.025875723"
       y="-0.0044205808"
       width="1.0266755"
       height="1.0140257">
      <feFlood
         id="feFlood4377-7-9-0-8-1-7-3-1-2-7-6-6-5"
         flood-opacity="1"
         flood-color="rgb(52,52,52)"
         result="flood" />
      <feComposite
         id="feComposite4379-3-8-8-2-77-4-1-0-6-4-7-7-6"
         in2="SourceGraphic"
         in="flood"
         operator="in"
         result="composite1"
         baseFrequency="0.053999999999999999 0.053999999999999999" />
      <feMorphology
         id="feMorphology4393-1-0-49-8-9-3-0-1-9-9-5-5-2"
         operator="dilate"
         radius="4.0330969769021738"
         result="result3" />
      <feComposite
         id="feComposite4385-9-5-7-0-8-8-7-5-4-9-3-3-9"
         in2="result3"
         in="SourceGraphic"
         operator="over"
         result="fbSourceGraphic" />
      <feColorMatrix
         result="fbSourceGraphicAlpha"
         in="fbSourceGraphic"
         values="0 0 0 -1 0 0 0 0 -1 0 0 0 0 -1 0 0 0 0 1 0"
         id="feColorMatrix4544-9-4-4-5-5-1" />
      <feTurbulence
         id="feTurbulence4546-3-6-5-6-6-2"
         type="fractalNoise"
         numOctaves="4"
         seed="147"
         baseFrequency="0.046080819231719368"
         result="turbulence" />
      <feDisplacementMap
         id="feDisplacementMap4548-8-0-9-2-2-7"
         in2="turbulence"
         in="fbSourceGraphic"
         scale="13.20326"
         yChannelSelector="G"
         xChannelSelector="R"
         result="fbSourceGraphic" />
      <feColorMatrix
         result="fbSourceGraphicAlpha"
         in="fbSourceGraphic"
         values="0 0 0 -1 0 0 0 0 -1 0 0 0 0 -1 0 0 0 0 1 0"
         id="feColorMatrix4670-7-7-3-9-9-0" />
      <feFlood
         id="feFlood4672-4-4-5-1-1-9"
         flood-opacity="1"
         flood-color="rgb(28,28,28)"
         result="flood"
         in="fbSourceGraphic" />
      <feComposite
         id="feComposite4674-8-3-7-2-2-3"
         in2="fbSourceGraphic"
         in="flood"
         operator="in"
         result="composite1" />
      <feGaussianBlur
         id="feGaussianBlur4676-3-7-08-7-7-6"
         in="composite1"
         stdDeviation="0"
         result="blur" />
      <feOffset
         id="feOffset4678-6-9-1-0-0-0"
         dx="-10.48377497279229"
         dy="0.39217365321829334"
         result="offset" />
      <feComposite
         id="feComposite4680-4-0-9-9-9-6"
         in2="offset"
         in="fbSourceGraphic"
         operator="over"
         result="composite2" />
    </filter>
  </defs>
  <sodipodi:namedview
     pagecolor="#ffffff"
     bordercolor="#666666"
     borderopacity="1"
     objecttolerance="10"
     gridtolerance="10"
     guidetolerance="10"
     inkscape:pageopacity="0"
     inkscape:pageshadow="2"
     inkscape:window-width="1366"
     inkscape:window-height="715"
     id="namedview4"
     showgrid="false"
     inkscape:window-x="-8"
     inkscape:window-y="-8"
     inkscape:window-maximized="1"
     inkscape:document-rotation="0"
     inkscape:snap-global="false"
     inkscape:pagecheckerboard="0"
     inkscape:zoom="0.29267003"
     inkscape:cx="1137.5577"
     inkscape:cy="2727.3997"
     inkscape:current-layer="layer1" />
  <g
     inkscape:groupmode="layer"
     id="layer2"
     inkscape:label="artwork"
     sodipodi:insensitive="true">
    <image
       sodipodi:absref="D:\Projects\lang\gfx_Pepper-and-Carrot_by-David-Revoy_E35P04.png"
       xlink:href="../gfx_Pepper-and-Carrot_by-David-Revoy_E35P04.png"
       width="2481"
       height="3503"
       id="image10"
       x="0"
       y="0" />
  </g>
  <g
     inkscape:groupmode="layer"
     id="layer3"
     inkscape:label="speechbubbles">
    <path
       style="fill:#ffffff;fill-rule:evenodd;stroke:none;stroke-width:1.3803px;stroke-linecap:butt;stroke-linejoin:miter;stroke-opacity:1"
       d="m 1990.6841,68.129186 40.8894,-58.1643763 10.7703,72.2694093 16.0195,-10.797383 -1.1205,12.424853 77.5078,-87.8692186 -17.3836,103.4133266 28.6218,-11.512543 -26.2092,30.449126 71.5505,-11.92249 -52.0274,36.07877 109.7994,-20.18457 -86.5737,48.35085 68.7817,15.87944 -76.9714,21.31793 82.325,34.53867 -128.9502,0.0335 23.8906,14.29195 -47.765,-3.52361 4.7183,31.7206 -28.459,-22.54414 -2.5496,19.73937 -12.2434,-13.74773 -45.6264,71.52464 -14.9509,-66.61322 -34.159,25.24735 9.0138,-34.41797 -80.516,13.14666 59.4356,-35.61674 -52.3321,-12.33614 13.2762,-25.24301 -19.2203,-3.63745 19.8777,-40.2119 -5.8639,-29.82786 6.0608,-43.514206 14.6237,-6.146039 16.6659,2.371306 -14.9767,-17.873766 43.9064,21.730774 12.0993,-4.199085 z"
       id="path1311"
       inkscape:connector-curvature="0"
       sodipodi:nodetypes="ccccccccccccccccccccccccccccccccccccccccc" />
    <path
       style="display:inline;fill:#ffffff;fill-rule:evenodd;stroke:none;stroke-width:1.20808px;stroke-linecap:butt;stroke-linejoin:miter;stroke-opacity:1"
       d="m 1921.6288,964.73497 c 25.3613,32.25057 24.6684,51.44963 -0.5104,36.36393 22.6616,22.0731 16.0923,25.0583 -5.7213,29.5815 42.6233,51.4034 21.0151,81.6079 -2.1037,111.3139 60.0163,-11.1938 56.429,15.989 66.7704,34.7683 20.6248,-35.3496 21.7498,-11.9446 17.4341,27.8546 23.2686,-45.8379 33.0424,-49.0683 30.5136,-13.4454 18.8113,-28.7875 37.1776,-39.2629 55.0319,-28.6902 43.9052,-25.4603 49.68,12.8494 67.779,30.548 6.703,-36.0564 24.7418,-44.7548 54.1326,-7.5122 4.3998,-21.7812 30.8947,-20.0714 51.8818,12.2355 -25.0035,-62.7898 21.5382,-5.2648 29.6133,-1.2768 -11.72,-32.2619 25.0339,-32.2351 74.7282,-6.9409 -16.6357,-14.8537 -29.8733,-45.9079 6.0388,-56.9842 -33.1165,-15.2049 -28.8327,-30.8411 -4.9007,-46.7043 -35.327,-27.3345 -1.309,-50.09 25.7386,-73.536 -45.1891,9.5146 -65.1004,8.1019 -63.383,-29.36993 -71.4655,25.66923 -57.9044,10.30687 -48.2199,-3.1851 -48.6078,32.80383 -47.8128,0.63459 -45.9584,-9.28942 -64.8013,35.18515 -104.9749,-6.19711 -121.5023,-30.86373 -21.8047,49.77197 -39.8422,29.33898 -57.8647,8.61655 7.9173,37.58296 -12.0963,33.81239 -31.5214,17.66574 3.5907,25.19132 -16.6036,45.99379 -47.6212,9.43317 9.9903,17.89156 -12.227,25.43652 -50.3553,-10.58301 z"
       id="path4289-9-3"
       inkscape:connector-curvature="0"
       sodipodi:nodetypes="cccccccccccccccccccccccc" />
    <path
       style="color:#000000;display:inline;overflow:visible;visibility:visible;fill:#ffffff;fill-opacity:1;fill-rule:nonzero;stroke:none;stroke-width:0.770816px;marker:none;enable-background:accumulate"
       d="m 1939.1741,1934.971 c 9.8826,-14.9726 20.1591,-35.7858 23.8355,-5.3013 27.0685,-40.8191 60.473,-26.4356 67.8775,-20.4876 -3.4169,-12.0842 3.4721,-33.8053 23.1477,-28.4646 -3.7385,-11.6741 1.906,-20.4399 15.9223,-26.6098 -19.8636,-5.4615 -24.0618,-12.5657 10.8853,-23.7804 -27.2137,1.6813 -52.6866,2.3839 -23.3108,-27.7406 -10.0505,0.2441 -31.693,25.1224 -26.6716,-42.41 -15.2491,22.8526 -32.5067,36.2631 -59.537,-6.2759 -5.4681,18.2557 -14.9492,31.1057 -37.4502,8.9055 3.3969,46.8177 -26.7148,23.6021 -36.4997,18.8055 24.5248,24.178 36.1626,51.7113 -4.087,34.244 44.6161,31.5109 12.6873,38.46 6.8212,48.0033 33.6239,9.2096 39.3039,22.9789 20.1474,41.0257 37.4287,-2.8622 20.7777,21.5037 18.9194,30.0862 z"
       id="path3549-3-8"
       inkscape:connector-curvature="0"
       sodipodi:nodetypes="ccccccccccccccc" />
    <path
       style="color:#000000;display:inline;overflow:visible;visibility:visible;fill:#ffffff;fill-opacity:1;fill-rule:nonzero;stroke:none;stroke-width:0.953405px;marker:none;enable-background:accumulate"
       d="m 1926.248,1843.0789 c -20.822,12.3713 -43.9112,29.9401 -49.0115,34.7313 7.6441,4.8958 13.7298,10.7762 18.5416,15.2652 -10.1989,7.8557 -59.6343,40.9724 -74.2202,42.5016 36.2511,-2.0413 75.4853,-23.85 91.2102,-38.3345 -5.5183,-7.1796 -9.6233,-10.7039 -12.4531,-14.5629 7.5084,-7.7245 36.8287,-25.7792 36.8287,-25.7792 z"
       id="path5066-8"
       inkscape:connector-curvature="0"
       inkscape:transform-center-x="-57.216036"
       inkscape:transform-center-y="-43.686552" />
    <path
       style="display:inline;fill:#ffffff;fill-rule:evenodd;stroke:none;stroke-width:0.698114px;stroke-linecap:butt;stroke-linejoin:miter;stroke-opacity:1"
       d="m 1657.3978,2705.2373 c -19.6361,-13.8585 -31.0472,-36.912 -29.6699,-59.863 0.018,-3.5135 -0.3774,-8.0219 1.5022,-2.246 1.752,4.0298 7.1294,13.6182 9.3265,12.5222 -1.2577,-8.8501 -0.2747,-17.6718 1.0262,-26.4179 0.8513,-9.1477 7.5036,10.9922 11.4613,3.0445 -2.1399,-3.3793 -1.2275,-11.9763 2.6691,-4.5199 5.2814,6.2476 6.6536,0.1269 7.85,-3.1599 5.324,4.3437 6.6145,0.9638 8.7355,-2.1934 4.4195,2.8325 7.965,2.6051 9.8386,-1.8567 6.805,0.054 15.7397,4.6724 17.0511,-5.2373 3.2855,-4.6515 6.419,5.8393 12.0254,2.8279 11.3019,-1.1697 22.5172,1.5185 33.7929,1.9774 9.4736,1.1427 16.8227,7.5219 24.2404,12.1511 -0.7236,-3.4387 -1.3227,-6.9813 3.6078,-3.573 4.3625,-0.083 -5.945,-13.324 1.6662,-5.6321 9.6784,9.143 15.9147,20.825 23.9307,31.1801 7.1892,10.8464 16.5903,20.4605 21.8335,32.4118 4.5071,9.259 8.1574,19.2126 9.924,29.1222 -1.6803,-3.6809 -8.462,-11.6388 -7.7428,-2.7516 0.4661,3.9719 -1.8919,16.6007 -5.7742,8.7104 -3.8776,-2.1273 -5.7925,3.3442 -6.9663,-2.5626 -1.8895,-3.8578 -9.3243,-16.3625 -8.3199,-5.2596 -0.174,4.4625 -0.2836,15.7557 -6.158,15.2981 -0.5142,-4.3369 -3.1418,-4.5846 -5.3982,-1.9329 -2.5119,-2.7725 -4.8185,-4.3471 -7.6111,-2.5997 -6.1311,-4.1244 -14.3738,-4.5374 -20.5854,-0.3415 -6.9066,2.9169 -9.0375,12.2104 -17.8768,10.295 -6.5978,1.0738 -11.7588,5.2852 -18.6393,1.7588 -6.1975,2.5269 -13.8801,1.4423 -20.2963,-0.7309 -2.3826,-0.9719 -8.393,-5.9972 -8.2166,-0.5102 -4.6488,1.613 -14.2369,-5.5606 -14.4917,-3.6972 1.3173,7.42 -7.7729,-4.0575 -9.5979,-6.1815 -4.7811,-6.3934 -10.721,-12.4102 -13.137,-20.0326 z"
       id="path4197"
       inkscape:connector-curvature="0" />
    <path
       style="display:inline;fill:#ffffff;fill-rule:evenodd;stroke:none;stroke-width:0.526521px;stroke-linecap:butt;stroke-linejoin:miter;stroke-opacity:1"
       d="m 1785.4371,2670.6771 c -9.1269,11.1916 -4.0113,27.1318 -2.0478,40.1075 -0.4017,8.854 8.9372,21.6132 7.9182,25.766 -3.6681,-3.3698 -9.146,-6.8747 -5.1359,1.3178 5.1003,23.2403 20.4137,41.8573 36.404,57.5616 4.9016,3.4781 19.9534,14.3017 18.897,6.6915 9.177,6.1172 20.1322,8.6892 30.5683,11.0491 11.8024,-0.3904 23.2973,2.4401 34.0779,7.5668 10.7691,3.326 22.5794,8.1652 33.6819,3.7153 -4.3605,-15.8682 14.3795,-1.0164 21.3832,-6.6664 6.2643,2.2879 22.0036,-1.8245 32.5652,-4.3462 10.5679,-2.6261 21.0688,-6.3317 30.7782,-11.5603 6.7843,0.4379 18.1577,-3.2683 25.432,-12.1337 6.3453,2.138 14.0862,-28.5174 11.9282,-35.119 -1.7105,-11.017 -0.9487,-23.2167 -3.0024,-31.8837 -1.0153,-10.3105 -9.538,-15.8182 -12.5263,-25.5942 -7.0561,-17.3199 -19.8656,-31.1615 -35.1907,-40.2727 -12.7681,-7.5924 -26.2595,-15.1661 -40.7485,-17.7843 -9.45,-0.2847 8.0994,11.0863 -3.6193,5.0104 -8.8604,-6.4484 1.1975,8.2798 -5.6294,2.1591 -3.8356,-4.8141 -11.6763,-8.8207 -8.7455,1.691 -0.4708,4.1952 -3.7335,0.748 -5.758,4.4498 -10.1337,-6.6445 -21.5164,-1.6728 -32.677,-1.5867 -6.1516,-0.7846 -15.6845,3.9794 -18.5092,-4.5894 0.056,10.3829 -9.6834,0.3587 -10.7127,10.4657 -4.6489,-2.6112 -12.3281,-8.5677 -13.142,0.9384 -7.7726,8.0983 -18.5435,-7.0377 -23.4458,-3.7678 2.748,16.0488 -10.7017,2.3665 -15.6461,-1.3822 -1.0642,17.8001 -17.2296,-3.4253 -24.256,-0.7606 7.4847,10.1844 -2.5085,19.6371 -12.1597,12.8469 4.5736,16.2834 -4.7849,3.7509 -10.6818,6.1103 z"
       id="path4236"
       inkscape:connector-curvature="0"
       sodipodi:nodetypes="ccccccccccccccccccccccccccccccc" />
    <path
       style="display:inline;fill:#ffffff;fill-rule:evenodd;stroke:none;stroke-width:1px;stroke-linecap:butt;stroke-linejoin:miter;stroke-opacity:1"
       d="m 2040.4712,2973.7641 c 16.3129,-104.9146 -18.3515,-177.7317 -52.9957,-199.8323 -34.6434,-22.0999 -57.1191,-12.3122 -34.9033,9.9761 22.215,22.2877 85.0927,37.2478 87.899,189.8562 z"
       id="path4293"
       inkscape:connector-curvature="0" />
  </g>
  <g
     inkscape:groupmode="layer"
     id="layer1"
     inkscape:label="txt">
    <text
       xml:space="preserve"
       style="font-style:normal;font-variant:normal;font-weight:normal;font-stretch:normal;font-size:179.149px;line-height:1.25;font-family:Lavi;-inkscape-font-specification:Lavi;letter-spacing:0px;word-spacing:0px;display:inline;fill:#ffffff;fill-opacity:1;stroke:#ffffff;stroke-width:0.741719;stroke-miterlimit:4;stroke-dasharray:none;stroke-opacity:1;filter:url(#filter4375-4-1-1-1-9-5-8-8-5-5-3-3)"
       id="text4580-6-0-0-0-9-3-3"
       transform="matrix(0.84462079,-0.22320955,-0.11568168,1.0724298,1290.1704,456.12778)"
       x="181.50571"
       y="435.11505"><textPath
         xlink:href="#path974"
         id="textPath2837"
         style="font-style:normal;font-variant:normal;font-weight:bold;font-stretch:normal;font-size:179.149px;font-family:Lavi;-inkscape-font-specification:'Lavi Bold';stroke-width:0.741719"><tspan
           style="font-style:normal;font-variant:normal;font-weight:bold;font-stretch:normal;font-size:228.21px;font-family:Lavi;-inkscape-font-specification:'Lavi Bold'"
           id="tspan936">B<tspan
   style="font-size:218.889px"
   id="tspan83">U</tspan>u</tspan><tspan
           style="font-style:normal;font-variant:normal;font-weight:bold;font-stretch:normal;font-size:200.696px;font-family:Lavi;-inkscape-font-specification:'Lavi Bold'"
           id="tspan876">M</tspan><tspan
           id="tspan884"
           style="font-style:normal;font-variant:normal;font-weight:bold;font-stretch:normal;font-size:222.316px;font-family:Lavi;-inkscape-font-specification:'Lavi Bold'">!</tspan></textPath></text>
    <text
       xml:space="preserve"
       style="font-style:normal;font-variant:normal;font-weight:normal;font-stretch:normal;font-size:50.1752px;line-height:1.25;font-family:Lavi;-inkscape-font-specification:Lavi;text-align:center;letter-spacing:0px;word-spacing:0px;text-anchor:middle;fill:#000000;fill-opacity:1;stroke:none;stroke-width:1.115"
       x="2030.3594"
       y="215.86717"
       id="text4246-3-2-2"
       transform="scale(1.0052596,0.99476793)"><tspan
         style="font-style:normal;font-variant:normal;font-weight:bold;font-stretch:normal;font-size:50.1752px;font-family:Lavi;-inkscape-font-specification:'Lavi Bold';stroke-width:1.115"
         sodipodi:role="line"
         x="2030.3594"
         y="215.86717"
         id="tspan905">APA?!</tspan></text>
    <text
       xml:space="preserve"
       style="font-style:normal;font-variant:normal;font-weight:normal;font-stretch:normal;font-size:45px;line-height:1.25;font-family:Lavi;-inkscape-font-specification:Lavi;text-align:center;letter-spacing:0px;word-spacing:0px;text-anchor:middle;fill:#000000;fill-opacity:1;stroke:none"
       x="2140.032"
       y="1069.0594"
       id="text4246-3-2-2-3"><tspan
         style="font-size:45px"
         sodipodi:role="line"
         x="2140.032"
         y="1069.0594"
         id="tspan905-3">Mereka menembus</tspan><tspan
         style="font-size:45px"
         sodipodi:role="line"
         x="2140.032"
         y="1125.3094"
         id="tspan77">hambatan suara?!</tspan></text>
    <text
       xml:space="preserve"
       style="font-style:normal;font-variant:normal;font-weight:normal;font-stretch:normal;font-size:69.6081px;line-height:1.25;font-family:Lavi;-inkscape-font-specification:Lavi;text-align:center;letter-spacing:0px;word-spacing:0px;text-anchor:middle;fill:#000000;fill-opacity:1;stroke:none;stroke-width:1.54685"
       x="1899.1366"
       y="1946.7604"
       id="text4246-3-2-2-3-5"
       transform="scale(1.0399735,0.96156296)"><tspan
         style="font-style:normal;font-variant:normal;font-weight:bold;font-stretch:normal;font-size:69.6081px;font-family:Lavi;-inkscape-font-specification:'Lavi Bold';stroke-width:1.54685"
         sodipodi:role="line"
         x="1899.1366"
         y="1946.7604"
         id="tspan905-3-1">!<tspan
   style="font-size:79.6081px"
   id="tspan1014">!</tspan><tspan
   id="tspan1018"
   style="font-size:89.6081px">!</tspan></tspan></text>
    <text
       xml:space="preserve"
       style="font-style:normal;font-variant:normal;font-weight:normal;font-stretch:normal;font-size:80px;line-height:1.25;font-family:Lavi;-inkscape-font-specification:Lavi;letter-spacing:0px;word-spacing:0px;display:inline;fill:#ffffff;fill-opacity:1;stroke:#ffffff;stroke-width:0.668774;stroke-miterlimit:4;stroke-dasharray:none;stroke-opacity:1;filter:url(#filter4375-4-1-1-1-9-5-8-8-5-5-3-3-3)"
       id="text4580-6-0-0-0-9-3-3-2"
       transform="matrix(0.80003598,-0.79061533,0.21633545,1.1521123,363.87713,1065.1365)"
       x="-607.91235"
       y="1245.0809"><tspan
         id="tspan1510"
         style="font-size:99.052px">WUuus</tspan><tspan
         id="tspan1083"
         style="font-size:74.7304px">H</tspan><tspan
         id="tspan1530"
         style="font-size:44.312px">!</tspan><tspan
         id="tspan1534"
         style="font-size:61.3371px">!!</tspan></text>
    <text
       xml:space="preserve"
       style="font-style:normal;font-variant:normal;font-weight:normal;font-stretch:normal;font-size:45px;line-height:1.25;font-family:Lavi;-inkscape-font-specification:Lavi;text-align:center;letter-spacing:0px;word-spacing:0px;text-anchor:middle;fill:#000000;fill-opacity:1;stroke:none"
       x="1723.0199"
       y="2688.6509"
       id="text4246-3-2-2-3-2"><tspan
         style="font-style:normal;font-variant:normal;font-weight:bold;font-stretch:normal;font-size:45px;font-family:Lavi;-inkscape-font-specification:'Lavi Bold'"
         sodipodi:role="line"
         x="1723.0199"
         y="2688.6509"
         id="tspan905-3-3">Grrr!</tspan></text>
    <text
       xml:space="preserve"
       style="font-style:normal;font-variant:normal;font-weight:normal;font-stretch:normal;font-size:45px;line-height:1.25;font-family:Lavi;-inkscape-font-specification:Lavi;text-align:center;letter-spacing:0px;word-spacing:0px;text-anchor:middle;fill:#000000;fill-opacity:1;stroke:none"
       x="1927.6451"
       y="2723.4114"
       id="text4246-3-2-2-3-2-6"><tspan
         style="font-style:normal;font-variant:normal;font-weight:normal;font-stretch:normal;font-size:45px;font-family:Lavi;-inkscape-font-specification:Lavi"
         sodipodi:role="line"
         x="1927.6451"
         y="2723.4114"
         id="tspan1154">Pegangan,</tspan><tspan
         style="font-style:normal;font-variant:normal;font-weight:normal;font-stretch:normal;font-size:45px;font-family:Lavi;-inkscape-font-specification:Lavi"
         sodipodi:role="line"
         x="1927.6451"
         y="2779.6614"
         id="tspan81">Carrot!</tspan></text>
    <path
       style="color:#000000;display:inline;overflow:visible;visibility:visible;fill:#ffffff;fill-opacity:1;fill-rule:nonzero;stroke:none;stroke-width:0.721774px;marker:none;enable-background:accumulate"
       d="m 2039.7365,1002.7266 c 9.861,-32.35369 17.4578,-71.3509 18.3464,-80.70229 -11.8043,4.23219 -24.3456,2.67351 -32.9969,4.198 3.2732,-17.30307 13.3579,-99.34384 26.4548,-116.22599 -34.0773,40.53356 -42.4573,105.79489 -45.4461,134.39433 11.6836,-0.10269 18.7989,-1.64982 24.9438,-1.55895 -0.7263,14.31116 -14.0636,60.3846 -14.0636,60.3846 z"
       id="path5066-7"
       inkscape:connector-curvature="0"
       sodipodi:nodetypes="cccccccc" />
  </g>
</svg>
