<?xml version="1.0" encoding="UTF-8" standalone="no"?>
<!-- Created with Inkscape (http://www.inkscape.org/) -->

<svg
   xmlns:dc="http://purl.org/dc/elements/1.1/"
   xmlns:cc="http://creativecommons.org/ns#"
   xmlns:rdf="http://www.w3.org/1999/02/22-rdf-syntax-ns#"
   xmlns:svg="http://www.w3.org/2000/svg"
   xmlns="http://www.w3.org/2000/svg"
   xmlns:xlink="http://www.w3.org/1999/xlink"
   xmlns:sodipodi="http://sodipodi.sourceforge.net/DTD/sodipodi-0.dtd"
   xmlns:inkscape="http://www.inkscape.org/namespaces/inkscape"
   id="svg2"
   version="1.1"
   inkscape:version="0.92.3 (2405546, 2018-03-11)"
   width="2481"
   height="3503"
   sodipodi:docname="E31P06.svg">
  <metadata
     id="metadata8">
    <rdf:RDF>
      <cc:Work
         rdf:about="">
        <dc:format>image/svg+xml</dc:format>
        <dc:type
           rdf:resource="http://purl.org/dc/dcmitype/StillImage" />
        <dc:title />
      </cc:Work>
    </rdf:RDF>
  </metadata>
  <defs
     id="defs6">
    <filter
       style="color-interpolation-filters:sRGB"
       id="filter4375-4-1-1-1-9-5-8-3-8"
       inkscape:label="Drop Shadow">
      <feFlood
         id="feFlood4377-7-9-0-8-1-7-3-8-3"
         flood-opacity="1"
         flood-color="rgb(39,39,39)"
         result="flood" />
      <feComposite
         id="feComposite4379-3-8-8-2-77-4-1-8-7"
         in2="SourceGraphic"
         in="flood"
         operator="in"
         result="composite1" />
      <feMorphology
         id="feMorphology4393-1-0-49-8-9-3-0-31-8"
         operator="dilate"
         radius="6.2000000000000002"
         result="result3" />
      <feComposite
         id="feComposite4385-9-5-7-0-8-8-7-8-2"
         in2="result3"
         in="SourceGraphic"
         operator="over"
         result="fbSourceGraphic" />
      <feColorMatrix
         result="fbSourceGraphicAlpha"
         in="fbSourceGraphic"
         values="0 0 0 -1 0 0 0 0 -1 0 0 0 0 -1 0 0 0 0 1 0"
         id="feColorMatrix4544-96-1" />
      <feTurbulence
         id="feTurbulence4546-4-0"
         type="fractalNoise"
         numOctaves="3"
         seed="37"
         baseFrequency="0.129 0.0050000000000000001"
         result="turbulence" />
      <feDisplacementMap
         id="feDisplacementMap4548-3-5"
         in2="turbulence"
         in="fbSourceGraphic"
         scale="6.6"
         yChannelSelector="G"
         xChannelSelector="R"
         result="fbSourceGraphic" />
      <feColorMatrix
         result="fbSourceGraphicAlpha"
         in="fbSourceGraphic"
         values="0 0 0 -1 0 0 0 0 -1 0 0 0 0 -1 0 0 0 0 1 0"
         id="feColorMatrix4670-33-8" />
      <feFlood
         id="feFlood4672-8-5"
         flood-opacity="0.40999999999999998"
         flood-color="rgb(0,0,0)"
         result="flood"
         in="fbSourceGraphic" />
      <feComposite
         id="feComposite4674-6-5"
         in2="fbSourceGraphic"
         in="flood"
         operator="in"
         result="composite1" />
      <feGaussianBlur
         id="feGaussianBlur4676-0-0"
         in="composite1"
         stdDeviation="0"
         result="blur" />
      <feOffset
         id="feOffset4678-4-7"
         dx="6"
         dy="6"
         result="offset" />
      <feComposite
         id="feComposite4680-8-3"
         in2="offset"
         in="fbSourceGraphic"
         operator="over"
         result="composite2" />
    </filter>
    <filter
       style="color-interpolation-filters:sRGB"
       id="filter4375-4-1-1-1-9-0"
       inkscape:label="deevad outline effect">
      <feFlood
         id="feFlood4377-7-9-0-8-1-9"
         flood-opacity="1"
         flood-color="rgb(0,0,0)"
         result="flood" />
      <feComposite
         id="feComposite4379-3-8-8-2-77-1"
         in2="SourceGraphic"
         in="flood"
         operator="in"
         result="composite1" />
      <feMorphology
         id="feMorphology4393-1-0-49-8-9-9"
         operator="dilate"
         radius="3"
         result="result3" />
      <feComposite
         id="feComposite4385-9-5-7-0-8-6"
         in2="result3"
         in="SourceGraphic"
         operator="over"
         result="composite2" />
    </filter>
    <filter
       style="color-interpolation-filters:sRGB"
       id="filter4375-4-1-1-1-9-0-5"
       inkscape:label="deevad outline effect">
      <feFlood
         id="feFlood4377-7-9-0-8-1-9-6"
         flood-opacity="1"
         flood-color="rgb(0,0,0)"
         result="flood" />
      <feComposite
         id="feComposite4379-3-8-8-2-77-1-2"
         in2="SourceGraphic"
         in="flood"
         operator="in"
         result="composite1" />
      <feMorphology
         id="feMorphology4393-1-0-49-8-9-9-9"
         operator="dilate"
         radius="3"
         result="result3" />
      <feComposite
         id="feComposite4385-9-5-7-0-8-6-1"
         in2="result3"
         in="SourceGraphic"
         operator="over"
         result="composite2" />
    </filter>
  </defs>
  <sodipodi:namedview
     pagecolor="#ffffff"
     bordercolor="#666666"
     borderopacity="1"
     objecttolerance="10"
     gridtolerance="10"
     guidetolerance="10"
     inkscape:pageopacity="0"
     inkscape:pageshadow="2"
     inkscape:window-width="1920"
     inkscape:window-height="1022"
     id="namedview4"
     showgrid="false"
     inkscape:zoom="0.32343248"
     inkscape:cx="1705.5124"
     inkscape:cy="946.30977"
     inkscape:window-x="0"
     inkscape:window-y="0"
     inkscape:window-maximized="1"
     inkscape:current-layer="layer1"
     inkscape:snap-global="false" />
  <g
     inkscape:groupmode="layer"
     id="layer2"
     inkscape:label="artwork"
     sodipodi:insensitive="true">
    <image
       sodipodi:absref="/home/peppercarrot/webcomics/"
       xlink:href="../gfx_Pepper-and-Carrot_by-David-Revoy_E31P06.png"
       width="2481"
       height="3503"
       id="image10"
       x="0"
       y="0" />
  </g>
  <g
     inkscape:groupmode="layer"
     id="layer3"
     inkscape:label="speechbubbles">
    <path
       style="color:#000000;display:inline;overflow:visible;visibility:visible;fill:#ffffff;fill-opacity:1;fill-rule:nonzero;stroke:none;stroke-width:1.47614968px;marker:none;enable-background:accumulate"
       d="m 939.55335,2949.8897 c -21.10926,-3.6409 -83.37665,-36.7394 -9.5932,-37.8751 -55.14416,-12.7512 -49.77997,-42.8034 -6.30145,-61.9944 -58.22076,5.9263 -102.04843,0.2707 -73.8379,-31.6678 -85.22552,23.1811 -123.34184,28.7501 -108.04935,-15.1218 -37.61618,37.2172 -76.22354,32.1244 -88.64243,-9.1209 -7.05106,31.4051 -65.43092,43.6764 -135.05975,4.9546 23.72021,36.5131 37.1899,55.5172 -86.58249,50.1761 48.00828,19.8142 78.5116,32.5066 -0.32721,44.9158 41.07396,8.1226 67.70114,20.3045 5.9306,43.8849 41.27908,4.9788 105.81314,0.406 29.78986,43.7956 50.5862,-21.1021 137.78288,-10.8813 102.46454,21.2771 99.30103,-38.5555 119.37867,-30.166 136.22315,-6.1139 35.47724,-37.661 109.47187,-44.6841 142.47528,-24.9702 -17.39479,-31.391 44.93191,-20.2618 91.51035,-22.14 z"
       id="path3549-3-78-5-3"
       inkscape:connector-curvature="0"
       sodipodi:nodetypes="ccccccccccccccc" />
    <path
       style="color:#000000;display:inline;overflow:visible;visibility:visible;fill:#ffffff;fill-opacity:1;fill-rule:nonzero;stroke:none;stroke-width:1.36866391px;marker:none;enable-background:accumulate"
       d="m 834.28404,3006.765 c -13.96266,-3.684 -28.36813,-27.5895 -5.67952,-43.645 -18.82595,-0.851 -29.59985,-9.0682 -11.84196,-25.8908 -39.47563,21.0616 -49.94041,-7.556 -37.02564,-41.1795 -57.94072,16.1503 -83.6555,19.4435 -71.61433,-15.9792 -26.69095,29.2297 -52.29248,23.7743 -58.88761,-10.4191 -6.01476,25.4866 -18.85485,39.4156 -57.12934,7.3259 -2.81739,9.3514 10.14775,40.1078 -72.38386,31.6161 31.27728,17.8251 50.04285,21.0978 -3.18177,28.6385 27.1252,8.0189 63.1746,20.0441 20.89905,37.3019 27.39255,5.4508 50.89416,0.4427 -1.73094,33.4503 34.69522,-15.6002 73.79968,4.8937 48.85452,30.0569 67.98814,-28.274 81.06441,-20.7351 91.33041,-0.4758 25.27926,-29.6645 61.81236,-26.3047 83.06169,-9.0609 -10.33003,-26.2881 44.10971,-21.7503 75.3293,-21.7393 z"
       id="path3549-3-78-5"
       inkscape:connector-curvature="0"
       sodipodi:nodetypes="ccccccccccccccc" />
    <path
       style="fill:#ffffff;fill-opacity:1;stroke:none;stroke-width:1.19769967"
       d="m 2336.0954,588.48231 c -18.7292,4.65744 -25.9382,9.00621 -22.5847,11.70095 -7.6825,1.32501 -10.642,36.24447 -3.457,42.64173 0.4782,0.67333 3.8336,2.69587 2.3926,3.02823 -1.4403,0.33239 -10.0773,-0.69522 -11.5201,0.64447 -1.443,1.34036 12.912,20.51587 10.9905,21.18289 -1.9213,0.6677 -46.0482,-12.1981 -52.2944,-9.19017 -6.2463,3.00795 -2.9042,10.73991 -4.8247,11.07118 -1.9204,0.33125 -19.6745,-1.72513 -22.0749,-1.39499 -2.4006,0.33012 -6.7431,10.39444 -9.1435,10.72456 -2.4008,0.33014 -13.4289,-4.3973 -15.3494,-4.06603 -1.9207,0.33125 -0.9799,8.72912 -3.3803,9.05927 -2.4007,0.33011 -12.9428,-7.08233 -14.3835,-6.74996 -1.4405,0.33238 -6.7584,17.11121 -9.1604,18.11287 -2.4022,1.00167 -17.716,-18.51182 -19.1554,-18.85099 -1.439,-0.33983 -10.611,22.81097 -12.5314,23.14222 -1.921,0.33125 -11.483,-15.81101 -12.9238,-15.47862 -1.4407,0.33239 -10.5811,9.71455 -12.5024,10.38157 -1.9213,0.66703 -14.3511,-20.85501 -16.2711,-20.85952 -1.9198,-0.005 -18.2589,9.02428 -19.7026,10.69975 -1.4438,1.67613 -2.8598,-8.73815 -4.7796,-8.74267 -1.9197,-0.005 -24.0116,5.9888 -24.4907,5.6519 -0.4793,-0.33691 3.3751,-6.70888 1.9352,-6.71225 -1.4397,-0.003 -24.0167,8.3392 -24.9731,6.65808 6.5854,-24.64194 -48.6929,7.42281 -52.331,6.92953 -3.3567,-1.35165 21.6608,-27.48715 19.2658,-29.50807 -2.3954,-2.02028 -11.0401,0.3098 -11.5178,-0.69864 -0.4774,-1.00844 5.292,-5.3606 3.8552,-6.70705 -1.4368,-1.34714 -17.7429,-6.75851 -19.1789,-8.44075 -1.4361,-1.68292 7.213,-6.02831 5.2954,-7.04013 -1.9176,-1.01249 -30.2203,-7.45941 -30.6965,-9.14005 -0.476,-1.67999 14.4212,-9.70485 12.5066,-12.05977 -1.9143,-2.35558 -7.1918,-3.37529 -6.7079,-5.05369 0.4839,-1.67773 9.6075,-3.67158 9.1315,-5.35156 -0.4761,-1.68 -5.2566,-10.08757 -6.6933,-11.43403 -1.4369,-1.34647 10.0806,-0.64786 10.0836,-1.99093 0,-1.34375 -2.2198,-28.37647 -19.2437,-40.62159 29.806,8.15477 42.3674,4.26627 58.2122,1.61735 15.8448,-2.6496 9.6434,-19.4555 12.0456,-20.4572 9.7468,6.24908 25.364,33.66049 27.8451,2.31316 -0.4929,-2.23847 17.1622,13.47409 19.5626,13.14396 2.4006,-0.33013 22.1886,-17.84082 25.549,-18.16869 3.3604,-0.32787 16.3055,5.74782 19.1843,6.09037 2.8791,0.34254 5.2979,-8.04745 7.6963,-7.37025 2.3983,0.67718 17.7429,6.75852 20.1441,6.09261 2.4014,-0.66657 4.3273,-3.34823 6.2458,-2.67216 1.9179,0.67605 10.5511,3.3832 10.5511,3.3832 0,0 6.2442,-2.00063 9.1238,-1.99386 2.8797,0.007 22.5326,11.13549 24.9308,11.81268 2.3982,0.67718 27.0629,-11.3828 25.6277,-13.40082 3.0376,8.82504 17.801,0.7888 20.9249,1.23781 3.3571,1.01588 13.4432,-1.98303 14.4009,-0.97345 0.9574,1.00956 3.825,6.39 6.7039,6.73255 2.8791,0.34254 9.5952,1.70142 9.5952,1.70142 l -0.9643,2.01304 c 0,0 20.1702,8.28929 22.5749,6.28029 8.6376,-1.11687 8.2539,1.89027 30.4265,-7.65608 -17.7607,20.30818 -29.5499,43.28735 7.4297,33.9394 -30.7502,8.9333 -17.1325,16.51145 8.6056,14.79693 z"
       id="path5888-3-2"
       inkscape:connector-curvature="0"
       sodipodi:nodetypes="cccsccsscccccccsccscscsccsccccccsccscsccccsccscsccccccccccc" />
    <path
       style="fill:#ffffff;fill-opacity:1;stroke:none;stroke-width:1.06422174"
       d="m 2228.9487,385.82289 c -0.064,0.004 -0.131,0.0176 -0.1957,0.041 -2.0737,0.75002 -9.8233,7.90828 -11.8969,7.15827 -2.0737,-0.75076 -11.5558,-7.40689 -13.2149,-6.65688 -1.6588,0.75001 -7.742,11.06376 -7.742,11.06376 0,0 -10.0575,-4.96527 -20.5578,-11.01838 -3.0971,5.91093 -5.8942,17.08211 -7.968,17.83213 -2.0736,0.75002 -23.3628,-12.78316 -31.7825,-17.47112 -3.1025,6.19133 -5.7469,18.47784 -8.4471,18.97112 -2.9031,1.12577 -21.2768,-13.22067 -22.106,-12.09564 -0.8296,1.12502 6.3452,18.09759 3.8567,18.4726 -2.4884,0.37501 -8.2942,1.875 -8.2942,1.875 l 0.8284,2.25 c 0,0 -17.4191,-6.00192 -19.4928,-8.25196 -2.0736,-2.25078 1.245,9.75311 2.4893,12.75391 -7.4655,-3.0008 -29.4462,-9.37813 -31.105,-11.25391 -1.659,-1.87503 2.9034,6.75193 5.3918,9.37696 -3.3179,-1.12501 -6.2223,-1.5 -6.2223,-1.5 l 9.5399,9.00195 -2.9025,0.75 c 0,0 6.2203,4.12498 6.2203,6 0,1.87579 -16.1753,4.12695 -16.1753,4.12695 18.3495,11.23691 6.7895,14.55335 -7.464,16.50391 7.743,2.51362 13.1782,4.93804 16.45,7.11523 l -15.8014,3.7168 16.4106,7.56445 -8.753,3.24219 8.753,5.4043 -24.0702,8.64648 25.1655,5.4043 -18.6012,9.72851 18.6012,5.4043 -9.8483,7.56446 22.0475,1.45312 c 0,3.14332 -6.4196,19.04189 -9.6171,23.27148 12.5945,-0.0303 33.5329,0.13477 48.7534,0.13477 0.028,1.16441 0.1188,2.00665 0.5989,2.11523 0.8149,0.18421 4.948,-0.26823 9.1722,-0.72851 l 13.4388,4.42578 c 1.584,3.15354 3.2136,6.59956 4.3479,6.80469 1.2961,0.23437 5.5074,-1.72876 8.8892,-3.14258 8e-4,-2.5e-4 0,2.5e-4 0,0 l 4.8461,-0.9082 c 1.04,1.91909 0.5958,9.34263 2.4378,9.67578 2.0738,0.37502 11.1982,-7.87501 12.4424,-7.5 1.2441,0.375 5.8055,19.12886 7.879,20.2539 2.0738,1.12501 15.3463,-20.6289 16.5907,-21.0039 1.244,-0.37576 9.1224,25.5039 10.7813,25.8789 1.6591,0.37502 9.9545,-17.62892 11.1988,-17.2539 1.2443,0.37499 9.1247,10.87889 10.7835,11.6289 1.659,0.75002 12.4422,-23.25586 14.1012,-23.25586 1.659,0 15.7595,10.12693 17.0038,12.00196 1.2443,1.87579 2.4891,-9.75196 4.1481,-9.75196 1.659,0 20.735,6.75197 21.1498,6.37696 0.4149,-0.37501 -2.9031,-7.50196 -1.6588,-7.50196 1.2441,0 20.7376,9.37698 21.5671,7.50196 0.8293,-1.87578 35.6084,3.46603 45.2059,7.87695 -7.4428,-9.56114 -18.664,-30.75508 -16.5905,-33.00586 2.0737,-2.25003 9.5405,0.37502 9.9553,-0.75 0.4146,-1.12502 -4.5618,-6.00194 -3.3176,-7.50195 1.2441,-1.50078 15.3442,-7.50191 16.5883,-9.37696 1.2441,-1.87577 -6.2201,-6.74999 -4.5613,-7.875 1.6589,-1.12576 26.1288,-8.25313 26.5435,-10.1289 0.4147,-1.87504 -12.4424,-10.87691 -10.7835,-13.50195 1.659,-2.62579 6.2219,-3.74922 5.807,-5.625 -0.4148,-1.87502 -8.2957,-4.12694 -7.8809,-6.00196 0.4146,-1.87503 8.8141,-11.63841 10.0581,-13.13843 1.2444,-1.50003 -7.9364,-3.35872 -7.9364,-4.85874 0,-1.50078 -27.7817,-6.7399 -2.2054,-28.94741 -36.6135,4.74119 -23.9705,-1.06318 -37.6567,-4.06323 -13.6865,-3.0008 -8.2947,-21.75584 -10.3682,-22.88086 -2.0739,-1.12577 -17.4195,6.377 -19.4931,3.75195 -2.0737,-2.62579 -2.9043,-7.50195 -4.5634,-7.50195 -1.6587,0 -19.4804,8.06404 -21.5541,7.68903 -2.0737,-0.37501 -13.2829,-14.44098 -16.1862,-14.81598 -2.9031,-0.37502 -14.1021,6.37695 -16.5905,6.75195 -2.4105,0.36329 -4.4301,-8.42522 -6.4396,-8.29297 z"
       id="path5888-3"
       inkscape:connector-curvature="0"
       sodipodi:nodetypes="ccccccccccscccccccccscccccccccccccccscccccccccccccscsssccccccccccccsccccsccccc" />
    <path
       style="color:#000000;display:inline;overflow:visible;visibility:visible;fill:#ffffff;fill-opacity:1;fill-rule:nonzero;stroke:none;stroke-width:0.99999994px;marker:none;enable-background:accumulate"
       d="m 1272.5449,3077.9523 c -78.231,15.2781 -158.5825,23.1124 -234.3525,47.042 l 48.6913,-38.9221 c -31.113,-0.2775 -62.6052,11.89 -93.96922,19.832 l 24.81112,-26.6421 c -73.62433,-0.043 -140.93978,19.5825 -211.30464,29.7017 l 48.37788,-44.8304 c 71.35729,-4.7997 140.74069,-1.8479 214.31916,-15.3676 l -20.5535,27.1733 c 25.7084,-2.3825 51.5171,-5.4463 77.7719,-11.5491 l -30.1046,33.1547 z"
       id="path4032-1"
       inkscape:connector-curvature="0"
       sodipodi:nodetypes="cccccccccccc" />
    <path
       style="display:inline;fill:#ffffff;fill-rule:evenodd;stroke:none;stroke-width:0.88473225px;stroke-linecap:butt;stroke-linejoin:miter;stroke-opacity:1"
       d="m 574.68484,2979.0325 c 39.18404,24.0903 40.78432,36.9049 14.21252,-31.3382 31.64404,50.9857 44.40699,28.3763 52.10088,-1.4375 24.75027,25.6263 41.84081,48.2761 54.11393,29.8383 4.57447,23.712 14.38457,14.1431 22.87463,12.9651 2.79623,5.3654 -17.4155,-12.1735 21.38504,-29.9316 -4.83049,-34.0555 24.6665,3.9559 47.39396,-11.7874 5.88796,28.8216 2.60989,46.66 35.97285,6.0061 -12.0577,39.9848 -28.92045,51.6444 -13.51318,36.3419 -7.04409,16.4661 10.60541,23.2005 37.36849,-4.749 -9.16234,30.3932 23.2099,10.3099 54.86542,-20.8943 -30.12442,34.6018 -72.06499,73.4255 -38.16653,68.9163 -4.72737,9.5124 -21.58953,17.8004 28.62639,32.8571 -9.37464,6.4547 -37.99511,-2.9783 -14.12049,24.3521 3.19872,3.1953 -7.50982,5.1459 12.92772,13.5597 -12.0645,-0.5725 -19.46338,1.4717 -8.34942,13.9007 -22.02219,-0.6722 -13.78244,12.3969 2.38557,29.0656 -41.29927,-32.62 -54.53492,-38.5634 -34.59039,-5.0546 -39.96904,-29.1501 -54.03815,-25.419 -48.9447,-1.4536 -17.01394,-25.446 -36.49587,-29.8956 -52.2759,-0.4984 -16.82495,-30.3336 -28.28797,-27.2258 -63.38165,-4.3668 18.93063,-25.7235 -8.00063,-9.335 -28.6265,1.2633 11.29513,-32.1343 -17.3703,-11.0441 -53.67469,20.2195 20.33029,-35.4848 -2.76014,-22.6666 -36.97592,2.5273 12.92778,-34.8609 -8.1263,-51.7196 -58.44575,-53.0758 24.08438,-12.575 38.12914,-28.4002 13.12054,-56.8679 28.1918,8.3824 36.60099,0.5961 16.69875,-30.329 30.74977,25.3832 49.01629,-5.9685 37.01843,-40.0289 z"
       id="path4508-9"
       inkscape:connector-curvature="0"
       sodipodi:nodetypes="cccccccccccccccccccccccccccc" />
    <path
       style="color:#000000;display:inline;overflow:visible;visibility:visible;fill:#ffffff;fill-opacity:1;fill-rule:nonzero;stroke:none;stroke-width:1px;marker:none;enable-background:accumulate"
       d="m 2279.1877,625.34512 c -0.091,3.76817 51.831,-6.4041 51.831,-6.4041 0,0 1.5665,29.95657 4.6782,32.0986 11.0733,-0.0391 21.0624,-5.37296 21.0624,-5.37296 l 18.0133,48.73793 -20.0054,-31.72225 c -9.8867,-0.91886 -20.0127,-0.88091 -32.7339,9.5382 l -4.3594,-32.26765 -34.1656,7.80769 z"
       id="path4448"
       inkscape:connector-curvature="0"
       sodipodi:nodetypes="cccccccccc" />
  </g>
  <g
     inkscape:groupmode="layer"
     id="layer1"
     inkscape:label="txt">
    <text
       xml:space="preserve"
       style="font-style:normal;font-variant:normal;font-weight:normal;font-stretch:normal;font-size:15.89058971px;line-height:0%;font-family:Lavi;-inkscape-font-specification:Lavi;text-align:center;letter-spacing:0px;word-spacing:0px;text-anchor:middle;fill:#000000;fill-opacity:1;stroke:none;stroke-width:1.17751098"
       x="2214.4329"
       y="472.31824"
       id="text4246-1-3-2-8"
       transform="scale(0.99789912,1.0021053)"><tspan
         sodipodi:role="line"
         style="font-style:normal;font-variant:normal;font-weight:bold;font-stretch:normal;font-size:46.66666794px;line-height:1.25;font-family:Lavi;-inkscape-font-specification:'Lavi Bold';stroke-width:1.17751098"
         x="2221.7246"
         y="472.31824"
         id="tspan65">Thuirt mi gun </tspan><tspan
         sodipodi:role="line"
         style="font-style:normal;font-variant:normal;font-weight:bold;font-stretch:normal;font-size:46.66666794px;line-height:1.25;font-family:Lavi;-inkscape-font-specification:'Lavi Bold';stroke-width:1.17751098"
         x="2214.4329"
         y="530.65155"
         id="tspan69">STAD sibh!</tspan></text>
    <text
       xml:space="preserve"
       style="font-style:normal;font-variant:normal;font-weight:normal;font-stretch:normal;font-size:15.89058971px;line-height:0%;font-family:Lavi;-inkscape-font-specification:Lavi;text-align:center;letter-spacing:0px;word-spacing:0px;text-anchor:middle;fill:#000000;fill-opacity:1;stroke:none;stroke-width:1.17751098"
       x="2144.4634"
       y="594.01233"
       id="text4246-1-3-2-8-3"
       transform="scale(0.99789912,1.0021053)"><tspan
         sodipodi:role="line"
         style="font-style:normal;font-variant:normal;font-weight:bold;font-stretch:normal;font-size:46.66666794px;line-height:1.25;font-family:Lavi;-inkscape-font-specification:'Lavi Bold';stroke-width:1.17751098"
         x="2151.7551"
         y="594.01233"
         id="tspan829-7">Seo tuilleadh </tspan><tspan
         sodipodi:role="line"
         style="font-style:normal;font-variant:normal;font-weight:bold;font-stretch:normal;font-size:46.66666794px;line-height:1.25;font-family:Lavi;-inkscape-font-specification:'Lavi Bold';stroke-width:1.17751098"
         x="2144.4634"
         y="652.34564"
         id="tspan71">’s a chòir!</tspan></text>
    <text
       xml:space="preserve"
       style="font-style:normal;font-variant:normal;font-weight:normal;font-stretch:normal;line-height:0%;font-family:Lavi;-inkscape-font-specification:Lavi;letter-spacing:0px;word-spacing:0px;fill:#000000;fill-opacity:1;stroke:#ffffff;stroke-width:2.66678286;stroke-miterlimit:4;stroke-dasharray:none;stroke-opacity:1;filter:url(#filter4375-4-1-1-1-9-0)"
       x="787.65729"
       y="1584.5073"
       id="text4580-25"
       transform="matrix(0.55718765,-0.37423929,0.21813977,1.0749149,-120.92735,-234.76499)"><tspan
         sodipodi:role="line"
         id="tspan4582-4"
         x="787.65729"
         y="1584.5073"
         style="font-size:70px;line-height:100%;letter-spacing:4.88345098px;fill:#ffffff;stroke:#ffffff;stroke-width:2.66678286;stroke-miterlimit:4;stroke-dasharray:none;stroke-opacity:1"><tspan
           style="font-size:55.34964371px;line-height:100%;letter-spacing:4.88345098px;stroke:#ffffff;stroke-width:2.66678286;stroke-miterlimit:4;stroke-dasharray:none;stroke-opacity:1"
           id="tspan4439-4">Cnag</tspan><tspan
           style="font-size:80.40014648px;line-height:100%;letter-spacing:4.88345098px;stroke:#ffffff;stroke-width:2.66678286;stroke-miterlimit:4;stroke-dasharray:none;stroke-opacity:1"
           id="tspan4617-9">!</tspan></tspan></text>
    <text
       xml:space="preserve"
       style="font-style:normal;font-variant:normal;font-weight:normal;font-stretch:normal;line-height:0%;font-family:Lavi;-inkscape-font-specification:Lavi;letter-spacing:0px;word-spacing:0px;display:inline;fill:#ffffff;fill-opacity:1;stroke:#000000;stroke-width:0.48148537;stroke-miterlimit:4;stroke-dasharray:none;stroke-opacity:1;filter:url(#filter4375-4-1-1-1-9-5-8-3-8)"
       x="787.65729"
       y="1584.5073"
       id="text4580-6-0-8-8"
       transform="matrix(1.5492299,-0.0813593,-0.87667877,1.9075458,1570.733,-1836.1775)"><tspan
         sodipodi:role="line"
         id="tspan4582-1-1-8-2"
         x="787.65729"
         y="1584.5073"
         style="font-style:normal;font-variant:normal;font-weight:bold;font-stretch:normal;font-size:70px;line-height:1.25;font-family:'Noto Sans';-inkscape-font-specification:'Noto Sans Bold';letter-spacing:5.87610865px;fill:#ffffff;fill-opacity:1;stroke:#000000;stroke-width:0.48148537;stroke-opacity:1"><tspan
           style="font-style:normal;font-variant:normal;font-weight:bold;font-stretch:normal;font-size:93.14950562px;font-family:'Noto Sans';-inkscape-font-specification:'Noto Sans Bold';letter-spacing:5.87610865px;fill:#ffffff;fill-opacity:1;stroke:#000000;stroke-width:0.48148537;stroke-opacity:1"
           id="tspan4315-8-97-3">BR<tspan
   style="font-style:normal;font-variant:normal;font-weight:bold;font-stretch:normal;font-size:81.11493683px;font-family:'Noto Sans';-inkscape-font-specification:'Noto Sans Bold';stroke-width:0.48148537"
   id="tspan912">RAG</tspan></tspan><tspan
           style="font-style:normal;font-variant:normal;font-weight:bold;font-stretch:normal;font-size:114.73223114px;font-family:'Noto Sans';-inkscape-font-specification:'Noto Sans Bold';letter-spacing:5.87610865px;fill:#ffffff;fill-opacity:1;stroke:#000000;stroke-width:0.48148537;stroke-opacity:1"
           id="tspan4313-2-76-0">!</tspan></tspan></text>
    <text
       xml:space="preserve"
       style="font-style:normal;font-variant:normal;font-weight:normal;font-stretch:normal;line-height:0%;font-family:Lavi;-inkscape-font-specification:Lavi;letter-spacing:0px;word-spacing:0px;fill:#000000;fill-opacity:1;stroke:#ffffff;stroke-width:4.21925974;stroke-miterlimit:4;stroke-dasharray:none;stroke-opacity:1;filter:url(#filter4375-4-1-1-1-9-0-5)"
       x="787.65729"
       y="1584.5073"
       id="text4580-25-2"
       transform="matrix(0.37191843,0.11061463,-0.38324889,0.61702867,2371.8774,1301.4149)"><tspan
         sodipodi:role="line"
         id="tspan4582-4-7"
         x="787.65729"
         y="1584.5073"
         style="font-style:normal;font-variant:normal;font-weight:bold;font-stretch:normal;font-size:80.40014648px;line-height:100%;font-family:'Noto Sans';-inkscape-font-specification:'Noto Sans Bold';letter-spacing:4.88345098px;fill:#ffffff;stroke:#ffffff;stroke-width:4.21925974;stroke-miterlimit:4;stroke-dasharray:none;stroke-opacity:1">TIUD!</tspan></text>
    <text
       xml:space="preserve"
       style="font-style:normal;font-variant:normal;font-weight:normal;font-stretch:normal;font-size:15.89058971px;line-height:0%;font-family:Lavi;-inkscape-font-specification:Lavi;text-align:center;letter-spacing:0px;word-spacing:0px;text-anchor:middle;fill:#000000;fill-opacity:1;stroke:none;stroke-width:1.17751098"
       x="685.59564"
       y="2905.4866"
       id="text4246-1-3-2-8-3-3"
       transform="scale(0.99789912,1.0021053)"><tspan
         sodipodi:role="line"
         style="font-style:normal;font-variant:normal;font-weight:bold;font-stretch:normal;font-size:46.66666794px;line-height:1.25;font-family:Lavi;-inkscape-font-specification:'Lavi Bold';stroke-width:1.17751098"
         x="685.59564"
         y="2905.4866"
         id="tspan829-7-6">An dithis agaibhse!</tspan></text>
    <text
       xml:space="preserve"
       style="font-style:normal;font-variant:normal;font-weight:normal;font-stretch:normal;font-size:15.89058971px;line-height:0%;font-family:Lavi;-inkscape-font-specification:Lavi;text-align:center;letter-spacing:0px;word-spacing:0px;text-anchor:middle;fill:#000000;fill-opacity:1;stroke:none;stroke-width:1.17751098"
       x="694.1958"
       y="2989.9844"
       id="text4246-1-3-2-8-3-3-7"
       transform="scale(0.99789912,1.0021053)"><tspan
         sodipodi:role="line"
         style="font-style:normal;font-variant:normal;font-weight:bold;font-stretch:normal;font-size:46.66666794px;line-height:1.25;font-family:Lavi;-inkscape-font-specification:'Lavi Bold';stroke-width:1.17751098"
         x="694.1958"
         y="2989.9844"
         id="tspan829-7-6-5">AN-SEO!</tspan></text>
    <text
       xml:space="preserve"
       style="font-style:normal;font-variant:normal;font-weight:normal;font-stretch:normal;font-size:15.89058971px;line-height:0%;font-family:Lavi;-inkscape-font-specification:Lavi;text-align:center;letter-spacing:0px;word-spacing:0px;text-anchor:middle;fill:#000000;fill-opacity:1;stroke:none;stroke-width:1.17751098"
       x="713.04907"
       y="3068.9546"
       id="text4246-1-3-2-8-36-2"
       transform="scale(0.99789912,1.0021053)"><tspan
         sodipodi:role="line"
         style="font-style:normal;font-variant:normal;font-weight:bold;font-stretch:normal;font-size:46.66666794px;line-height:1.25;font-family:Lavi;-inkscape-font-specification:'Lavi Bold';stroke-width:1.17751098"
         x="713.04907"
         y="3068.9546"
         id="tspan1020-8">Gun dàil!</tspan></text>
  </g>
</svg>
