<?xml version="1.0" encoding="UTF-8" standalone="no"?>
<!-- Created with Inkscape (http://www.inkscape.org/) -->

<svg
   xmlns:dc="http://purl.org/dc/elements/1.1/"
   xmlns:cc="http://creativecommons.org/ns#"
   xmlns:rdf="http://www.w3.org/1999/02/22-rdf-syntax-ns#"
   xmlns:svg="http://www.w3.org/2000/svg"
   xmlns="http://www.w3.org/2000/svg"
   xmlns:xlink="http://www.w3.org/1999/xlink"
   xmlns:sodipodi="http://sodipodi.sourceforge.net/DTD/sodipodi-0.dtd"
   xmlns:inkscape="http://www.inkscape.org/namespaces/inkscape"
   id="svg2"
   version="1.1"
   inkscape:version="0.92.3 (2405546, 2018-03-11)"
   width="2481"
   height="3503"
   sodipodi:docname="E23P05.svg">
  <metadata
     id="metadata8">
    <rdf:RDF>
      <cc:Work
         rdf:about="">
        <dc:format>image/svg+xml</dc:format>
        <dc:type
           rdf:resource="http://purl.org/dc/dcmitype/StillImage" />
        <dc:title />
      </cc:Work>
    </rdf:RDF>
  </metadata>
  <defs
     id="defs6" />
  <sodipodi:namedview
     pagecolor="#ffffff"
     bordercolor="#666666"
     borderopacity="1"
     objecttolerance="10"
     gridtolerance="10"
     guidetolerance="10"
     inkscape:pageopacity="0"
     inkscape:pageshadow="2"
     inkscape:window-width="1920"
     inkscape:window-height="1022"
     id="namedview4"
     showgrid="false"
     inkscape:zoom="0.526013"
     inkscape:cx="1035.131"
     inkscape:cy="1526.6422"
     inkscape:window-x="0"
     inkscape:window-y="0"
     inkscape:window-maximized="1"
     inkscape:current-layer="layer3"
     inkscape:document-rotation="0"
     inkscape:snap-global="false" />
  <g
     inkscape:groupmode="layer"
     id="layer2"
     inkscape:label="artwork"
     sodipodi:insensitive="true">
    <image
       xlink:href="../gfx_Pepper-and-Carrot_by-David-Revoy_E23P05.png"
       y="0"
       x="0"
       id="image10"
       height="3503"
       width="2481" />
  </g>
  <g
     inkscape:groupmode="layer"
     id="layer3"
     inkscape:label="speechbubbles"
     style="display:inline">
    <path
       style="color:#000000;display:inline;overflow:visible;visibility:visible;fill:#ffffff;fill-opacity:1;fill-rule:nonzero;stroke:none;stroke-width:1.03663051px;marker:none;enable-background:accumulate"
       d="M 212.88572,505.21827 C 110.96021,492.2756 79.892206,440.86746 80.060207,349.91321 80.216894,265.08427 72.635432,105.02684 99.803229,91.405594 126.8113,77.864432 201.83212,72.931049 300.11868,73.619376 389.54317,74.24564 555.60313,39.084165 611.22491,201.97218 c 27.13586,79.46723 19.37863,218.76535 -96.59821,280.05938 -112.58939,59.50375 -301.74098,23.18671 -301.74098,23.18671 z"
       id="path3970"
       inkscape:connector-curvature="0"
       sodipodi:nodetypes="csssssc" />
    <path
       style="fill:#ffffff;fill-rule:evenodd;stroke:none;stroke-width:1px;stroke-linecap:butt;stroke-linejoin:miter;stroke-opacity:1"
       d="M 599.21792,533.82095 C 484.89991,597.88304 333.06159,471.02228 324.3431,421.59379 c -8.7185,-49.42848 29.27876,-67.41517 29.27876,-67.41517 l 26.59028,22.09505 c 0,0 -15.9022,-8.60358 -7.84832,36.35392 8.05389,44.9575 112.77168,159.17272 226.8541,121.19336 z"
       id="path4367"
       inkscape:connector-curvature="0"
       sodipodi:nodetypes="csccsc" />
    <path
       style="fill:#ffffff;stroke:none;stroke-width:1"
       d="m 1195.5596,1197.6515 c -1.493,-53.5831 55.755,-69.8942 95.9768,-76.7349 40.2222,-6.8406 173.4601,1.1985 164.4739,66.5799 -8.9861,65.3816 -100.6614,72.1725 -150.6711,68.408 -50.0097,-3.7645 -102.3682,-7.3775 -109.7796,-58.253 z"
       id="path3938"
       inkscape:connector-curvature="0"
       sodipodi:nodetypes="csssc" />
    <path
       style="fill:#ffffff;fill-rule:evenodd;stroke:none;stroke-width:1px;stroke-linecap:butt;stroke-linejoin:miter;stroke-opacity:1"
       d="m 1319.9169,1430.5563 c -79.6639,-37.1698 -55.9039,-129.7638 14.1457,-180.8499 70.0496,-51.086 29.4921,-47.0022 29.4921,-47.0022 0,0 -17.1327,-11.2383 -67.0329,47.9216 -49.9003,59.16 -82.7104,161.2474 23.3951,179.9305 z"
       id="path4375"
       inkscape:connector-curvature="0"
       sodipodi:nodetypes="cscsc" />
    <path
       style="fill:#ffffff;fill-opacity:1;stroke:none;stroke-width:1.09609663"
       d="m 1675.8741,1203.6062 c 6.3279,-79.01 52.9454,-120.8364 69.1453,-126.157 45.2664,-14.867 524.1694,-29.5687 570.0913,26.0678 28.086,34.0274 93.4126,181.8391 -17.8026,276.3688 -60.7371,51.6247 -499.1583,35.9316 -549.1228,0.5419 -52.1115,-36.9104 -82.6075,-86.3943 -72.3112,-176.8215 z"
       id="path3659"
       inkscape:connector-curvature="0"
       sodipodi:nodetypes="cssssc" />
    <path
       style="fill:#ffffff;fill-rule:evenodd;stroke:none;stroke-width:1px;stroke-linecap:butt;stroke-linejoin:miter;stroke-opacity:1"
       d="m 1756.031,1518.1378 c 24.2675,-5.1738 2.3375,-12.1848 -4.0584,-24.266 -6.3959,-12.0811 -8.0227,-26.9013 9.033,-30.4546 17.0557,-3.5532 50.4566,10.6599 50.4566,10.6599 0,0 -21.3197,-32.6902 -9.2386,-41.9287 12.0812,-9.2385 54.7206,6.3959 54.7206,6.3959 0,0 -16.3452,-45.482 19.8983,-63.2484 36.2435,-17.7664 81.7255,6.3959 55.4312,15.6344 -26.2943,9.2386 -84.5681,7.1066 -44.7713,77.4615 -62.5378,-29.8475 -60.4058,-23.4516 -64.6697,-19.1877 -4.264,4.264 9.2385,41.9287 14.2131,53.2992 -17.0558,-10.6598 -66.8017,-36.9541 -74.6189,-22.741 -7.8172,14.2132 12.0812,25.5837 11.3705,32.6902 -0.7107,7.1066 -17.7664,5.6853 -17.7664,5.6853 z"
       id="path4394"
       inkscape:connector-curvature="0"
       sodipodi:nodetypes="csscscsscscssc" />
    <path
       style="fill:#ffffff;fill-rule:evenodd;stroke:none;stroke-width:1.04984045px;stroke-linecap:butt;stroke-linejoin:miter;stroke-opacity:1"
       d="m 1859.6923,1620.8402 c 22.6815,-39.5623 224.085,-66.9709 332.0746,-26.7747 44.3194,23.1313 101.3195,93.7354 59.2292,150.8316 -56.3406,34.9512 -124.644,21.5157 -185.7545,37.5135 -70.5669,6.9159 -133.9542,11.6548 -201.617,-18.8518 -47.7652,-34.9425 -30.8468,-103.2665 -3.9323,-142.7186 z"
       id="path4405"
       inkscape:connector-curvature="0"
       sodipodi:nodetypes="cccccc" />
    <path
       style="fill:#ffffff;fill-rule:evenodd;stroke:none;stroke-width:1px;stroke-linecap:butt;stroke-linejoin:miter;stroke-opacity:1"
       d="m 1740.9267,1594.1797 c 19.7367,-19.7367 46.0523,-32.8945 56.3906,-21.6163 10.3382,11.2781 2.8195,39.4733 2.8195,39.4733 0,0 42.2929,-21.6163 90.2249,34.7742 47.932,56.3906 17.857,52.6312 17.857,52.6312 0,0 -10.3383,-3.7594 -34.7742,-32.8945 -24.4359,-29.1351 -45.1124,-46.9921 -72.3679,-35.714 -9.3984,3.7594 -19.7367,-1.8797 -16.9171,-9.3984 12.2179,-30.075 15.9773,-64.8492 -43.2328,-27.2555 z"
       id="path4419"
       inkscape:connector-curvature="0" />
    <path
       style="fill:#ffffff;fill-rule:evenodd;stroke:none;stroke-width:1.06392848px;stroke-linecap:butt;stroke-linejoin:miter;stroke-opacity:1"
       d="m 2241.6004,1745.6006 c 66.4083,10.8082 87.7939,43.0076 111.4308,81.0615 16.7602,26.983 23.6053,74.8123 -6.6803,116.6581 -27.3919,37.8479 -87.907,35.9285 -129.7294,42.5356 -63.0677,9.9635 -156.0127,3.9263 -205.7613,-2.475 -46.5884,-5.9947 -94.5471,-11.889 -112.5561,-44.3136 -18.009,-32.4245 -23.7879,-92.9504 -17.0344,-110.2435 6.7533,-17.2931 40.6713,-68.0916 58.6803,-72.4149 18.0089,-4.3233 292.646,-10.8082 292.646,-10.8082 z"
       id="path4423"
       inkscape:connector-curvature="0"
       sodipodi:nodetypes="cssssssscc" />
    <path
       style="color:#000000;display:inline;overflow:visible;visibility:visible;fill:#ffffff;fill-opacity:1;fill-rule:nonzero;stroke:none;stroke-width:1px;marker:none;enable-background:accumulate"
       d="m 288.9194,2251.5789 c -6.33717,-33.0758 10.56191,-120.9334 140.4743,-113.698 129.91227,7.2352 151.03632,48.58 154.20485,60.9834 3.16865,12.4034 30.62976,82.6895 -70.76519,101.2947 -101.39507,18.6052 -192.228,-1.0337 -223.91396,-48.5801 z"
       id="path3525"
       inkscape:connector-curvature="0" />
    <path
       style="color:#000000;display:inline;overflow:visible;visibility:visible;fill:#ffffff;fill-opacity:1;fill-rule:nonzero;stroke:none;stroke-width:0.94026083px;marker:none;enable-background:accumulate"
       d="m 157.11296,2518.2536 c -4.06445,-94.361 -41.52871,-235.2953 199.89706,-239.2107 198.01199,-3.2113 432.26165,-33.7027 431.7444,210.1832 -0.35591,167.8155 -181.89396,167.2515 -277.87777,170.4482 -204.96591,6.8263 -350.60373,-18.9015 -353.76369,-141.4207 z"
       id="path3525-0"
       inkscape:connector-curvature="0"
       sodipodi:nodetypes="csssc" />
    <path
       style="fill:#ffffff;fill-rule:evenodd;stroke:none;stroke-width:1px;stroke-linecap:butt;stroke-linejoin:miter;stroke-opacity:1"
       d="m 742.60914,2350.2751 c 102.97849,-126.0799 251.45982,-276.6361 847.08866,1.322 C 1049.11,2056.78 875.57765,2160.7347 719.24197,2320.9166 c -175.12871,179.4373 23.36717,29.3585 23.36717,29.3585 z"
       id="path4446"
       inkscape:connector-curvature="0"
       sodipodi:nodetypes="ccsc" />
  </g>
  <g
     inkscape:groupmode="layer"
     id="layer1"
     inkscape:label="txt">
    <text
       xml:space="preserve"
       style="font-style:normal;font-variant:normal;font-weight:normal;font-stretch:normal;line-height:0%;font-family:Lavi;-inkscape-font-specification:Lavi;text-align:center;letter-spacing:0px;word-spacing:0px;text-anchor:middle;fill:#000000;fill-opacity:1;stroke:none"
       x="339.50504"
       y="176.9312"
       id="text4246"><tspan
         sodipodi:role="line"
         style="font-size:45px;line-height:1.25"
         x="346.53629"
         y="176.9312"
         id="tspan68">Chan eil a dhìth ach </tspan><tspan
         sodipodi:role="line"
         style="font-size:45px;line-height:1.25"
         x="346.53629"
         y="233.1812"
         id="tspan84">ainm-sgrìobhte beag </tspan><tspan
         sodipodi:role="line"
         style="font-size:45px;line-height:1.25"
         x="346.53629"
         y="289.43121"
         id="tspan96">bìodach aig bonn na </tspan><tspan
         sodipodi:role="line"
         style="font-size:45px;line-height:1.25"
         x="346.53629"
         y="345.68121"
         id="tspan86">sgrìobhainne seo agus </tspan><tspan
         sodipodi:role="line"
         style="font-size:45px;line-height:1.25"
         x="346.53629"
         y="401.93121"
         id="tspan88">fosglaidh doras </tspan><tspan
         sodipodi:role="line"
         style="font-size:45px;line-height:1.25"
         x="339.50504"
         y="458.18121"
         id="tspan107">a’ chliùtha dhuibh!</tspan></text>
    <text
       xml:space="preserve"
       style="font-style:normal;font-variant:normal;font-weight:normal;font-stretch:normal;line-height:0%;font-family:Lavi;-inkscape-font-specification:Lavi;text-align:center;letter-spacing:0px;word-spacing:0px;text-anchor:middle;fill:#000000;fill-opacity:1;stroke:none"
       x="1325.9771"
       y="1175.2607"
       id="text4246-3"><tspan
         sodipodi:role="line"
         style="font-size:45px;line-height:1.25"
         x="1333.0083"
         y="1175.2607"
         id="tspan78">Fuirich </tspan><tspan
         sodipodi:role="line"
         style="font-size:45px;line-height:1.25"
         x="1325.9771"
         y="1231.5107"
         id="tspan111">diog.</tspan></text>
    <text
       xml:space="preserve"
       style="font-style:normal;font-variant:normal;font-weight:normal;font-stretch:normal;line-height:0%;font-family:Lavi;-inkscape-font-specification:Lavi;text-align:center;letter-spacing:0px;word-spacing:0px;text-anchor:middle;fill:#000000;fill-opacity:1;stroke:none"
       x="2049.8047"
       y="1650.8641"
       id="text4246-3-6"><tspan
         sodipodi:role="line"
         style="font-size:45px;line-height:1.25"
         x="2049.8047"
         y="1650.8641"
         id="tspan4225">Dè tha air cùl an</tspan><tspan
         sodipodi:role="line"
         style="font-size:45px;line-height:1.25"
         x="2056.8359"
         y="1707.1141"
         id="tspan4263"><tspan
   style="font-style:italic;font-variant:normal;font-weight:normal;font-stretch:normal;font-family:Lavi;-inkscape-font-specification:'Lavi Italic'"
   id="tspan4265">Deus ex machina</tspan>  </tspan><tspan
         sodipodi:role="line"
         style="font-size:45px;line-height:1.25"
         x="2049.8047"
         y="1763.3641"
         id="tspan153">a tha seo?!</tspan></text>
    <text
       xml:space="preserve"
       style="font-style:normal;font-variant:normal;font-weight:normal;font-stretch:normal;line-height:0%;font-family:Lavi;-inkscape-font-specification:Lavi;text-align:center;letter-spacing:0px;word-spacing:0px;text-anchor:middle;fill:#000000;fill-opacity:1;stroke:none"
       x="2017.913"
       y="1126.9019"
       id="text4246-3-6-1"><tspan
         sodipodi:role="line"
         style="font-size:45px;line-height:1.25"
         x="2024.9442"
         y="1126.9019"
         id="tspan99">An ann air an dearbh uair </tspan><tspan
         sodipodi:role="line"
         style="font-size:45px;line-height:1.25"
         x="2024.9442"
         y="1183.1519"
         id="tspan127">a bhios an lionn-dubh orm gu </tspan><tspan
         sodipodi:role="line"
         style="font-size:45px;line-height:1.25"
         x="2024.9442"
         y="1239.4019"
         id="tspan129">dona gun tuit thu às na speuran </tspan><tspan
         sodipodi:role="line"
         style="font-size:45px;line-height:1.25"
         x="2024.9442"
         y="1295.6519"
         id="tspan131">le fuasgladh mìorbhaileach air </tspan><tspan
         sodipodi:role="line"
         style="font-size:45px;line-height:1.25"
         x="2017.913"
         y="1351.9019"
         id="tspan139">na duilgheadasan agam uile?!</tspan></text>
    <text
       xml:space="preserve"
       style="font-style:normal;font-variant:normal;font-weight:normal;font-stretch:normal;line-height:0%;font-family:Lavi;-inkscape-font-specification:Lavi;text-align:center;letter-spacing:0px;word-spacing:0px;text-anchor:middle;fill:#000000;fill-opacity:1;stroke:none"
       x="2124.7385"
       y="1831.4176"
       id="text4246-3-6-3"><tspan
         sodipodi:role="line"
         style="font-size:45px;line-height:1.25"
         x="2131.7698"
         y="1831.4176"
         id="tspan162">Dhomhsa dheth, tha </tspan><tspan
         sodipodi:role="line"
         style="font-size:45px;line-height:1.25"
         x="2131.7698"
         y="1887.6676"
         id="tspan166">coltas amharasach air; </tspan><tspan
         sodipodi:role="line"
         style="font-size:45px;line-height:1.25"
         x="2124.7385"
         y="1943.9176"
         id="tspan160">glè amharasach!</tspan></text>
    <text
       xml:space="preserve"
       style="font-style:normal;font-variant:normal;font-weight:normal;font-stretch:normal;line-height:0%;font-family:Lavi;-inkscape-font-specification:Lavi;text-align:center;letter-spacing:0px;word-spacing:0px;text-anchor:middle;fill:#000000;fill-opacity:1;stroke:none"
       x="439.63583"
       y="2202.2944"
       id="text4246-3-6-3-2"><tspan
         sodipodi:role="line"
         style="font-size:45px;line-height:1.25"
         x="446.66708"
         y="2202.2944"
         id="tspan4326">Trobhad, </tspan><tspan
         sodipodi:role="line"
         style="font-size:45px;line-height:1.25"
         x="439.63583"
         y="2258.5444"
         id="tspan170">a Churrain.</tspan></text>
    <text
       xml:space="preserve"
       style="font-style:normal;font-variant:normal;font-weight:normal;font-stretch:normal;line-height:0%;font-family:Lavi;-inkscape-font-specification:Lavi;text-align:center;letter-spacing:0px;word-spacing:0px;text-anchor:middle;fill:#000000;fill-opacity:1;stroke:none"
       x="463.76996"
       y="2373.7214"
       id="text4246-3-6-3-2-7"><tspan
         sodipodi:role="line"
         style="font-size:45px;line-height:1.25"
         x="470.80121"
         y="2373.7214"
         id="tspan866">’S dòcha gun obraicheadh </tspan><tspan
         sodipodi:role="line"
         style="font-size:45px;line-height:1.25"
         x="470.80121"
         y="2429.9714"
         id="tspan190">a leithid a char seo oirnn uair </tspan><tspan
         sodipodi:role="line"
         style="font-size:45px;line-height:1.25"
         x="470.80121"
         y="2486.2214"
         id="tspan200">ach chan eil sinn cho gòrach </tspan><tspan
         sodipodi:role="line"
         style="font-size:45px;line-height:1.25"
         x="470.80121"
         y="2542.4714"
         id="tspan188">tuilleadh ’s gun gabhadh ar </tspan><tspan
         sodipodi:role="line"
         style="font-size:45px;line-height:1.25"
         x="463.76996"
         y="2598.7214"
         id="tspan186">mealladh leis an fhoill seo.</tspan></text>
  </g>
</svg>
