<?xml version="1.0" encoding="UTF-8" standalone="no"?>
<svg
   xmlns:dc="http://purl.org/dc/elements/1.1/"
   xmlns:cc="http://creativecommons.org/ns#"
   xmlns:rdf="http://www.w3.org/1999/02/22-rdf-syntax-ns#"
   xmlns:svg="http://www.w3.org/2000/svg"
   xmlns="http://www.w3.org/2000/svg"
   xmlns:xlink="http://www.w3.org/1999/xlink"
   xmlns:sodipodi="http://sodipodi.sourceforge.net/DTD/sodipodi-0.dtd"
   xmlns:inkscape="http://www.inkscape.org/namespaces/inkscape"
   id="svg2"
   version="1.1"
   inkscape:version="1.0 (4035a4fb49, 2020-05-01)"
   width="2481"
   height="3503"
   sodipodi:docname="E32P05.svg">
  <metadata
     id="metadata8">
    <rdf:RDF>
      <cc:Work
         rdf:about="">
        <dc:format>image/svg+xml</dc:format>
        <dc:type
           rdf:resource="http://purl.org/dc/dcmitype/StillImage" />
        <dc:title />
      </cc:Work>
    </rdf:RDF>
  </metadata>
  <defs
     id="defs6">
    <filter
       style="color-interpolation-filters:sRGB"
       id="filter4375-4-1-1-1-9-6-9-2-1-7-1"
       inkscape:label="deevad outline effect">
      <feFlood
         id="feFlood4377-7-9-0-8-1-0-2-2-06-3-9"
         flood-opacity="1"
         flood-color="rgb(0,0,0)"
         result="flood" />
      <feComposite
         id="feComposite4379-3-8-8-2-77-6-0-8-3-6-4"
         in2="SourceGraphic"
         in="flood"
         operator="in"
         result="composite1" />
      <feMorphology
         id="feMorphology4393-1-0-49-8-9-2-2-9-2-1-7"
         operator="dilate"
         radius="4"
         result="result3" />
      <feComposite
         id="feComposite4385-9-5-7-0-8-6-3-7-0-2-8"
         in2="result3"
         in="SourceGraphic"
         operator="over"
         result="composite2" />
    </filter>
    <filter
       style="color-interpolation-filters:sRGB"
       id="filter4375-4-1-1-1-9-6-9-2-1-7-1-2"
       inkscape:label="deevad outline effect">
      <feFlood
         id="feFlood4377-7-9-0-8-1-0-2-2-06-3-9-7"
         flood-opacity="1"
         flood-color="rgb(0,0,0)"
         result="flood" />
      <feComposite
         id="feComposite4379-3-8-8-2-77-6-0-8-3-6-4-0"
         in2="SourceGraphic"
         in="flood"
         operator="in"
         result="composite1" />
      <feMorphology
         id="feMorphology4393-1-0-49-8-9-2-2-9-2-1-7-9"
         operator="dilate"
         radius="4"
         result="result3" />
      <feComposite
         id="feComposite4385-9-5-7-0-8-6-3-7-0-2-8-3"
         in2="result3"
         in="SourceGraphic"
         operator="over"
         result="composite2" />
    </filter>
    <filter
       style="color-interpolation-filters:sRGB"
       id="filter4375-4-1-1-1-9"
       inkscape:label="deevad outline effect">
      <feFlood
         id="feFlood4377-7-9-0-8-1"
         flood-opacity="1"
         flood-color="rgb(0,0,0)"
         result="flood" />
      <feComposite
         id="feComposite4379-3-8-8-2-77"
         in2="SourceGraphic"
         in="flood"
         operator="in"
         result="composite1" />
      <feMorphology
         id="feMorphology4393-1-0-49-8-9"
         operator="dilate"
         radius="4"
         result="result3" />
      <feComposite
         id="feComposite4385-9-5-7-0-8"
         in2="result3"
         in="SourceGraphic"
         operator="over"
         result="composite2" />
    </filter>
    <filter
       inkscape:collect="always"
       style="color-interpolation-filters:sRGB"
       id="filter1101"
       x="-0.12972304"
       width="1.2594461"
       y="-0.36928496"
       height="1.7385699">
      <feGaussianBlur
         inkscape:collect="always"
         stdDeviation="22.559027"
         id="feGaussianBlur1103" />
    </filter>
  </defs>
  <sodipodi:namedview
     pagecolor="#ffffff"
     bordercolor="#666666"
     borderopacity="1"
     objecttolerance="10"
     gridtolerance="10"
     guidetolerance="10"
     inkscape:pageopacity="0"
     inkscape:pageshadow="2"
     inkscape:window-width="2560"
     inkscape:window-height="1381"
     id="namedview4"
     showgrid="false"
     inkscape:zoom="0.39361862"
     inkscape:cx="1245.4542"
     inkscape:cy="692.36873"
     inkscape:window-x="0"
     inkscape:window-y="32"
     inkscape:window-maximized="1"
     inkscape:current-layer="layer1"
     inkscape:snap-global="false"
     inkscape:document-rotation="0" />
  <g
     inkscape:groupmode="layer"
     id="layer2"
     inkscape:label="artwork"
     sodipodi:insensitive="true">
    <image
       sodipodi:absref="C:\Users\stero\Documents\Kernewek\Pepper and Carrot\webcomics\ep32_The-Battlefield\lang\gfx_Pepper-and-Carrot_by-David-Revoy_E32P05.png"
       xlink:href="../gfx_Pepper-and-Carrot_by-David-Revoy_E32P05.png"
       y="0"
       x="0"
       id="image10"
       height="3503"
       width="2481" />
  </g>
  <g
     inkscape:groupmode="layer"
     id="layer3"
     inkscape:label="speechbubbles"
     style="display:inline">
    <path
       style="display:inline;fill:#ffffff;fill-rule:evenodd;stroke:none;stroke-width:0.926381px;stroke-linecap:butt;stroke-linejoin:miter;stroke-opacity:1"
       d="m 1188.1117,1461.4403 c -0.8263,11.0669 -0.271,22.8279 -4.7331,32.9568 -5.8376,11.0583 -16.9071,16.8116 -27.5938,17.2891 -10.0762,0.5482 -20.221,-1.3533 -29.7182,-5.3793 -2.7766,1.8989 -2.0732,6.9217 0.2462,8.9193 5.4228,9.3731 10.8619,19.6602 11.2142,31.3885 0.6332,8.1083 -2.5967,17.2545 -9.2008,20.4825 -4.998,2.584 -10.5746,2.0404 -15.8745,1.7039 1.4103,3.2591 4.2932,5.0437 6.0896,7.9511 3.7802,4.5954 7.5357,10.5681 6.8233,17.3796 -1.0379,9.3423 -7.6513,16.7667 -15.1059,19.0969 -2.8007,1.7154 -5.6015,3.4308 -8.4022,5.1462 13.8281,-0.8248 28.0139,-2.7461 41.5623,1.7421 7.6075,3.3924 9.6266,17.1472 3.4572,23.4328 -4.6203,6.426 -10.3893,11.4366 -15.6916,17.0033 19.8556,-3.4681 39.6859,-9.4649 59.9005,-7.8603 5.4737,0.3899 11.3076,1.4759 15.5606,5.9703 3.5413,3.3468 6.3462,7.7518 8.222,12.6435 6.3168,2.6383 12.8996,-0.3578 18.9543,-2.5955 13.9484,-5.4993 27.3501,-13.1428 41.8213,-16.6241 3.045,0.7876 5.5896,3.5876 6.6939,7.0281 6.8013,2.2667 13.5631,-1.3245 20.1903,-2.7884 5.2952,-1.3613 10.6338,-2.8013 16.0785,-2.8332 2.63,3.6792 6.1491,7.5624 10.5289,6.9802 13.0921,0.8444 26.604,-0.6674 39.2291,4.4304 7.8521,4.1662 13.9727,12.016 18.1125,20.8596 13.4144,-9.0929 24.9317,-22.2995 39.741,-28.3276 10.1801,-4.3875 22.6474,-2.7285 30.7187,6.3231 2.2759,2.5548 4.236,5.4724 6.0919,8.4619 5.917,-5.2399 10.9895,-12.6411 18.4825,-14.6764 10.9077,-4.0415 22.4918,-1.6761 33.4083,1.0292 9.6575,2.1855 19.2554,4.7331 28.8025,7.5218 -5.1894,-5.2375 -9.5364,-12.6631 -9.5412,-21.0486 1.3927,-6.8016 7.3138,-11.788 13.1591,-11.0596 -1.6723,-4.3237 -2.4557,-10.2747 0.6761,-13.9562 4.972,-5.6902 12.1921,-6.6063 18.7291,-7.3718 1.726,-0.275 3.4519,-0.5499 5.1778,-0.8248 -11.5803,-7.6832 -14.7488,-28.5255 -6.1073,-40.525 5.6829,-7.1629 12.7555,-12.48 19.9957,-17.1178 -10.3918,-0.685 -20.9291,2.3151 -31.204,-0.5907 -5.7377,-4.339 -8.1276,-12.3686 -12.4754,-18.2466 -2.4085,-5.8657 0.068,-13.1519 4.3734,-16.7158 9.2876,-11.1564 18.1727,-22.8979 25.4061,-36.0832 4.1982,-7.2684 8.0626,-14.8019 11.7851,-22.4268 -12.2889,19.9051 -29.4419,36.1748 -49.5265,43.1565 -6.6617,2.4912 -13.5082,5.6184 -20.6179,4.6335 -3.5459,-1.9889 -6.5645,-6.06 -10.7726,-5.7994 -7.4927,3.3941 -14.9854,6.7883 -22.4782,10.1825 -2.2091,-2.0486 -3.8603,-4.9397 -4.6322,-8.148 -7.2265,0.4156 -14.7187,-1.1114 -20.9485,-5.677 -3.0853,-6.0152 -3.5121,-13.7705 -1.2761,-20.2744 -10.0794,8.5893 -18.7987,19.1468 -28.2176,28.6891 -9.6103,-2.2179 -17.5465,-10.9176 -27.5811,-11.1169 -27.0725,-2.7061 -54.3057,-5.5036 -81.4701,-3.1025 -13.1264,2.4798 -26.3533,7.0203 -39.7447,4.7375 -13.1117,-1.6201 -26.5617,-4.4887 -39.6039,-0.6959 -6.523,1.8164 -13.968,2.774 -19.9318,-1.6559 -9.5089,-6.5361 -15.5407,-17.8313 -22.6091,-27.4588 -1.9423,-2.8071 -3.9381,-5.5611 -5.9665,-8.2802 -0.069,0.7071 -0.1381,1.4142 -0.2072,2.1214 z"
       id="path4508-9"
       inkscape:connector-curvature="0"
       sodipodi:nodetypes="cccccccccccccccccccccccccccccccccccccccccccccccccccc" />
    <path
       style="display:inline;fill:#ffffff;fill-rule:evenodd;stroke:none;stroke-width:1px;stroke-linecap:butt;stroke-linejoin:miter;stroke-opacity:1"
       d="m 1233.6858,1551.6001 c -0.6088,14.9763 -3.2662,30.4744 -11.6602,43.1992 -14.8841,9.9032 -36.2507,8.0436 -49.4355,-3.9336 -3.5264,1.0549 -2.8555,5.9619 -0.6573,7.9977 4.5653,13.7745 9.2425,27.5385 12.6592,41.6546 -4.4891,4.279 -12.8509,2.8847 -15.7109,-2.6171 1.3669,8.6577 9.0993,15.0735 9.2832,24.0527 -3.2425,6.8509 -9.0513,8.5402 -20.1223,10.7721 5.3124,6.4634 11.6281,13.6119 11.1957,22.5472 -0.3631,10.3506 -8.9731,18.5756 -18.2792,21.838 -1.2231,0.4177 -0.6879,1.3365 0.4206,1.0804 16.2988,2.5904 33.591,0.1279 49.0566,6.9673 11.0238,3.8318 20.4902,14.403 20.0294,26.5313 -0.1822,2.4172 -1.2404,4.6955 -1.2637,7.1289 9.9847,-3.685 19.8226,-8.7143 30.6621,-9.1211 4.3073,2.217 5.2329,8.9238 1.6113,12.1739 12.3713,-0.8761 21.0186,-12.6591 33.6085,-12.661 4.0678,-0.2209 7.9048,3.728 7.103,7.7668 1.9073,2.4778 5.7142,-3.4752 8.2321,-3.6732 7.151,-1.7096 6.0308,-2.3202 13.4965,-2.6628 2.6649,1.0566 6.0435,1.9214 9.2006,6.7575 5.2846,-1.6599 7.7002,-3.2964 11.075,-3.2618 10.9369,-1.9429 17.8423,-9.5681 33.1827,-4.0373 10.2139,2.6901 15.3882,11.4501 21.1071,16.5363 3.213,-4.9904 7.0279,-8.3773 10.3381,-11.6886 5.9591,-9.0484 17.0554,-11.7554 27.6095,-13.0204 9.0423,-2.4924 18.3923,1.1364 27.5402,4.914 5.5929,2.837 10.5635,6.8716 16.5087,9.009 4.6597,-2.9935 9.7234,-7.6176 15.7098,-5.8788 6.1907,1.2629 11.6117,4.7237 17.5988,6.6014 -3.5224,-5.2749 -9.0263,-9.9378 -9.4063,-16.6953 2.3004,-4.1426 7.1099,-5.7219 11.4043,-6.8906 -0.1977,-5.8386 4.5098,-10.7273 9.7383,-12.6035 1.1008,-4.2932 -3.8743,-6.3524 -5.477,-9.6772 -3.9437,-6.1856 -2.2688,-16.333 5.1814,-18.9876 4.2904,-1.6863 9.1455,-1.1902 13.3366,-3.2024 -0.18,-3.6135 -4.6184,-3.559 -7.1933,-4.4551 -7.4747,-2.3525 -15.8691,-5.8666 -19.0964,-13.6003 -1.2904,-4.5717 2.4751,-8.5977 2.5784,-12.9751 -1.8945,-3.1602 -6.5169,-5.5187 -5.3945,-9.8157 2.7605,-12.6493 12.5356,-21.8467 19.4186,-32.3092 10.2942,-14.1637 20.5884,-28.3274 30.8825,-42.4911 -16.8501,16.7767 -33.636,33.8856 -53.2754,47.4531 -4.7205,-0.2747 -7.3913,-6.8783 -4.1894,-10.3574 -7.0666,1.8352 -11.903,7.7663 -18.2207,11.041 -2.5103,-3.2623 -2.1754,-8.188 0.4277,-11.2968 -3.2857,-2.8821 -7.7703,2.6571 -10.8867,-0.7012 -4.1229,-4.4836 -2.1442,-10.9601 -1.2201,-16.2618 1.0696,-5.1539 2.6476,-10.1858 3.7514,-15.332 -10.9786,12.8442 -18.6778,28.756 -32.5542,38.929 -2.3493,1.8328 -5.875,2.7874 -8.3192,0.5686 -2.3184,-1.538 -3.9576,-4.1363 -4.1598,-6.9312 -8.4207,0.8047 -15.8605,7.2402 -24.586,5.5059 -9.1981,-4.4956 -20.1094,-2.5912 -29.0762,1.5215 -8.6501,-0.014 -15.1645,-8.2277 -23.9999,-7.1392 -5.5099,-0.9398 -9.0403,-5.8572 -12.0604,-9.9732 -5.4418,-0.6012 -8.306,5.1911 -12.8891,6.9807 -11.1991,5.829 -25.3025,2.6338 -34.8428,-4.9761 -2.217,-2.1426 -5.4642,-4.8476 -8.624,-2.7953 -3.589,1.7483 -4.9906,6.6255 -9.0775,7.4051 -6.6505,0.772 -12.3358,-5.2245 -13.1622,-11.485 -7.2076,-15.108 -12.8116,-30.9005 -19.0472,-46.4174 -0.02,0.9974 -0.04,1.9948 -0.061,2.9922 z"
       id="path4508-9-6"
       inkscape:connector-curvature="0"
       sodipodi:nodetypes="cccccccccccccccccccccccccccccccccccccccccccccccccccccccccccccccc" />
    <path
       style="color:#000000;display:inline;overflow:visible;visibility:visible;fill:#ffffff;fill-opacity:1;fill-rule:nonzero;stroke:none;stroke-width:0.99999994px;marker:none;enable-background:accumulate"
       d="m 1322.5586,1728.1016 c -11.0094,9.9702 -17.1146,23.8053 -25.197,35.9928 -5.7365,9.1028 -17.9114,24.8135 -26.046,32.2016 7.6812,0.2097 5.7344,0.8326 10.9478,2.0534 3.3706,1.3513 7.7807,2.3941 9.3038,6.0235 -1.4478,7.677 -8.2527,12.4101 -13.2117,17.8317 -21.2393,19.7738 -50.3466,30.4414 -79.2715,30.188 30.5673,5.5836 63.676,0.269 89.5548,-17.4158 15.5847,-11.4657 31.0045,-29.6098 44.4036,-43.4287 -3.8521,-0.6581 -8.7325,-0.5391 -12.6274,-0.7071 -7.2015,-0.9549 -9.1708,-6.0664 -6.2213,-10.4154 3.8653,-10.2383 12.9809,-16.9751 20.7567,-24.1405 4.6114,-3.9349 9.2499,-7.8384 13.8074,-11.8359 -7.5773,-6.8137 -16.4342,-11.9448 -25.0566,-17.289 -0.3809,0.3138 -0.7617,0.6276 -1.1426,0.9414 z"
       id="path5066-6"
       inkscape:connector-curvature="0"
       sodipodi:nodetypes="ccccccccccccccc" />
    <path
       style="color:#000000;display:inline;overflow:visible;visibility:visible;fill:#ffffff;fill-opacity:1;fill-rule:nonzero;stroke:none;stroke-width:1.10508px;marker:none;enable-background:accumulate"
       d="m 1449.0985,388.5026 c -49.285,1.56885 -99.0628,9.04093 -142.7293,26.42932 -17.5999,7.72462 -32.8191,19.97094 -37.0002,35.07399 -1.5721,14.86684 7.8411,29.5407 22.0849,39.81667 14.3936,9.68135 33.7145,13.94957 52.5508,16.32272 65.9985,11.04226 133.8437,15.05977 201.4272,15.05427 40.3985,1.1268 81.2468,1.52522 121.0935,-4.25109 27.1828,-2.77574 54.513,-7.29498 78.8255,-16.97571 19.3341,-7.2199 35.7539,-19.95299 41.2521,-35.62661 3.6155,-11.99215 0.5632,-24.79439 -6.8655,-35.6868 -6.8578,-9.0593 -18.9876,-15.62515 -32.5028,-18.38008 -24.212,-6.23528 -49.8133,-8.50314 -74.9325,-11.8868 -73.8241,-8.17039 -148.6665,-9.72031 -223.2037,-9.88988 z"
       id="path3365-74"
       inkscape:connector-curvature="0"
       sodipodi:nodetypes="csssssc" />
    <path
       style="display:inline;fill:#ffffff;fill-rule:evenodd;stroke:none;stroke-width:1.11105px;stroke-linecap:butt;stroke-linejoin:miter;stroke-opacity:1"
       d="m 1458.7381,124.9505 c -35.9135,0.38599 -72.4701,-1.22989 -107.5607,6.98826 -23.4228,5.52943 -45.2801,19.43318 -55.5678,39.54702 -7.2271,15.81305 -1.2526,34.66567 11.6997,46.63739 7.1734,6.76206 15.1386,13.60859 25.2935,16.42522 9.3786,2.54143 19.2348,0.99986 28.8468,1.29424 17.6362,-0.14066 35.2691,0.44407 52.861,1.51249 69.6948,2.41748 139.4641,1.62733 209.1808,0.57368 22.9977,-0.7183 46.6949,-1.89015 68.0835,-10.24833 13.6727,-5.74789 25.2193,-16.63156 28.4729,-30.14875 4.3923,-14.82251 1.1723,-32.22842 -11.466,-43.13396 -11.819,-10.48285 -27.4313,-16.54769 -42.8957,-21.35899 -20.4294,-5.79725 -42.0772,-6.40673 -63.3246,-6.02763 -27.999,-0.37607 -55.9946,-0.89413 -83.9851,-1.61992 -19.876,-0.44807 -39.7572,-0.48431 -59.6383,-0.44072 z"
       id="path1297"
       inkscape:connector-curvature="0" />
    <path
       style="display:inline;fill:#ffffff;fill-rule:evenodd;stroke:none;stroke-width:1.19px;stroke-linecap:butt;stroke-linejoin:miter;stroke-opacity:1"
       d="m 1594.7951,208.3922 c -59.4535,2.90625 -118.9263,5.31104 -178.3505,9.04805 -15.2519,1.14407 -30.5879,1.66783 -45.6544,5.06232 -17.2843,3.70352 -34.4922,9.37538 -50.1846,19.18383 -13.9091,10.35401 -23.2386,27.34295 -31.9609,43.7399 -4.3674,8.21594 -7.3464,17.67679 -7.4755,27.58007 -0.6404,17.0618 3.4044,33.72647 7.7407,49.73809 3.991,13.54148 10.7386,25.99963 20.1341,34.75128 11.1108,11.05187 23.6673,20.44029 37.5161,25.18917 9.5103,3.29274 19.4529,3.67399 29.2649,3.30492 23.9941,-0.0752 47.9875,0.0585 71.981,0.15715 66.6507,-0.0111 133.4225,0.1066 199.8777,-6.98199 14.0611,-1.55004 28.0855,-5.24959 41.1133,-12.04025 10.7078,-5.44284 19.7494,-14.72657 27.7566,-24.84368 7.4397,-9.62696 13.1722,-21.70253 14.4524,-35.06258 2.4302,-19.09545 0.9422,-38.48758 1.7055,-57.70483 -0.6883,-15.37492 -7.974,-29.30241 -17.6481,-38.65597 -14.3921,-16.05358 -31.8062,-28.6186 -51.0242,-33.26774 -15.0784,-4.07879 -30.4498,-6.26027 -45.7851,-8.26222 -7.8015,-0.78105 -15.633,-1.07373 -23.459,-0.93552 z"
       id="path1299"
       inkscape:connector-curvature="0" />
    <path
       style="display:inline;fill:#ffffff;fill-rule:evenodd;stroke:none;stroke-width:1px;stroke-linecap:butt;stroke-linejoin:miter;stroke-opacity:1"
       d="m 1511.7512,510.3778 c -6.6131,0.47706 -14.4131,0.53134 -19.0606,6.05273 -9.2681,15.84095 -16.7496,33.90699 -15.1611,52.61768 2.1917,20.11622 13.9704,37.89228 28.3815,51.53834 8.5346,8.09616 15.6793,18.09456 18.3938,29.69937 4.3317,16.40289 0.7816,35.11834 -10.8279,47.78415 -2.1207,2.52133 -4.4197,4.88481 -6.7453,7.21593 17.3235,-9.37091 31.4532,-26.25408 34.2349,-46.13162 1.2634,-15.92483 -6.122,-31.08454 -15.4694,-43.50249 -9.5013,-13.2266 -21.135,-25.79068 -25.2403,-41.97989 -3.1205,-17.66298 3.3092,-35.58183 12.9847,-50.18689 1.9316,-3.08666 4.9581,-6.76026 3.4836,-10.5888 -1.0225,-1.66362 -3.0088,-2.74768 -4.9739,-2.51851 z"
       id="path1303"
       inkscape:connector-curvature="0"
       sodipodi:nodetypes="cccccccc" />
    <path
       style="color:#000000;display:inline;overflow:visible;visibility:visible;fill:#ffffff;fill-opacity:1;fill-rule:nonzero;stroke:none;stroke-width:1px;marker:none;filter:url(#filter1101);enable-background:accumulate"
       d="m 2064.5541,245.38398 c -39.6392,1.7245 -79.6747,9.93788 -114.7951,29.05136 -14.1553,8.49097 -26.3959,21.95224 -29.7587,38.55366 -1.2644,16.34177 6.3065,32.47141 17.7626,43.76686 11.5765,10.64183 27.1161,15.33349 42.2658,17.94208 53.0817,12.13776 107.6486,16.55384 162.005,16.5478 32.4919,1.23859 65.3456,1.67653 97.3937,-4.67284 21.8628,-3.05112 43.8441,-8.01871 63.3983,-18.65986 15.5501,-7.93618 28.7562,-21.93251 33.1784,-39.16111 2.9079,-13.18188 0.453,-27.25422 -5.5218,-39.22726 -5.5156,-9.95807 -15.2715,-17.17531 -26.1416,-20.20356 -19.4733,-6.85388 -40.064,-9.34673 -60.267,-13.06608 -59.3757,-8.98097 -119.5704,-10.68466 -179.5196,-10.87105 z"
       id="path3365-74-3"
       inkscape:connector-curvature="0"
       sodipodi:nodetypes="csssssc"
       transform="matrix(1.0557083,0,0,0.98530351,-105.87497,4.6836258)" />
  </g>
  <g
     inkscape:groupmode="layer"
     id="layer1"
     inkscape:label="txt"
     style="display:inline">
    <text
       xml:space="preserve"
       style="font-style:normal;font-variant:normal;font-weight:normal;font-stretch:normal;line-height:0%;font-family:Lavi;-inkscape-font-specification:Lavi;text-align:center;letter-spacing:0px;word-spacing:0px;text-anchor:middle;fill:#000000;fill-opacity:1;stroke:none"
       x="1509.0961"
       y="197.70142"
       id="text4246-86"><tspan
         sodipodi:role="line"
         style="font-size:45px;line-height:1.2"
         x="1509.0961"
         y="197.70142"
         id="tspan1167">Dhe wir, Carrot?</tspan></text>
    <text
       xml:space="preserve"
       style="font-style:normal;font-variant:normal;font-weight:normal;font-stretch:normal;line-height:0%;font-family:Lavi;-inkscape-font-specification:Lavi;text-align:center;letter-spacing:0px;word-spacing:0px;text-anchor:middle;fill:#000000;fill-opacity:1;stroke:none"
       x="1512.9596"
       y="291.64587"
       id="text4246-86-3"><tspan
         sodipodi:role="line"
         style="font-size:45px;line-height:1.2"
         x="1512.9596"
         y="291.64587"
         id="tspan861">Govenek a'm beus</tspan><tspan
         sodipodi:role="line"
         style="font-size:45px;line-height:1.2"
         x="1512.9596"
         y="345.64587"
         id="tspan59">bos an boos</tspan><tspan
         sodipodi:role="line"
         style="font-size:45px;line-height:1.2"
         x="1512.9596"
         y="399.64587"
         id="tspan61">pewas gwiw.</tspan><tspan
         sodipodi:role="line"
         x="1512.9596"
         y="417.02786"
         id="tspan855" /></text>
    <text
       xml:space="preserve"
       style="font-style:normal;font-variant:normal;font-weight:normal;font-stretch:normal;line-height:0%;font-family:Lavi;-inkscape-font-specification:Lavi;text-align:center;letter-spacing:0px;word-spacing:0px;text-anchor:middle;fill:#000000;fill-opacity:1;stroke:none"
       x="1528.7344"
       y="470.10065"
       id="text4246-86-3-7"><tspan
         sodipodi:role="line"
         style="font-size:45px;line-height:1.2"
         x="1528.7344"
         y="470.10065"
         id="tspan855-5">Hager yw dha wolok...</tspan></text>
    <text
       xml:space="preserve"
       style="font-style:normal;font-variant:normal;font-weight:normal;font-stretch:normal;line-height:0%;font-family:Lavi;-inkscape-font-specification:Lavi;letter-spacing:0px;word-spacing:0px;display:inline;fill:#ffffff;fill-opacity:1;stroke:#ffffff;stroke-width:1.14998;stroke-miterlimit:4;stroke-dasharray:none;stroke-opacity:1;filter:url(#filter4375-4-1-1-1-9-6-9-2-1-7-1)"
       x="787.65729"
       y="1584.5073"
       id="text4580-1-7-3-6-9-4"
       transform="matrix(0.8084187,0.00200213,-0.18183537,0.93491494,1593.3651,-1147.577)"><tspan
         sodipodi:role="line"
         id="tspan4582-8-5-6-1-3-5"
         x="787.65729"
         y="1584.5073"
         style="font-size:70px;line-height:1.25;letter-spacing:3.44995px;fill:#ffffff;fill-opacity:1;stroke:#ffffff;stroke-width:1.14998;stroke-miterlimit:4;stroke-dasharray:none;stroke-opacity:1">...Dha wolok...</tspan></text>
    <text
       xml:space="preserve"
       style="font-style:normal;font-variant:normal;font-weight:normal;font-stretch:normal;font-size:13.859px;line-height:0%;font-family:Lavi;-inkscape-font-specification:Lavi;text-align:center;letter-spacing:0px;word-spacing:0px;text-anchor:middle;display:inline;fill:#000000;fill-opacity:1;stroke:none;stroke-width:3.6;stroke-miterlimit:4;stroke-dasharray:none"
       x="1771.8191"
       y="1411.5159"
       id="text4246-2-3-1-3-9-0-5-3-3-6-9-3-7-3-9-4"
       transform="matrix(0.87552816,0,-0.14342897,1.1421677,0,0)"><tspan
         sodipodi:role="line"
         style="font-style:normal;font-variant:normal;font-weight:bold;font-stretch:normal;font-size:64.9779px;line-height:1.25;font-family:Lavi;-inkscape-font-specification:'Lavi Bold';stroke:none;stroke-width:3.6;stroke-miterlimit:4;stroke-dasharray:none;stroke-opacity:1"
         x="1771.8191"
         y="1411.5159"
         id="tspan4579-4">An semlant!</tspan></text>
    <text
       xml:space="preserve"
       style="font-style:normal;font-variant:normal;font-weight:normal;font-stretch:normal;font-size:12.5182px;line-height:0%;font-family:Lavi;-inkscape-font-specification:Lavi;text-align:center;letter-spacing:0px;word-spacing:0px;text-anchor:middle;display:inline;fill:#000000;fill-opacity:1;stroke:none;stroke-width:3.6;stroke-miterlimit:4;stroke-dasharray:none"
       x="1618.0042"
       y="1589.5555"
       id="text4246-2-3-1-3-9-0-5-3-3-6-9-3-7-3-9-4-6"
       transform="matrix(0.92759422,0,-0.09976132,1.0780576,0,0)"><tspan
         sodipodi:role="line"
         style="font-style:normal;font-variant:normal;font-weight:bold;font-stretch:normal;font-size:58.6919px;line-height:1.25;font-family:Lavi;-inkscape-font-specification:'Lavi Bold';stroke:none;stroke-width:3.6;stroke-miterlimit:4;stroke-dasharray:none;stroke-opacity:1"
         x="1618.0042"
         y="1589.5555"
         id="tspan4579-4-2">Heb mar!</tspan></text>
    <text
       xml:space="preserve"
       style="font-style:normal;font-variant:normal;font-weight:normal;font-stretch:normal;line-height:0%;font-family:Lavi;-inkscape-font-specification:Lavi;letter-spacing:0px;word-spacing:0px;fill:#000000;fill-opacity:1;stroke:#000000;stroke-width:1.19005;stroke-miterlimit:4;stroke-dasharray:none;stroke-opacity:1;filter:url(#filter4375-4-1-1-1-9)"
       x="787.65729"
       y="1584.5073"
       id="text4580"
       transform="matrix(0.81821305,-0.33688634,-0.15105419,1.1716012,481.86174,1568.9719)"><tspan
         sodipodi:role="line"
         id="tspan4582"
         x="787.65729"
         y="1584.5073"
         style="font-size:70px;line-height:1.25;fill:#ffffff;stroke-width:1.19005">Krakk<tspan
   style="font-size:80.4001px;stroke-width:1.19005"
   id="tspan4617">!</tspan></tspan></text>
  </g>
</svg>
