<?xml version="1.0" encoding="UTF-8" standalone="no"?>
<svg
   id="svg2"
   version="1.1"
   inkscape:version="1.1 (1:1.1+202105261517+ce6663b3b7)"
   width="2481"
   height="3503"
   sodipodi:docname="E35P08.svg"
   xmlns:inkscape="http://www.inkscape.org/namespaces/inkscape"
   xmlns:sodipodi="http://sodipodi.sourceforge.net/DTD/sodipodi-0.dtd"
   xmlns:xlink="http://www.w3.org/1999/xlink"
   xmlns="http://www.w3.org/2000/svg"
   xmlns:svg="http://www.w3.org/2000/svg"
   xmlns:rdf="http://www.w3.org/1999/02/22-rdf-syntax-ns#"
   xmlns:cc="http://creativecommons.org/ns#"
   xmlns:dc="http://purl.org/dc/elements/1.1/">
  <metadata
     id="metadata8">
    <rdf:RDF>
      <cc:Work
         rdf:about="">
        <dc:format>image/svg+xml</dc:format>
        <dc:type
           rdf:resource="http://purl.org/dc/dcmitype/StillImage" />
        <dc:title />
      </cc:Work>
    </rdf:RDF>
  </metadata>
  <defs
     id="defs6" />
  <sodipodi:namedview
     pagecolor="#ffffff"
     bordercolor="#666666"
     borderopacity="1"
     objecttolerance="10"
     gridtolerance="10"
     guidetolerance="10"
     inkscape:pageopacity="0"
     inkscape:pageshadow="2"
     inkscape:window-width="1276"
     inkscape:window-height="756"
     id="namedview4"
     showgrid="false"
     inkscape:zoom="0.15136426"
     inkscape:cx="1839.9324"
     inkscape:cy="1856.4488"
     inkscape:window-x="315"
     inkscape:window-y="287"
     inkscape:window-maximized="0"
     inkscape:current-layer="layer3"
     inkscape:document-rotation="0"
     inkscape:snap-global="false"
     inkscape:pagecheckerboard="0" />
  <g
     inkscape:groupmode="layer"
     id="layer2"
     inkscape:label="artwork"
     sodipodi:insensitive="true">
    <image
       xlink:href="../gfx_Pepper-and-Carrot_by-David-Revoy_E35P08.png"
       y="0"
       x="0"
       id="image10"
       height="3503"
       width="2481" />
  </g>
  <g
     inkscape:groupmode="layer"
     id="layer3"
     inkscape:label="speechbubbles">
    <path
       style="color:#000000;fill:#ffffff;fill-opacity:1;fill-rule:nonzero;stroke:none;stroke-width:1.01748002px;marker:none;visibility:visible;display:inline;overflow:visible;enable-background:accumulate"
       d="m 892.98628,261.0943 c -29.52148,0.41318 -58.16493,13.83794 -78.43736,34.9175 -16.19009,16.13115 -26.13277,37.77352 -29.62291,60.14158 -6.28441,30.84424 -5.54723,63.66311 5.67439,93.33049 9.50509,22.8413 29.05807,40.7896 51.8868,50.23773 32.1948,13.55738 68.66701,18.55361 102.98978,10.74389 18.46743,-4.28448 35.29926,-14.72692 47.61142,-28.99736 16.9695,-19.01214 26.3741,-43.76611 29.2427,-68.79985 3.5735,-27.15985 1.9265,-55.47461 -8.0516,-81.20514 -7.5549,-18.69796 -20.83586,-35.1771 -38.02426,-46.00571 -24.36493,-16.33591 -53.88834,-24.84889 -83.26896,-24.36313 z"
       id="path3525-27"
       inkscape:connector-curvature="0" />
    <path
       style="color:#000000;display:inline;overflow:visible;visibility:visible;fill:#ffffff;fill-opacity:1;fill-rule:nonzero;stroke:none;stroke-width:0.810572px;marker:none;enable-background:accumulate"
       d="M 1586.5781 336.06836 C 1560.4411 336.74536 1534.3786 347.44405 1516.3157 366.54107 C 1495.0299 388.25697 1482.7894 418.24194 1481.8223 448.55664 C 1480.3304 479.16389 1486.9077 510.71827 1503.6461 536.66981 C 1512.5239 550.51443 1525.0291 562.16016 1539.9996 569.12759 C 1560.13 578.86789 1583.3898 581.0959 1605.2765 577.15384 C 1622.0635 574.68628 1639.4907 572.05531 1654.1721 562.96183 C 1679.2274 546.98228 1695.5418 517.96537 1695.6702 488.18754 C 1695.8758 476.49459 1695.0022 464.81527 1694.3806 453.14649 C 1692.9703 434.46217 1690.7373 415.59173 1684.4302 397.84793 C 1676.8425 377.09998 1662.2852 358.41951 1642.4574 348.18343 C 1625.3514 339.25832 1605.7607 335.6899 1586.5781 336.06836 z "
       id="path4040-4-5-3-4"
       inkscape:connector-curvature="0"
       sodipodi:nodetypes="zssssz" />
    <path
       style="fill:#ffffff;fill-rule:evenodd;stroke:none;stroke-width:1.14277px;stroke-linecap:butt;stroke-linejoin:miter;stroke-opacity:1"
       d="m 1570.0144,465.67649 c 3.0987,30.83741 11.5856,59.47611 3.7889,66.37874 -5.2069,29.42714 10.8845,84.76829 -27.9726,97.2687 63.0766,-0.64746 49.4439,-89.40053 58.0802,-122.83664 -1.084,-48.93169 -33.8965,-40.8108 -33.8965,-40.8108 z"
       id="path1085"
       inkscape:connector-curvature="0"
       sodipodi:nodetypes="ccccc" />
    <path
       style="fill:#ffffff;fill-rule:evenodd;stroke:none"
       d="m 1542.7065,1433.6607 c -35.3007,1.2572 -69.4211,15.5662 -88.4827,37.4115 -7.5657,12.0825 -5.1337,25.7037 -7.6611,38.5268 -3.3567,31.9712 -2.8879,64.7256 9.2612,95.7593 4.1174,8.577 13.5069,15.1747 24.0945,19.5925 24.0597,11.4921 54.1643,14.6769 82.2238,11.4518 28.9488,-2.1621 58.5653,-8.4467 80.8473,-22.7428 14.9889,-9.4386 22.3282,-24.396 20.7797,-38.6992 -0.2255,-18.5947 -3.4319,-37.0976 -3.4904,-55.6973 -1.0399,-18.795 -5.4265,-38.6015 -21.4532,-53.9026 -14.9471,-13.9951 -37.5743,-22.1423 -60.1882,-27.5082 -11.6009,-2.6512 -23.7305,-4.4583 -35.9309,-4.1918 z"
       id="path1299"
       inkscape:connector-curvature="0" />
    <path
       style="color:#000000;display:inline;overflow:visible;visibility:visible;fill:#ffffff;fill-opacity:1;fill-rule:nonzero;stroke:none;stroke-width:0.926478px;marker:none;enable-background:accumulate"
       d="m 1531.0092,1596.1183 c -0.6222,20.1649 6.6736,27.0756 10.0721,30.442 3.3984,3.3662 14.9068,8.9022 18.2764,13.791 2.7667,4.0585 10.3483,14.2867 6.9395,16.8185 -3.4088,2.5318 -39.8279,13.4508 -39.569,27.0665 0.2595,13.6163 7.8094,22.062 17.8671,25.0419 10.0575,2.9799 23.1527,7.0659 24.2613,17.1932 1.1078,10.1267 -6.514,17.5302 -11.286,19.742 -27.1053,5.2092 -47.6616,41.4987 -47.6616,41.4987 45.0114,-39.4077 48.8502,-21.7092 63.1997,-38.3236 5.2367,-6.2965 13.2746,-11.5246 11.2311,-22.2221 -2.0434,-10.6976 -1.7938,-21.9409 -17.0229,-26.5544 -9.8097,-4.0323 -14.2999,-6.9835 -14.1441,-10.1193 0.1565,-3.135 5.2164,-10.9397 15.2416,-10.5769 10.0258,0.3634 16.1869,-6.8408 20.9047,-21.0372 5.8565,-14.2808 -11.3944,-28.3269 -12.3251,-34.3003 -5.9525,-9.4188 -20.1936,-48.378 -11.3283,-51.0106 z"
       id="path5058-2"
       inkscape:connector-curvature="0"
       sodipodi:nodetypes="cscsssscccsccscccc" />
    <path
       style="display:inline;fill:#ffffff;fill-rule:evenodd;stroke:none;stroke-width:0.7824px;stroke-linecap:butt;stroke-linejoin:miter;stroke-opacity:1"
       d="m 877.968,2870.1388 -20.1414,-103.137 -20.06484,17.4342 -15.86649,-70.2389 -20.49195,11.5133 26.36659,82.3695 23.57881,-19.15 z"
       id="path4667-2"
       inkscape:connector-curvature="0" />
    <path
       style="display:inline;fill:#ffffff;fill-rule:evenodd;stroke:none;stroke-width:0.800756px;stroke-linecap:butt;stroke-linejoin:miter;stroke-opacity:1"
       d="m 682.33117,2721.47 c 17.58658,-9.7562 33.39725,-42.5286 -3.6892,-77.162 42.20071,11.8434 59.77352,-10.1068 73.68241,-92.6185 34.06991,72.3546 48.80253,51.3106 58.048,24.8341 -2.5869,49.2768 33.04814,42.2858 48.31129,16.0446 -4.9577,76.3831 20.63384,79.0172 43.5994,87.989 -39.26404,11.119 -16.2116,33.6361 -11.28843,52.8383 -46.88903,-15.0176 -61.9634,9.436 -59.2279,55.9848 -18.13836,-12.0405 -41.31769,-48.333 -39.71646,34.5863 -16.29453,-59.6942 -27.92724,-42.7914 -37.92314,1.0069 -5.63912,-20.2619 2.06382,-64.0489 -33.29199,-31.9099 14.15398,-34.8193 6.97849,-60.982 -38.50398,-71.5936 z"
       id="path4584-9"
       inkscape:connector-curvature="0"
       sodipodi:nodetypes="cccccccccccc" />
    <path
       style="color:#000000;display:inline;overflow:visible;visibility:visible;fill:#ffffff;fill-opacity:1;fill-rule:nonzero;stroke:none;stroke-width:1.01599px;marker:none;enable-background:accumulate"
       d="m 915.25633,477.71228 c -4.04952,48.32505 20.65484,106.85492 115.89287,109.89183 -80.33867,-15.35995 -92.0301,-64.16762 -83.52693,-109.83472 7.34037,-39.42391 8.64622,-57.69856 8.64622,-57.69856 z"
       id="path4440-3"
       inkscape:connector-curvature="0"
       sodipodi:nodetypes="ccscc" />
  </g>
  <g
     inkscape:groupmode="layer"
     id="layer1"
     inkscape:label="txt">
    <text
       xml:space="preserve"
       style="font-style:normal;font-variant:normal;font-weight:normal;font-stretch:normal;line-height:0%;font-family:ComicSpice;-inkscape-font-specification:ComicSpice;text-align:center;letter-spacing:0px;word-spacing:0px;text-anchor:middle;fill:#000000;fill-opacity:1;stroke:none"
       x="897.05707"
       y="337.07599"
       id="text4246-3-2-2-3"><tspan
         style="font-style:normal;font-variant:normal;font-weight:normal;font-stretch:normal;font-size:45px;line-height:1.25;font-family:ComicSpice;-inkscape-font-specification:ComicSpice"
         sodipodi:role="line"
         x="897.05707"
         y="337.07599"
         id="tspan877-5">Khoan đã! </tspan><tspan
         style="font-style:normal;font-variant:normal;font-weight:normal;font-stretch:normal;font-size:45px;line-height:1.25;font-family:ComicSpice;-inkscape-font-specification:ComicSpice"
         sodipodi:role="line"
         x="897.05707"
         y="393.32599"
         id="tspan863">Tôi đã trở</tspan><tspan
         style="font-style:normal;font-variant:normal;font-weight:normal;font-stretch:normal;font-size:45px;line-height:1.25;font-family:ComicSpice;-inkscape-font-specification:ComicSpice"
         sodipodi:role="line"
         x="897.05707"
         y="449.57599"
         id="tspan7479">thành gì?</tspan></text>
    <text
       xml:space="preserve"
       style="font-style:normal;font-variant:normal;font-weight:bold;font-stretch:normal;line-height:0%;font-family:ComicSpice;-inkscape-font-specification:'ComicSpice Bold';text-align:center;letter-spacing:0px;word-spacing:0px;text-anchor:middle;fill:#000000;fill-opacity:1;stroke:none"
       x="1590.5607"
       y="429.04697"
       id="text4246-3-2-2-3-3"><tspan
         sodipodi:role="line"
         x="1590.5607"
         y="429.04697"
         id="tspan957"
         style="font-style:normal;font-variant:normal;font-weight:bold;font-stretch:normal;font-size:56px;line-height:1.25;font-family:ComicSpice;-inkscape-font-specification:'ComicSpice Bold'">Một kẻ</tspan><tspan
         sodipodi:role="line"
         x="1590.5607"
         y="499.04697"
         style="font-style:normal;font-variant:normal;font-weight:bold;font-stretch:normal;font-size:56px;line-height:1.25;font-family:ComicSpice;-inkscape-font-specification:'ComicSpice Bold'"
         id="tspan7475">sát thủ?</tspan></text>
    <text
       xml:space="preserve"
       style="font-style:normal;font-variant:normal;font-weight:normal;font-stretch:normal;line-height:0%;font-family:ComicSpice;-inkscape-font-specification:ComicSpice;text-align:center;letter-spacing:0px;word-spacing:0px;text-anchor:middle;fill:#000000;fill-opacity:1;stroke:none"
       x="1553.8608"
       y="1516.9849"
       id="text4246-3-2-2-3-9"><tspan
         style="font-style:normal;font-variant:normal;font-weight:normal;font-stretch:normal;font-size:53.3405px;line-height:1.25;font-family:ComicSpice;-inkscape-font-specification:ComicSpice"
         sodipodi:role="line"
         x="1553.8608"
         y="1516.9849"
         id="tspan998">Một phù</tspan><tspan
         style="font-style:normal;font-variant:normal;font-weight:normal;font-stretch:normal;font-size:53.3405px;line-height:1.25;font-family:ComicSpice;-inkscape-font-specification:ComicSpice"
         sodipodi:role="line"
         x="1553.8608"
         y="1583.6605"
         id="tspan7471">thủy ác?</tspan></text>
    <text
       xml:space="preserve"
       style="font-style:normal;font-variant:normal;font-weight:bold;font-stretch:normal;line-height:0%;font-family:ComicSpice;-inkscape-font-specification:'ComicSpice Bold';text-align:center;letter-spacing:0px;word-spacing:0px;text-anchor:middle;fill:#000000;fill-opacity:1;stroke:none;stroke-width:1.18634"
       x="1226.4388"
       y="2652.8953"
       id="text4246-3-2-2-3-9-0"
       transform="matrix(0.90421598,-0.22651773,-0.12390474,1.1369702,0,0)"><tspan
         style="font-style:normal;font-variant:normal;font-weight:bold;font-stretch:normal;font-size:104.682px;line-height:1.25;font-family:ComicSpice;-inkscape-font-specification:'ComicSpice Bold';stroke-width:1.18634"
         sodipodi:role="line"
         x="1226.4388"
         y="2652.8953"
         id="tspan998-6"><tspan
   style="font-style:normal;font-variant:normal;font-weight:bold;font-stretch:normal;font-size:79.44px;font-family:ComicSpice;-inkscape-font-specification:'ComicSpice Bold';stroke-width:1.18634"
   id="tspan1037">!</tspan><tspan
   id="tspan1045"
   style="font-style:normal;font-variant:normal;font-weight:bold;font-stretch:normal;font-size:91.8525px;font-family:ComicSpice;-inkscape-font-specification:'ComicSpice Bold';stroke-width:1.18634">!</tspan>!</tspan></text>
  </g>
</svg>
