<?xml version="1.0" encoding="UTF-8" standalone="no"?>
<svg
   xmlns:dc="http://purl.org/dc/elements/1.1/"
   xmlns:cc="http://creativecommons.org/ns#"
   xmlns:rdf="http://www.w3.org/1999/02/22-rdf-syntax-ns#"
   xmlns:svg="http://www.w3.org/2000/svg"
   xmlns="http://www.w3.org/2000/svg"
   xmlns:xlink="http://www.w3.org/1999/xlink"
   xmlns:sodipodi="http://sodipodi.sourceforge.net/DTD/sodipodi-0.dtd"
   xmlns:inkscape="http://www.inkscape.org/namespaces/inkscape"
   sodipodi:docname="E09P01.svg"
   height="3503"
   width="2481"
   inkscape:version="1.0 (4035a4f, 2020-05-01)"
   version="1.1"
   id="svg2">
  <sodipodi:namedview
     inkscape:window-maximized="0"
     inkscape:window-y="23"
     inkscape:window-x="0"
     inkscape:document-rotation="0"
     inkscape:current-layer="layer1"
     inkscape:cy="2901.0789"
     inkscape:cx="1344.0244"
     inkscape:zoom="0.38589744"
     showgrid="false"
     id="namedview70"
     inkscape:window-height="790"
     inkscape:window-width="1440"
     inkscape:pageshadow="2"
     inkscape:pageopacity="0"
     bordercolor="#666666"
     pagecolor="#ffffff" />
  <metadata
     id="metadata8">
    <rdf:RDF>
      <cc:Work
         rdf:about="">
        <dc:format>image/svg+xml</dc:format>
        <dc:type
           rdf:resource="http://purl.org/dc/dcmitype/StillImage" />
        <dc:title />
      </cc:Work>
    </rdf:RDF>
  </metadata>
  <defs
     id="defs6">
    <filter
       inkscape:menu="Textures"
       inkscape:menu-tooltip="Aquarelle paper effect which can be used for pictures as for objects"
       width="1.3"
       x="-0.15"
       height="1.3"
       y="-0.15"
       id="filter4348"
       inkscape:label="Rough Paper"
       style="color-interpolation-filters:sRGB;">
      <feFlood
         id="feFlood4350"
         result="flood"
         flood-color="rgb(70,103,83)"
         flood-opacity="0.34999999999999998" />
      <feComposite
         id="feComposite4352"
         result="composite1"
         operator="in"
         in2="SourceGraphic"
         in="flood" />
      <feGaussianBlur
         id="feGaussianBlur4354"
         result="blur"
         stdDeviation="3"
         in="composite1" />
      <feOffset
         id="feOffset4356"
         result="offset"
         dy="6"
         dx="6" />
      <feComposite
         id="feComposite4358"
         result="fbSourceGraphic"
         operator="over"
         in2="offset"
         in="SourceGraphic" />
      <feColorMatrix
         id="feColorMatrix4223"
         values="0 0 0 -1 0 0 0 0 -1 0 0 0 0 -1 0 0 0 0 1 0"
         in="fbSourceGraphic"
         result="fbSourceGraphicAlpha" />
      <feTurbulence
         in="fbSourceGraphic"
         result="result4"
         seed="0"
         numOctaves="5.057873485868102"
         baseFrequency="0.04"
         type="fractalNoise"
         id="feTurbulence4225" />
      <feDisplacementMap
         result="result3"
         scale="0"
         xChannelSelector="R"
         yChannelSelector="G"
         in="fbSourceGraphic"
         in2="result4"
         id="feDisplacementMap4227" />
      <feDiffuseLighting
         in="result4"
         result="result1"
         surfaceScale="2"
         diffuseConstant="1"
         lighting-color="rgb(233,230,215)"
         id="feDiffuseLighting4229">
        <feDistantLight
           elevation="47"
           azimuth="235"
           id="feDistantLight4231" />
      </feDiffuseLighting>
      <feComposite
         numOctaves="5"
         result="result2"
         in="result3"
         operator="in"
         in2="result1"
         id="feComposite4233" />
      <feComposite
         k1="1.7"
         operator="arithmetic"
         result="result5"
         in2="result1"
         id="feComposite4235" />
      <feBlend
         mode="normal"
         in="result5"
         in2="result3"
         id="feBlend4237" />
    </filter>
    <filter
       inkscape:menu="Textures"
       inkscape:menu-tooltip="Aquarelle paper effect which can be used for pictures as for objects"
       width="1.3"
       x="-0.15000001"
       height="1.3"
       y="-0.15000001"
       id="filter4348-4"
       inkscape:label="Rough Paper"
       style="color-interpolation-filters:sRGB">
      <feFlood
         id="feFlood4350-7"
         result="flood"
         flood-color="rgb(70,103,83)"
         flood-opacity="0.34999999999999998" />
      <feComposite
         id="feComposite4352-3"
         result="composite1"
         operator="in"
         in2="SourceGraphic"
         in="flood" />
      <feGaussianBlur
         id="feGaussianBlur4354-3"
         result="blur"
         stdDeviation="3"
         in="composite1" />
      <feOffset
         id="feOffset4356-0"
         result="offset"
         dy="6"
         dx="6" />
      <feComposite
         id="feComposite4358-4"
         result="fbSourceGraphic"
         operator="over"
         in2="offset"
         in="SourceGraphic" />
      <feColorMatrix
         id="feColorMatrix4223-4"
         values="0 0 0 -1 0 0 0 0 -1 0 0 0 0 -1 0 0 0 0 1 0"
         in="fbSourceGraphic"
         result="fbSourceGraphicAlpha" />
      <feTurbulence
         result="result4"
         seed="0"
         numOctaves="5.057873485868102"
         baseFrequency="0.04"
         type="fractalNoise"
         id="feTurbulence4225-8" />
      <feDisplacementMap
         result="result3"
         scale="0"
         xChannelSelector="R"
         yChannelSelector="G"
         in="fbSourceGraphic"
         in2="result4"
         id="feDisplacementMap4227-2" />
      <feDiffuseLighting
         in="result4"
         result="result1"
         surfaceScale="2"
         diffuseConstant="1"
         lighting-color="#e9e6d7"
         id="feDiffuseLighting4229-4">
        <feDistantLight
           elevation="47"
           azimuth="235"
           id="feDistantLight4231-0" />
      </feDiffuseLighting>
      <feComposite
         numOctaves="5"
         result="result2"
         in="result3"
         operator="in"
         in2="result1"
         id="feComposite4233-7" />
      <feComposite
         k1="1.7"
         operator="arithmetic"
         result="result5"
         in2="result1"
         id="feComposite4235-0"
         k2="0"
         k3="0"
         k4="0" />
      <feBlend
         mode="normal"
         in="result5"
         in2="result3"
         id="feBlend4237-1" />
    </filter>
  </defs>
  <sodipodi:namedview
     inkscape:current-layer="layer1"
     inkscape:window-maximized="1"
     inkscape:window-y="26"
     inkscape:window-x="0"
     inkscape:cy="1237.4403"
     inkscape:cx="624.04673"
     inkscape:zoom="0.2630065"
     showgrid="false"
     id="namedview4"
     inkscape:window-height="1025"
     inkscape:window-width="1920"
     inkscape:pageshadow="2"
     inkscape:pageopacity="0"
     guidetolerance="10"
     gridtolerance="10"
     objecttolerance="10"
     borderopacity="1"
     bordercolor="#666666"
     pagecolor="#ffffff" />
  <g
     sodipodi:insensitive="true"
     inkscape:label="artwork"
     id="layer2"
     inkscape:groupmode="layer">
    <image
       sodipodi:absref="/Users/julienj-mauduit/Downloads/lang-2/gfx_Pepper-and-Carrot_by-David-Revoy_E09P01.png"
       xlink:href="../gfx_Pepper-and-Carrot_by-David-Revoy_E09P01.png"
       y="0"
       x="0"
       id="image10"
       height="3503"
       width="2481" />
  </g>
  <g
     inkscape:label="speechbubbles"
     id="layer3"
     inkscape:groupmode="layer" />
  <g
     inkscape:label="txt"
     id="layer1"
     inkscape:groupmode="layer">
    <flowRoot
       transform="translate(-6.0242248,-187.9807)"
       style="font-style:normal;font-variant:normal;font-weight:normal;font-stretch:normal;line-height:0.01%;font-family:Lavi;-inkscape-font-specification:Lavi;text-align:center;letter-spacing:0px;word-spacing:0px;text-anchor:middle;fill:#ffffff;fill-opacity:1;stroke:none"
       id="flowRoot2987-4-9-3"
       xml:space="preserve"><flowRegion
         id="flowRegion2989-5-4-5"><rect
           style="font-style:normal;font-variant:normal;font-weight:normal;font-stretch:normal;font-family:Lavi;-inkscape-font-specification:Lavi;text-align:center;text-anchor:middle;fill:#ffffff;fill-opacity:1"
           y="265.53046"
           x="120.55251"
           height="126.42379"
           width="611.27222"
           id="rect2991-7-9-6" /></flowRegion><flowPara
         id="flowPara3030-8"
         style="font-size:48px;line-height:1.25;text-align:start;text-anchor:start;fill:#000000;fill-opacity:1">Lé jou d'ampraès</flowPara><flowPara
         id="flowPara4188"
         style="font-size:48px;line-height:1.25;text-align:start;text-anchor:start;fill:#000000;fill-opacity:1">          d'l'affête* ...</flowPara></flowRoot>
    <path
       sodipodi:nodetypes="cssssc"
       inkscape:connector-curvature="0"
       id="path3659"
       d="m 215.65925,2051.7007 c -7.93644,-100.1139 55.25162,-115.7436 96.99557,-136.02 45.39936,-22.052 410.70627,-9.9903 470.81477,27.9233 59.41123,37.4738 97.1945,164.2779 -30.79407,208.1156 -127.98866,43.8376 -367.46741,29.038 -403.13534,19.331 -33.70849,-9.1738 -121.7898,-40.5723 -133.88093,-119.3499 z"
       style="fill:#ffffff;fill-opacity:1;stroke:none" />
    <path
       sodipodi:nodetypes="cssssc"
       inkscape:connector-curvature="0"
       id="path3659-2"
       d="m 480.82996,2237.5221 c -5.43355,-56.3576 37.82714,-65.1562 66.40645,-76.5704 31.08194,-12.4139 281.18339,-5.6239 322.33568,15.719 40.675,21.0953 66.54266,92.4779 -21.08264,117.1557 -87.62537,24.6777 -251.58061,16.3465 -276.00008,10.8821 -23.07796,-5.1642 -83.3814,-22.8396 -91.65941,-67.1864 z"
       style="fill:#ffffff;fill-opacity:1;stroke:none" />
    <path
       sodipodi:nodetypes="csscsscc"
       inkscape:connector-curvature="0"
       id="path4437"
       d="m 871.30221,2202.8829 c 19.88706,-38.5312 45.96683,-62.6419 68.36179,-63.3901 37.20404,-1.2429 67.6666,59.6051 82.5819,57.1192 14.9153,-2.4859 28.0399,-8.6444 33.0117,-48.4186 1.2429,69.6048 -44.7161,67.5912 -61.52914,53.4185 -17.61577,-14.8494 -41.97438,-47.6348 -55.31442,-35.4063 -14.25138,13.0639 -48.46771,72.7226 -48.46771,72.7226 z"
       style="fill:#ffffff;fill-rule:evenodd;stroke:none;stroke-width:1px;stroke-linecap:butt;stroke-linejoin:miter;stroke-opacity:1;fill-opacity:1" />
    <flowRoot
       transform="translate(104.57548,1659.0162)"
       style="font-style:normal;font-variant:normal;font-weight:normal;font-stretch:normal;line-height:0.01%;font-family:Lavi;-inkscape-font-specification:Lavi;text-align:center;letter-spacing:0px;word-spacing:0px;text-anchor:middle;fill:#000000;fill-opacity:1;stroke:none"
       id="flowRoot2987-4-9-3-3"
       xml:space="preserve"><flowRegion
         id="flowRegion2989-5-4-5-4"><rect
           style="font-style:normal;font-variant:normal;font-weight:normal;font-stretch:normal;font-family:Lavi;-inkscape-font-specification:Lavi;text-align:center;text-anchor:middle"
           y="265.53046"
           x="120.55251"
           height="310.73996"
           width="602.40173"
           id="rect2991-7-9-6-6" /></flowRegion><flowPara
         id="flowPara3030-8-0"
         style="font-size:48px;line-height:1.25;text-align:center;text-anchor:middle">tyins,</flowPara><flowPara
         id="flowPara4451"
         style="font-size:48px;line-height:1.25;text-align:center;text-anchor:middle">lé symbole dés moutanes,</flowPara><flowPara
         id="flowPara4453"
         style="font-size:48px;line-height:1.25;text-align:center;text-anchor:middle">d'la gaunt et dés </flowPara><flowPara
         id="flowPara4455"
         style="font-size:48px;line-height:1.25;text-align:center;text-anchor:middle">bauncs ?</flowPara></flowRoot>
    <flowRoot
       transform="translate(281.01038,1935.0835)"
       style="font-style:normal;font-variant:normal;font-weight:normal;font-stretch:normal;line-height:0.01%;font-family:Lavi;-inkscape-font-specification:Lavi;text-align:center;letter-spacing:0px;word-spacing:0px;text-anchor:middle;fill:#000000;fill-opacity:1;stroke:none"
       id="flowRoot2987-4-9-3-3-3"
       xml:space="preserve"><flowRegion
         id="flowRegion2989-5-4-5-4-4"><rect
           style="font-style:normal;font-variant:normal;font-weight:normal;font-stretch:normal;font-family:Lavi;-inkscape-font-specification:Lavi;text-align:center;text-anchor:middle"
           y="265.53046"
           x="120.55251"
           height="310.73996"
           width="602.40173"
           id="rect2991-7-9-6-6-7" /></flowRegion><flowPara
         id="flowPara4455-8"
         style="font-size:48px;line-height:1.25;text-align:center;text-anchor:middle">Més pourqué ?</flowPara></flowRoot>
    <path
       inkscape:connector-curvature="0"
       id="path4499"
       d="m 281.17336,3149.5017 5.68848,-1.219 -4.0632,-5.2821 23.56655,-71.106 7.31376,1.219 -0.40632,-5.2822 9.75168,1.6253 4.06319,3.6569 7.72008,-6.9075 18.2844,-1.2189 38.60039,-24.3792 8.93903,-11.377 23.16024,-5.2821 7.31375,0.4063 -0.81264,-6.0948 14.62752,0.8126 25.19183,5.2822 54.44687,10.158 16.25279,1.6253 21.53496,0.4063 -2.0316,5.2821 21.12863,0.8127 0,-6.0948 21.94127,11.3769 9.75168,6.0948 47.13311,19.5034 -2.43792,3.2505 6.0948,12.1896 -6.0948,8.5328 7.31375,21.1286 2.43792,27.6297 -1.62528,10.158 -2.84423,-6.0948 -10.158,7.7201 -5.28216,16.2528 -8.1264,2.8443 -2.43792,-3.2506 -23.16023,12.5959 -40.22567,12.5959 -12.59591,2.0316 1.62527,-2.0316 -14.22119,3.6569 -30.88031,3.2506 -18.69072,-3.2506 c 0,0 -13.00223,0.8126 -14.62751,0.8126 -1.62528,0 -59.3227,-4.0632 -59.3227,-4.0632 l -31.69296,-0.8126 -23.16023,-3.2505 -21.94127,-4.8759 -35.34983,-16.2528 -21.53496,-13.8149 z"
       style="fill:#ffffff;fill-rule:evenodd;stroke:none;stroke-width:1px;stroke-linecap:butt;stroke-linejoin:miter;stroke-opacity:1" />
    <path
       sodipodi:nodetypes="cccccccccccccsscscccccssssccc"
       inkscape:connector-curvature="0"
       id="path4501"
       d="m 655.39397,3099.118 13.00223,3.2506 c 0,0 3.65688,-0.8126 9.75168,-1.6253 6.0948,-0.8126 50.78999,-0.8126 56.88478,0.4063 1.62528,-2.0316 0.40632,-5.6884 0.40632,-5.6884 l 5.68848,2.0316 -1.21896,-5.6885 4.46952,2.4379 1.21896,-13.0022 4.0632,1.2189 0.81264,-3.6569 10.56432,2.438 c 0,0 -16.65912,-14.2212 -21.12864,-15.0339 -4.46952,-0.8126 26.00448,-2.4379 56.07215,5.6885 30.06767,8.1264 52.41526,13.0022 57.69742,16.2528 5.28216,3.2506 66.23014,30.8803 87.35877,71.106 -35.75615,-32.0993 -86.95245,-59.3227 -98.32941,-62.167 -11.37695,-2.8442 -63.3859,-10.158 -78.41973,-6.0948 12.59591,9.3454 11.53275,9.1896 13.97067,13.2528 -8.53272,-5.2822 -16.75993,-2.7801 -16.75993,-2.7801 l 6.03981,3.3422 -8.92989,1.7842 c 0,0 2.20581,5.0164 1.79949,7.8606 -0.40632,2.8442 0.51019,6.6936 -6.80356,6.2873 -7.31376,-0.4063 -13.69579,-1.7109 -19.38427,-2.1172 -5.68847,-0.4063 -56.47846,5.2822 -59.3227,7.3138 -2.84424,2.0316 -23.56655,16.6591 -23.56655,16.6591 l -6.50112,-30.0677 z"
       style="fill:#ffffff;fill-rule:evenodd;stroke:none;stroke-width:1px;stroke-linecap:butt;stroke-linejoin:miter;stroke-opacity:1" />
    <flowRoot
       transform="translate(58.175773,2824.3887)"
       style="font-style:normal;font-variant:normal;font-weight:normal;font-stretch:normal;line-height:0.01%;font-family:Lavi;-inkscape-font-specification:Lavi;text-align:center;letter-spacing:0px;word-spacing:0px;text-anchor:middle;fill:#000000;fill-opacity:1;stroke:none"
       id="flowRoot2987-4-9-3-0"
       xml:space="preserve"><flowRegion
         id="flowRegion2989-5-4-5-1"><rect
           style="font-style:normal;font-variant:normal;font-weight:normal;font-stretch:normal;font-family:Lavi;-inkscape-font-specification:Lavi;text-align:center;text-anchor:middle"
           y="265.53046"
           x="120.55251"
           height="310.73996"
           width="602.40173"
           id="rect2991-7-9-6-4" /></flowRegion><flowPara
         id="flowPara3030-8-7"
         style="font-size:48px;line-height:1.25;text-align:center;letter-spacing:1.5px;text-anchor:middle;stroke:#000000;stroke-width:1.1;stroke-miterlimit:4;stroke-dasharray:none;stroke-opacity:1">Oh nin !</flowPara></flowRoot>
    <flowRoot
       transform="translate(1718.0312,1515.754)"
       style="font-style:normal;font-variant:normal;font-weight:normal;font-stretch:normal;line-height:0.01%;font-family:Lavi;-inkscape-font-specification:Lavi;text-align:center;letter-spacing:0px;word-spacing:0px;text-anchor:middle;fill:#000000;fill-opacity:1;stroke:none"
       id="flowRoot2987-4-9-3-3-32"
       xml:space="preserve"><flowRegion
         id="flowRegion2989-5-4-5-4-3"><rect
           style="font-style:normal;font-variant:normal;font-weight:normal;font-stretch:normal;font-family:Lavi;-inkscape-font-specification:Lavi;text-align:center;text-anchor:middle"
           y="265.53046"
           x="120.55251"
           height="73.239937"
           width="1144.9017"
           id="rect2991-7-9-6-6-70" /></flowRegion><flowPara
         id="flowPara4455-84"
         style="font-size:48px;line-height:1.25;text-align:center;text-anchor:middle"> </flowPara></flowRoot>
    <flowRoot
       transform="translate(1388.1288,1543.2042)"
       style="font-style:normal;font-variant:normal;font-weight:normal;font-stretch:normal;line-height:0.01%;font-family:Lavi;-inkscape-font-specification:Lavi;text-align:center;letter-spacing:0px;word-spacing:0px;text-anchor:middle;fill:#000000;fill-opacity:1;stroke:none"
       id="flowRoot2987-4-9-3-3-3-3"
       xml:space="preserve"><flowRegion
         id="flowRegion2989-5-4-5-4-4-4"><rect
           style="font-style:normal;font-variant:normal;font-weight:normal;font-stretch:normal;font-family:Lavi;-inkscape-font-specification:Lavi;text-align:center;text-anchor:middle"
           y="265.53046"
           x="120.55251"
           height="273.23993"
           width="1019.9017"
           id="rect2991-7-9-6-6-7-3" /></flowRegion><flowPara
         id="flowPara4455-8-5"
         style="font-size:37.5px;line-height:1.25;text-align:center;text-anchor:middle;fill:#7f7f7f;fill-opacity:1">* Veî l'histouère 8 : L'annivèrsaire dé Pepper</flowPara></flowRoot>
  </g>
</svg>
